Division,WeightClassKg,Place,Name,Team,BodyweightKg,Best3SquatKg,Best3BenchKg,Best3DeadliftKg,TotalKg,Equipment,Event,Sex
Boys,52,1,Tyrese Perkins,Cotulla,50.98,99.79,61.23,106.59,267.62,Single-ply,SBD,M
Boys,52,2,Alex Gallegos,Carrizo Springs,51.44,74.84,52.16,102.06,229.06,Single-ply,SBD,M
Boys,52,3,Silverio Mendoza,Crystal City,49.99,72.57,54.43,86.18,213.19,Single-ply,SBD,M
Boys,56,1,Leo Carrizales,Cotulla,55.61,133.81,86.18,149.69,369.68,Single-ply,SBD,M
Boys,56,3,Justin Brady,Carrizo Springs,54.43,102.06,68.04,142.88,312.98,Single-ply,SBD,M
Boys,56,5,Christian Campos,Uvalde,54.79,92.99,61.23,113.4,267.62,Single-ply,SBD,M
Boys,60,1,Juan Rojas,La Pryor,57.56,154.22,108.86,138.35,401.43,Single-ply,SBD,M
Boys,60,2,Luke Torres,Devine,59.6,142.88,83.91,163.29,390.09,Single-ply,SBD,M
Boys,60,2,Rudy Rios,Devine,55.97,122.47,79.38,149.69,351.53,Single-ply,SBD,M
Boys,60,3,Colton Bean,Devine,58.06,127.01,63.5,124.74,315.25,Single-ply,SBD,M
Boys,60,4,Jason Flores,Cotulla,55.97,111.13,70.31,124.74,306.17,Single-ply,SBD,M
Boys,60,5,Jorge Gonzalez #5,Cotulla,59.6,97.52,68.04,106.59,272.16,Single-ply,SBD,M
Boys,60,DQ,Reagan Leone,Cotulla,59.87,,,,,Single-ply,SBD,M
Boys,67.5,1,Raul Garcia,Cotulla,64.5,185.97,113.4,199.58,498.95,Single-ply,SBD,M
Boys,67.5,2,Luis Perales,Carrizo Springs,67.04,165.56,111.13,190.51,467.2,Single-ply,SBD,M
Boys,67.5,3,Joe Garza,Dilley,66.86,165.56,97.52,154.22,417.3,Single-ply,SBD,M
Boys,67.5,4,Juid Colchado,Cotulla,60.06,111.13,79.38,115.67,306.17,Single-ply,SBD,M
Boys,67.5,4,Ismael Franco,Crystal City,62.78,147.42,92.99,172.37,412.77,Single-ply,SBD,M
Boys,67.5,5,Jose Fargason,Devine,64.5,120.2,83.91,176.9,381.02,Single-ply,SBD,M
Boys,67.5,6,Marco Gomez,Crystal City,65.32,145.15,92.99,138.35,376.48,Single-ply,SBD,M
Boys,67.5,7,Chase Dubose,Devine,66.32,138.35,74.84,149.69,362.87,Single-ply,SBD,M
Boys,67.5,8,Samuel Ozuna,Center Point,61.96,127.01,72.57,136.08,335.66,Single-ply,SBD,M
Boys,67.5,9,Rene Alvarado,Center Point,65.32,102.06,81.65,136.08,319.78,Single-ply,SBD,M
Boys,67.5,10,Jon Michael Lomas,Crystal City,64.41,115.67,65.77,108.86,290.3,Single-ply,SBD,M
Boys,67.5,11,Juan Guzman,Crystal City,61.05,95.25,65.77,102.06,263.08,Single-ply,SBD,M
Boys,67.5,12,Israel Munoz,Crystal City,61.23,61.23,34.02,102.06,197.31,Single-ply,SBD,M
Boys,67.5,DQ,Tomas Montellano,Crystal City,64.59,83.91,,,,Single-ply,SBD,M
Boys,67.5,DQ,Dominik Espinoza,Center Point,61.6,,,,,Single-ply,SBD,M
Boys,67.5,DQ,Enrique Garza,Dilley,63.32,138.35,,,,Single-ply,SBD,M
Boys,75,1,Gil Garcia,Crystal City,70.31,147.42,97.52,206.38,451.32,Single-ply,SBD,M
Boys,75,2,Angel Martinez,Cotulla,74.75,165.56,108.86,154.22,428.64,Single-ply,SBD,M
Boys,75,3,Eric Gonzales #2,Carrizo Springs,71.89,133.81,88.45,174.63,396.89,Single-ply,SBD,M
Boys,75,4,Lucas Byrd,Devine,73.3,145.15,95.25,154.22,394.63,Single-ply,SBD,M
Boys,75,5,Barrett Blackledge,Center Point,73.84,140.61,92.99,140.61,374.21,Single-ply,SBD,M
Boys,75,6,Noah Brogdon,Devine,73.57,133.81,95.25,140.61,369.68,Single-ply,SBD,M
Boys,75,7,Juergen Lapham,Center Point,71.58,133.81,70.31,154.22,358.34,Single-ply,SBD,M
Boys,75,8,Frankie Mendez,Carrizo Springs,68.49,102.06,92.99,124.74,319.78,Single-ply,SBD,M
Boys,75,9,Jo-Jacob Rivera,Crystal City,69.94,106.59,70.31,136.08,312.98,Single-ply,SBD,M
Boys,75,10,Josiah Carrizalez,Uvalde,69.49,106.59,61.23,124.74,292.57,Single-ply,SBD,M
Boys,75,11,Cesar Franco,Crystal City,70.31,108.86,52.16,129.27,290.3,Single-ply,SBD,M
Boys,75,12,Jeremiah Munoz,Uvalde,67.68,90.72,54.43,111.13,256.28,Single-ply,SBD,M
Boys,75,13,Eloy Barere,Uvalde,73.39,74.84,45.36,74.84,195.04,Single-ply,SBD,M
Boys,75,DQ,Elijah Galindo,Uvalde,71.94,90.72,,,,Single-ply,SBD,M
Boys,75,DQ,Jaime Garza,Devine,69.31,122.47,,,,Single-ply,SBD,M
Boys,82.5,1,Dustin Del Toro,Cotulla,76.2,208.65,113.4,219.99,542.04,Single-ply,SBD,M
Boys,82.5,2,Andre Garza,Cotulla,80.47,181.44,113.4,167.83,462.66,Single-ply,SBD,M
Boys,82.5,3,Josh Cooper,Center Point,79.38,167.83,106.59,167.83,442.25,Single-ply,SBD,M
Boys,82.5,5,Giovanni Narviaz,Cotulla,81.1,154.22,74.84,149.69,378.75,Single-ply,SBD,M
Boys,82.5,6,Diego Pesina,La Pryor,78.74,102.06,47.63,83.91,233.6,Single-ply,SBD,M
Boys,82.5,7,Lorenzo Camacho,Uvalde,78.7,43.09,52.16,70.31,165.56,Single-ply,SBD,M
Boys,90,1,Steven Medrano,Dilley,84.73,240.4,142.88,213.19,596.47,Single-ply,SBD,M
Boys,90,2,Ethan Chapa,Center Point,89.63,163.29,106.59,181.44,451.32,Single-ply,SBD,M
Boys,90,3,Mario Mendoza,Carrizo Springs,86.18,147.42,115.67,179.17,442.25,Single-ply,SBD,M
Boys,90,4,Beau Medrano,Dilley,82.28,172.37,102.06,165.56,439.98,Single-ply,SBD,M
Boys,90,4,Jordan Lara,Knippa,83.64,161.03,68.04,145.15,374.21,Single-ply,SBD,M
Boys,90,5,Steven Muzquiz,Crystal City,83.46,117.93,90.72,147.42,356.07,Single-ply,SBD,M
Boys,90,6,Fred Chong,Carrizo Springs,83.01,106.59,70.31,149.69,326.59,Single-ply,SBD,M
Boys,90,7,Brandon Capeheart,Knippa,88.9,124.74,79.38,113.4,317.51,Single-ply,SBD,M
Boys,90,8,Juan Oyervidez,Carrizo Springs,89.81,102.06,72.57,142.88,317.51,Single-ply,SBD,M
Boys,90,9,Jonathan Davalos,Crystal City,85.55,113.4,88.45,113.4,315.25,Single-ply,SBD,M
Boys,90,10,Dyllan Maldonado,Dilley,83.46,99.79,52.16,111.13,263.08,Single-ply,SBD,M
Boys,90,DQ,Anthony Maldonado,La Pryor,83.01,136.08,,,,Single-ply,SBD,M
Boys,100,1,Jose Orellana,La Pryor,97.7,201.85,151.95,226.8,580.6,Single-ply,SBD,M
Boys,100,2,Daniel Mann,Devine,93.12,195.04,149.69,208.65,553.38,Single-ply,SBD,M
Boys,100,3,Eli Rejino,Devine,98.79,206.38,149.69,192.78,548.85,Single-ply,SBD,M
Boys,100,4,David Arvizo,La Pryor,96.62,161.03,111.13,161.03,433.18,Single-ply,SBD,M
Boys,100,5,Austin Felan,Devine,93.17,163.29,117.93,147.42,428.64,Single-ply,SBD,M
Boys,100,6,Andrew Stillwell,Cotulla,96.98,174.63,88.45,145.15,408.23,Single-ply,SBD,M
Boys,100,7,Cruz Montez,Carrizo Springs,91.17,145.15,102.06,149.69,396.89,Single-ply,SBD,M
Boys,100,8,Demetrius Arrizola,Dilley,94.17,154.22,70.31,149.69,374.21,Single-ply,SBD,M
Boys,100,9,Lino Castro,Crystal City,90.63,70.31,52.16,83.91,206.38,Single-ply,SBD,M
Boys,100,DQ,Elain Consuegra,Cotulla,93.17,154.22,108.86,,,Single-ply,SBD,M
Boys,100,DQ,Josh Alderete,Uvalde,89.99,,,,,Single-ply,SBD,M
Boys,110,1,Guadalupe Tellez,La Pryor,108.59,154.22,108.86,165.56,428.64,Single-ply,SBD,M
Boys,110,2,Wyatt Barrow,Knippa,104.87,124.74,79.38,142.88,347,Single-ply,SBD,M
Boys,110,DQ,Jarod Rodriguez,Carrizo Springs,104.01,102.06,,,,Single-ply,SBD,M
Boys,125,1,Austin Soto,Devine,118.02,229.06,185.97,222.26,637.3,Single-ply,SBD,M
Boys,125,2,Matthew Castro,Carrizo Springs,122.74,204.12,115.67,210.92,530.7,Single-ply,SBD,M
Boys,125,4,Jason Gallegos,Carrizo Springs,112.49,147.42,97.52,151.95,396.89,Single-ply,SBD,M
Boys,125,5,JR Viesca,Cotulla,112.4,115.67,83.91,149.69,349.27,Single-ply,SBD,M
Boys,125+,1,Mario Chavez,Carrizo Springs,192.78,206.38,172.37,208.65,587.4,Single-ply,SBD,M
Boys,125+,2,Edward Gonzalez,Crystal City,128.73,222.26,140.61,204.12,566.99,Single-ply,SBD,M
Boys,125,3,Adrian Lomas,Crystal City,124.83,154.22,113.4,151.95,419.57,Single-ply,SBD,M
Boys,125+,3,Viviano Rodriguez,Cotulla,130.73,204.12,129.27,185.97,519.36,Single-ply,SBD,M
Boys,,DQ,Paulo Valdez,Center Point,,,,,,Single-ply,SBD,M
Boys,,DQ,Mikal Luna,Cotulla,,,,,,Single-ply,SBD,M
Boys,,DQ,Joe Castillo,Center Point,,,,,,Single-ply,SBD,M
Boys,,DQ,Devine Geller,Center Point,,,,,,Single-ply,SBD,M
Boys,,DQ,Chance Cabiness,Center Point,,,,,,Single-ply,SBD,M
Boys,,DQ,Rene Romero,Crystal City,,,,,,Single-ply,SBD,M
Boys,,DQ,Ricky Castaneda,Crystal City,,,,,,Single-ply,SBD,M
Boys,,DQ,Richie San Miguel,Dilley,,,,,,Single-ply,SBD,M
Boys,,DQ,Rey Mendoza,Crystal City,,,,,,Single-ply,SBD,M
Boys,,DQ,Da'von Simmons,Crystal City,,,,,,Single-ply,SBD,M
Boys,,DQ,Levi Blank,Uvalde,,,,,,Single-ply,SBD,M
Boys,,DQ,Gavin Vara,Uvalde,,,,,,Single-ply,SBD,M
Boys,,DQ,Migel Garcia,Uvalde,,,,,,Single-ply,SBD,M
Boys,,DQ,Leo Bermea,Uvalde,,,,,,Single-ply,SBD,M
Boys,,DQ,Jeremery Castillo,La Pryor,,,,,,Single-ply,SBD,M
Boys,,DQ,Cristian Lopez,La Pryor,,,,,,Single-ply,SBD,M
Boys,,DQ,Nicholas Rodriguez,Dilley,,,,,,Single-ply,SBD,M
Boys,,DQ,Justin Villanueva,La Pryor,,,,,,Single-ply,SBD,M
Boys,,DQ,Brandon Ramirez,Dilley,,,,,,Single-ply,SBD,M
Boys,,DQ,Juan Correa,Dilley,,,,,,Single-ply,SBD,M
Boys,,DQ,DJ Martinez,Dilley,,,,,,Single-ply,SBD,M
