BirthDate,BodyweightKg,Division,WeightClassKg,Deadlift1Kg,Deadlift2Kg,Deadlift3Kg,Best3DeadliftKg,TotalKg,Place,Name,Event,Equipment,Sex
1967-03-07,42.05,Masters 2,47,-142.5,142.5,151,151,151,1,Ana Geitner,D,Single-ply,F
1984-11-24,55.6,Open,57,110,125,132.5,132.5,132.5,2,Sara Wehner,D,Single-ply,F
1957-09-05,55.6,Masters 3,57,125,135,142.5,142.5,142.5,1,Pia Kring,D,Single-ply,F
1973-07-08,53.95,Masters 1,57,120,130,-132.5,130,130,1,Katja Hoffmann,D,Single-ply,F
1987-05-22,56.75,Open,57,145,155,-165,155,155,1,Susann Cichon,D,Single-ply,F
1938-03-18,58.8,Masters 4,59,-130,130,140,140,140,1,Ludwig Werner,D,Single-ply,M
1936-05-15,61.9,Masters 4,63,80,90,100,100,100,1,Ursula Nothnagel,D,Single-ply,F
2000-07-04,59.55,Youth,63,110,120,125,125,125,1,Stine Daude,D,Single-ply,F
1957-11-20,60.05,Masters 3,63,130,137.5,145.5,145.5,145.5,1,Marlies Winkel,D,Single-ply,F
1975-10-23,62.2,Masters 1,63,165,170,175,175,175,1,Daniela Falck,D,Single-ply,F
1993-01-06,61.05,Open,63,150,-160,-160,150,150,2,Helena Humphries,D,Single-ply,F
1976-02-04,62.55,Masters 1,63,155,167.5,-175,167.5,167.5,2,Bettina Heinzen,D,Single-ply,F
1978-01-13,62.5,Open,63,180,190,-201,190,190,1,Silvia Stütz,D,Single-ply,F
1951-06-14,64.85,Masters 3,66,-135,135,145,145,145,1,Walter Matthews,D,Single-ply,M
1995-01-28,63.25,Juniors,66,137.5,145,150,150,150,1,Frank Iding,D,Single-ply,M
1961-11-29,64.15,Masters 2,66,160,170,180,180,180,1,Michael Wimmer,D,Single-ply,M
1999-06-22,60.65,Youth,66,170,180,190,190,190,1,Jan Polsfuß,D,Single-ply,M
1950-03-15,65.6,Masters 3,66,90,100,-137.5,100,100,2,Ali Alkan,D,Single-ply,M
1966-05-31,69.15,Masters 2,72,95,102.5,110,110,110,4,Elke Lerach,D,Single-ply,F
1999-04-28,70.8,Youth,72,95,105,112.5,112.5,112.5,2,Pia Ahlers,D,Single-ply,F
1967-02-17,68.9,Masters 2,72,115,127.5,132.5,132.5,132.5,3,Petra Dietmayr,D,Single-ply,F
1980-07-18,71.1,Open,72,120,132.5,142.5,142.5,142.5,2,Manuela Hauß,D,Single-ply,F
1968-12-27,69.55,Masters 1,72,140,147.5,150,150,150,2,Anke Köster,D,Single-ply,F
1994-12-16,67.85,Juniors,72,135,145,155,155,155,1,Michelle Barth,D,Single-ply,F
1965-04-06,68.75,Masters 2,72,150,155,160,160,160,1,Andrea Lange,D,Single-ply,F
1988-09-01,71.15,Open,72,150,160,167.5,167.5,167.5,2,Sandra Beyer,D,Single-ply,F
1964-07-20,70.7,Masters 2,72,135,142.5,-150,142.5,142.5,2,Iris Kunkel,D,Single-ply,F
1976-06-19,68.85,Masters 1,72,160,170,-182.5,170,170,1,Nicole Börsch,D,Single-ply,F
1999-12-04,64.65,Youth,72,165,180.5,-185,180.5,180.5,1,Sonja Stefanie Krüger,D,Single-ply,F
2002-02-12,72.35,Youth,74,110,120,125,125,125,1,Lukáš Seifert,D,Single-ply,M
1962-05-07,72.75,Masters 2,74,180,205,212.5,212.5,212.5,2,Elmar Kottusch,D,Single-ply,M
1995-12-11,71.6,Juniors,74,195,215,222.5,222.5,222.5,1,Adrian Gerekos,D,Single-ply,M
1958-05-13,71.75,Masters 2,74,210,-235,235,235,235,1,Robert Robeis,D,Single-ply,M
1970-07-12,72.6,Masters 1,74,215,225,240,240,240,2,Jan Smolczyk,D,Single-ply,M
1973-06-02,73.15,Masters 1,74,210,222.5,242.5,242.5,242.5,1,Christian Henneberger,D,Single-ply,M
1991-10-20,72.3,Open,74,220,235,242.5,242.5,242.5,1,Armin Seynstahl,D,Single-ply,M
2000-12-07,72.45,Youth,74,155,160,-167.5,160,160,2,Florijan Greger,D,Single-ply,M
1994-03-18,71.8,Juniors,74,185,200,-217.5,200,200,2,Jasper Ottenbacher,D,Single-ply,M
1999-05-19,71.15,Youth,74,190,210,-220,210,210,1,Pascal Geweniger,D,Single-ply,M
2003-02-16,79.65,Youth,83,145,152.5,162.5,162.5,162.5,2,Bruno Orovecz,D,Single-ply,M
1994-02-17,81.75,Juniors,83,155,165,175,175,175,5,Theodor Diesner-Mayer,D,Single-ply,M
2001-03-28,77.65,Youth,83,160,170,175,175,175,1,Benjamin Langefeld,D,Single-ply,M
1975-01-06,80.25,Masters 1,83,165,175,185,185,185,3,Viktor Albrecht,D,Single-ply,M
1991-05-03,80.5,Open,83,182.5,192.5,200,200,200,5,Fabiano Capraro,D,Single-ply,M
1959-04-10,82.95,Masters 2,83,190,-202.5,205,205,205,2,Jürgen Stütz,D,Single-ply,M
1998-06-17,81.05,Juniors,83,170,192.5,207.5,207.5,207.5,2,Dennis Glok,D,Single-ply,M
1999-12-28,82,Youth,83,190,210,220,220,220,2,Bohort Horesnyi,D,Single-ply,M
1998-04-23,75.1,Juniors,83,200,215,222.5,222.5,222.5,1,Jonas Diefenbach,D,Single-ply,M
1981-01-30,81.95,Open,83,210,220,227.5,227.5,227.5,4,Ramon Baubel,D,Single-ply,M
1954-05-04,81.25,Masters 3,83,210,220,230,230,230,2,Dieter Hundertmark,D,Single-ply,M
1954-05-10,83,Masters 3,83,205,220,232.5,232.5,232.5,1,Hans-Joachim Hook,D,Single-ply,M
1971-01-19,78.6,Masters 1,83,220,230,237.5,237.5,237.5,1,Marko Staubach,D,Single-ply,M
1981-08-01,77.7,Open,83,225,235,240,240,240,3,Thomas Terbeck,D,Single-ply,M
1995-06-02,76.55,Juniors,83,180,-192.5,-192.5,180,180,4,Tobias Nothaft,D,Single-ply,M
1997-12-21,75.1,Juniors,83,190,205,-212.5,205,205,3,Patrick Popp,D,Single-ply,M
1976-08-23,82.75,Masters 1,83,200,215,-232.5,215,215,2,Marco Dömling,D,Single-ply,M
1967-08-15,82.95,Masters 2,83,220,237.5,-242.5,237.5,237.5,1,János Geerhardt,D,Single-ply,M
1979-04-07,82.35,Open,83,240,252.5,-262.5,252.5,252.5,1,Andreas Staude,D,Single-ply,M
1979-02-17,82.6,Open,83,252.5,-262.5,-262.5,252.5,252.5,2,Matthias Stach,D,Single-ply,M
1999-02-04,76.75,Youth,83,245,-265.5,-265.5,245,245,1,Silas Kracht,D,Single-ply,M
1967-08-26,79.4,Masters 2,84,110,125,140,140,140,2,Sybille Hampel,D,Single-ply,F
1964-05-30,81.95,Masters 2,84,160,170,175,175,175,1,Susanne Steidle,D,Single-ply,F
2000-10-24,73,Youth,84,115,122.5,-130,122.5,122.5,1,Vivian Koch,D,Single-ply,F
1986-05-23,82.6,Open,84,147.5,157.5,-165,157.5,157.5,1,Anja Bohmann,D,Single-ply,F
2001-06-10,88.5,Youth,93,150,165,175,175,175,1,Max Glok,D,Single-ply,M
1965-07-07,92.75,Masters 2,93,160,170,180,180,180,3,Andreas Schmitt,D,Single-ply,M
1958-09-09,88.2,Masters 2,93,190,200,205,205,205,2,Jürgen Lange,D,Single-ply,M
1955-10-11,90.2,Masters 3,93,-195,-200,205,205,205,2,Horst Meister,D,Single-ply,M
1992-10-05,91.95,Open,93,200,-210,215,215,215,6,Artur Rischo,D,Single-ply,M
1998-03-09,92.5,Juniors,93,200,-215,222,222,222,4,Andreas Laun,D,Single-ply,M
1988-02-16,85.4,Open,93,225,-235,235,235,235,4,Tobias Hourle,D,Single-ply,M
1945-08-03,92.75,Masters 4,93,210,230,240,240,240,1,Kazimierz Forys,D,Single-ply,M
1997-12-20,92.4,Juniors,93,217.5,232.5,242.5,242.5,242.5,3,Jonas Bausewein,D,Single-ply,M
1994-01-18,92.9,Juniors,93,215,235,245,245,245,2,Benjamin Schönbrunn-Pulverich,D,Single-ply,M
1957-12-07,85.8,Masters 3,93,225,235,245,245,245,1,Johann Goldstein,D,Single-ply,M
1993-12-29,92.65,Open,93,240,260,267.5,267.5,267.5,2,Marc James,D,Single-ply,M
1991-06-11,93,Open,93,332.5,350,360,360,360,1,Sascha Stendebach,D,Single-ply,M
1954-06-09,88.9,Masters 3,93,190,-205,-205,190,190,3,Josef Weiß,D,Single-ply,M
1998-06-06,92.55,Juniors,93,200,-215,-217.5,200,200,5,Ergjan Pushkolli,D,Single-ply,M
1993-10-21,91.85,Open,93,200,215,-225,215,215,5,Stefan Gabler,D,Single-ply,M
2000-04-04,91.7,Youth,93,200,222.5,-240,222.5,222.5,1,Simon Bayerl,D,Single-ply,M
1965-05-26,90.15,Masters 2,93,220,230,-240,230,230,1,Jochen Stöver,D,Single-ply,M
1970-09-25,92.55,Masters 1,93,235,250,-265,250,250,1,Guido Nieland,D,Single-ply,M
1991-02-01,91.5,Open,93,240,250,-265,250,250,3,Matthias Weinand,D,Single-ply,M
1996-07-28,91.5,Juniors,93,270,280,-285,280,280,1,Philipp Karbstein,D,Single-ply,M
2002-02-01,97.4,Youth,105,100,110,120,120,120,2,Lukas Weidich,D,Single-ply,M
1936-12-16,95.3,Masters 4,105,-115,115,120,120,120,2,Klaus Feldmann,D,Single-ply,M
1946-11-19,104.5,Masters 4,105,-170,180,197.5,197.5,197.5,1,Xaver Kennerknecht,D,Single-ply,M
1955-12-04,98.25,Masters 3,105,182.5,200,207.5,207.5,207.5,1,Valeri Karpov,D,Single-ply,M
1961-03-26,96.15,Masters 2,105,192.5,202.5,207.5,207.5,207.5,3,Andreas Rüdiger,D,Single-ply,M
1982-08-10,103.05,Open,105,-220,230,235,235,235,8,Alexander Schäbler,D,Single-ply,M
1997-02-27,93.9,Juniors,105,230,-235,235,235,235,3,Volker Bauer,D,Single-ply,M
1996-04-18,101.2,Juniors,105,230,250,267.5,267.5,267.5,2,Marcel Sigl,D,Single-ply,M
1995-12-30,100.65,Juniors,105,250,265,270,270,270,1,Kai Eckert,D,Single-ply,M
1988-07-05,102.5,Open,105,257.5,270,280,280,280,5,Milan Bogner,D,Single-ply,M
1991-11-12,95,Open,105,260,275,285,285,285,3,Tobias Merten,D,Single-ply,M
1981-02-13,103.85,Open,105,280,-295,305,305,305,1,Alexander Jung,D,Single-ply,M
1999-10-15,98.01,Youth,105,170,-175,-175,170,170,1,André Schnorr,D,Single-ply,M
1956-06-02,103.45,Masters 3,105,180,190,-200,190,190,3,Stefan Kapplinghaus,D,Single-ply,M
2001-04-05,97.85,Youth,105,180,192.5,-202.5,192.5,192.5,1,Till Kruse,D,Single-ply,M
1951-09-01,93.3,Masters 3,105,180,190,-205,190,190,2,Lutz Schuricht,D,Single-ply,M
1975-10-02,94.9,Masters 1,105,185,195,-205,195,195,3,Werner Stefanowicz,D,Single-ply,M
1997-08-01,98.65,Juniors,105,210,-230,-232.5,210,210,4,Marvin Christen,D,Single-ply,M
1964-04-05,98.55,Masters 2,105,220,-245,-245,220,220,2,Uwe Krah,D,Single-ply,M
1992-05-24,99.1,Open,105,240,-250,-252.5,240,240,7,Philipp Piecha,D,Single-ply,M
1978-11-19,98.6,Open,105,235,250,-257.5,250,250,6,Tobias Bugert,D,Single-ply,M
1971-09-14,101.65,Masters 1,105,260,-275,-275,260,260,2,Hendrik Pflug,D,Single-ply,M
1977-11-10,104.5,Masters 1,105,267.5,285,-290,285,285,1,Thomas Leffers,D,Single-ply,M
1991-01-27,93.9,Open,105,275,285,-290,285,285,2,Artur Dimmel,D,Single-ply,M
1992-01-27,95.8,Open,105,285,-302.5,-302.5,285,285,4,Tim Huber,D,Single-ply,M
1966-07-28,98.1,Masters 2,105,270,290,-305,290,290,1,Mario Schnurr,D,Single-ply,M
1955-11-09,117,Masters 3,120,-180,190,195,195,195,3,Norbert Syska,D,Single-ply,M
1953-02-07,113.3,Masters 3,120,205,215,230,230,230,2,Reiner Katzula,D,Single-ply,M
1954-03-16,106.8,Masters 3,120,200,220,230,230,230,1,Arnold Leesemann,D,Single-ply,M
1947-11-04,108.3,Masters 4,120,200,225,230,230,230,1,Alfons Mietz,D,Single-ply,M
2000-02-04,118.1,Youth,120,220,230,240,240,240,1,Alexander Franke,D,Single-ply,M
1991-12-16,105.25,Open,120,250,265,275,275,275,2,Sven Saiko,D,Single-ply,M
1994-09-14,116.45,Juniors,120,275,290,300,300,300,1,Dennis Sauter,D,Single-ply,M
1992-04-20,116.2,Open,120,300,325,332.5,332.5,332.5,1,Dominik Pahl,D,Single-ply,M
1959-09-07,116.8,Masters 2,120,165,175,-182.5,175,175,2,Uwe Dörfert,D,Single-ply,M
2002-11-19,113.75,Youth,120,200,210,-220,210,210,1,Moritz Taschner,D,Single-ply,M
1993-12-20,105.65,Open,120,220,235,-250,235,235,3,Pascal Tripp,D,Single-ply,M
1968-04-21,110,Masters 1,120,200,210,,210,210,1,Peter Herteux,D,Single-ply,M
1962-12-23,107.45,Masters 2,120,210,-220,,210,210,1,Stephan Lerach,D,Single-ply,M
1947-01-17,143.8,Masters 4,120+,120,130,140,140,140,1,Volker Schwertz,D,Single-ply,M
1956-03-16,139.2,Masters 3,120+,175,187.5,200,200,200,1,Kurt Hübner,D,Single-ply,M
1974-01-09,122.55,Masters 1,120+,215,225,232.5,232.5,232.5,2,Marcel Benzler,D,Single-ply,M
1961-05-30,132.15,Masters 2,120+,215,235,250,250,250,1,Udo Thielking,D,Single-ply,M
1975-02-01,122.5,Masters 1,120+,240,255,260,260,260,1,Steffen Radeck,D,Single-ply,M
1985-10-03,142.9,Open,120+,240,265,-290,265,265,2,Florian Bittorf,D,Single-ply,M
1997-03-07,129.85,Juniors,120+,265,277.5,-300,277.5,277.5,1,Lukas Gärtner,D,Single-ply,M
1978-02-08,151.25,Open,120+,350,363.5,-370,363.5,363.5,1,Tobias Zinserling,D,Single-ply,M
1959-06-11,87.8,Masters 2,84+,97.5,102.5,107.5,107.5,107.5,1,Bettina Lampertsdörfer,D,Single-ply,F
1965-11-08,97.45,Masters 2,84+,100,-107.5,107.5,107.5,107.5,2,Sabine Hill,D,Single-ply,F
1981-01-04,96.05,Open,84+,-95,100,110,110,110,2,Janine Eickhoff,D,Single-ply,F
1974-12-23,119.25,Masters 1,84+,105,117.5,125,125,125,1,Bärbel Pfeifer,D,Single-ply,F
1987-04-08,87.15,Open,84+,127.5,-140,-140,127.5,127.5,1,Saskia Grandl,D,Raw,F
