Place,Name,State,WeightClassKg,BodyweightKg,Age,Best3SquatKg,Best3BenchKg,Best3DeadliftKg,TotalKg,Sex,Division,Equipment,Deadlift4Kg,Event
1,Rachel Benson,UT,67.5,67.30,23,127.50,67.50,165.00,360.00,F,Juniors 20-23,Raw,,SBD
1,Kelli Hoopes,WY,52,52.00,38,110.00,50.00,140.00,300.00,F,Open,Raw,,SBD
1,Amanda Lasserre,UT,56,54.50,24,105.00,65.00,140.00,310.00,F,Open,Raw,,SBD
2,Allison West,UT,56,55.60,21,102.50,50.00,115.00,267.50,F,Open,Raw,,SBD
1,Kristen Bellon,UT,60,58.00,39,120.00,67.50,155.00,342.50,F,Open,Raw,,SBD
2,Anneke Cannon,UT,60,56.80,24,115.00,62.50,142.50,320.00,F,Open,Raw,,SBD
3,Vickie Shaw,UT,60,59.20,41,92.50,65.00,150.00,307.50,F,Open,Raw,,SBD
4,Anne Casstevens,UT,60,59.00,33,92.50,65.00,120.00,277.50,F,Open,Raw,,SBD
5,Jenny Draper,UT,60,57.40,23,90.00,50.00,107.50,247.50,F,Open,Raw,,SBD
1,Rachel Benson,UT,67.5,67.30,23,127.50,67.50,165.00,360.00,F,Open,Raw,,SBD
2,Morgan Taylor,UT,67.5,63.40,19,125.00,65.00,160.00,350.00,F,Open,Raw,,SBD
3,Lynndsey Eldridge,UT,67.5,61.20,28,110.00,70.00,147.50,327.50,F,Open,Raw,,SBD
1,Katherine Hristou,UT,75,71.00,54,112.50,57.50,130.00,300.00,F,Open,Raw,,SBD
1,Kaelene Colobella,UT,82.5,80.60,25,117.50,70.00,135.00,322.50,F,Open,Raw,,SBD
1,Sue Kennedy,UT,90+,113.70,42,160.00,100.00,182.50,442.50,F,Open,Raw,,SBD
1,Kelli Hoopes,WY,52,52.00,38,110.00,50.00,140.00,300.00,F,Submasters 35-39,Raw,,SBD
1,Kristen Bellon,UT,60,58.00,39,120.00,67.50,155.00,342.50,F,Submasters 35-39,Raw,,SBD
1,Vickie Shaw,UT,60,59.20,41,92.50,65.00,150.00,307.50,F,Masters 40-44,Raw,,SBD
1,Katherine Hristou,UT,75,71.00,54,112.50,57.50,130.00,300.00,F,Masters 50-54,Raw,,SBD
1,Sue Kennedy,UT,90+,113.70,42,160.00,100.00,182.50,442.50,F,Masters 40-44,Raw,,SBD
1,Jason Gonzalez,UT,67.5,64.50,23,190.00,142.50,200.00,532.50,M,Juniors 20-23,Raw,,SBD
1,Jason Gonzalez,UT,67.5,64.50,23,190.00,142.50,200.00,532.50,M,Open,Raw,,SBD
1,Michael Lear,UT,82.5,81.70,32,242.50,147.50,317.50,707.50,M,Open,Raw,,SBD
2,Tyson Moser,UT,82.5,81.80,24,245.00,172.50,285.00,702.50,M,Open,Raw,,SBD
3,Zachary Gee,UT,82.5,81.80,28,205.00,145.00,220.00,570.00,M,Open,Raw,,SBD
1,Jake Benson,UT,90,89.50,22,242.50,145.00,267.50,655.00,M,Open,Raw,,SBD
2,Neal Marchant,UT,90,89.40,27,225.00,147.50,250.00,622.50,M,Open,Raw,,SBD
1,Andrew Mower,UT,100,99.80,35,280.00,190.00,317.50,787.50,M,Open,Raw,,SBD
2,Michael Meinzer,CO,100,99.40,35,247.50,175.00,272.50,695.00,M,Open,Raw,,SBD
3,Devon Parcell,UT,100,96.60,37,182.50,152.50,205.00,540.00,M,Open,Raw,,SBD
1,Dane Dillon,Can,125,123.50,24,327.50,220.00,378.00,925.50,M,Open,Raw,387.5,SBD
2,John Mazza,UT,125,116.50,35,292.50,217.50,325.00,835.00,M,Open,Raw,,SBD
3,Jordan West,UT,125,119.60,30,287.50,242.50,292.50,822.50,M,Open,Raw,,SBD
4,Blake Myrick,UT,125,121.30,32,260.00,205.00,300.00,765.00,M,Open,Raw,,SBD
DQ,Shawn Bellon,UT,125,117.30,43,-352.50,,,,M,Open,Raw,,SBD
1,Marty Killion,WY,140,127.70,45,265.00,222.50,310.00,797.50,M,Open,Raw,,SBD
1,Andrew Mower,UT,100,99.80,35,280.00,190.00,317.50,787.50,M,Submasters 35-39,Raw,,SBD
1,Marty Killion,WY,140,127.70,45,265.00,222.50,310.00,797.50,M,Masters 45-49,Raw,,SBD
1,Paola Johnson,UT,52,50.80,27,107.50,55.00,117.50,280.00,F,Open,Wraps,,SBD
1,Sarah Kuhnke,UT,56,54.70,29,102.50,52.50,142.50,297.50,F,Open,Wraps,,SBD
2,Jennifer Evans,UT,56,54.20,39,110.00,57.50,120.00,287.50,F,Open,Wraps,,SBD
1,Leslie Hofheins,UT,67.5,66.60,45,142.50,102.50,207.50,452.50,F,Open,Wraps,,SBD
1,Quincey Pearce,UT,75,71.00,40,147.50,87.50,152.50,387.50,F,Open,Wraps,,SBD
1,Hillary Waldron,UT,90,86.80,25,147.50,67.50,145.00,360.00,F,Open,Wraps,,SBD
1,Jennifer Evans,UT,56,54.20,39,110.00,57.50,120.00,287.50,F,Submasters 35-39,Wraps,,SBD
1,Leslie Hofheins,UT,67.5,66.60,45,142.50,102.50,207.50,452.50,F,Masters 45-49,Wraps,,SBD
1,Quincey Pearce,UT,75,71.00,40,147.50,87.50,152.50,387.50,F,Masters 40-44,Wraps,,SBD
1,Obinnah Owah,UT,125,116.00,23,227.50,157.50,320.00,705.00,M,Juniors 20-23,Wraps,,SBD
DQ,Maurice Van Dinter,UT,82.5,80.90,20,250.00,-130.00,,,M,Open,Wraps,,SBD
1,Brody Ellis,UT,100,95.50,19,290.00,167.50,290.00,747.50,M,Open,Wraps,,SBD
2,Sean Olsen,UT,100,97.71,43,275.00,100.00,300.00,675.00,M,Open,Wraps,,SBD
1,Steve Pincock,UT,110,109.70,53,265.00,137.50,260.00,662.50,M,Juniors,Raw,,SBD
2,Joshua Maw,UT,110,108.30,21,235.00,152.50,260.00,647.50,M,Juniors,Raw,,SBD
1,Obinnah Owah,UT,125,116.00,23,227.50,157.50,320.00,705.00,M,Open,Wraps,,SBD
1,Rylee Reeves,UT,140,137.50,21,320.00,182.50,287.50,790.00,M,Open,Wraps,,SBD
2,Shay McQuiston,UT,140,133.70,34,305.50,202.50,267.50,775.50,M,Open,Wraps,,SBD
1,Jeremy Clifford,UT,140+,143.50,32,302.50,185.00,320.00,807.50,M,Open,Wraps,,SBD
2,Brandon Murphy,CA,140+,149.10,30,237.50,165.00,272.50,675.00,M,Open,Wraps,,SBD
1,Steve Pincock,UT,110,109.70,53,265.00,137.50,260.00,662.50,M,Masters 50-54,Wraps,,SBD
1,Stephanie Stephens,UT,82.5,75.60,36,175.00,120.00,187.50,482.50,F,Open,Single-ply,,SBD
1,Ilya Kokorev,Rus,75,74.40,43,210.00,190.00,240.00,640.00,M,Open,Single-ply,,SBD
2,Jon Cunningham,UT,75,73.90,52,157.50,180.00,197.50,535.00,M,Open,Single-ply,,SBD
1,Ryan Marble,UT,90,90.00,29,265.00,265.00,257.50,787.50,M,Open,Single-ply,,SBD
1,Asa Barnes,AZ,100,99.70,52,337.50,250.00,275.00,862.50,M,Open,Single-ply,,SBD
DQ,Mike Saunders,UT,100,99.30,36,-332.50,,,,M,Open,Single-ply,,SBD
1,Matt Olsen,UT,140+,173.20,26,422.50,295.00,312.50,1030.00,M,Open,Single-ply,,SBD
1,Jon Cunningham,UT,75,73.90,52,157.50,180.00,197.50,535.00,M,Masters 50-54,Single-ply,,SBD
1,Asa Barnes,AZ,100,99.70,52,337.50,250.00,275.00,862.50,M,Masters 50-54,Single-ply,,SBD
1,Paola Johnson,UT,52,50.80,27,,55.00,,55.00,F,Open,Raw,,B
1,Paul Andrus,UT,82.5,81.20,38,,186.00,,186.00,M,Open,Raw,,B
1,Shea Kopecky,UT,90,89.10,30,,185.00,,185.00,M,Open,Raw,,B
1,C. David Hester,UT,140,126.80,45,,210.00,,210.00,M,Open,Raw,,B
1,Paul Andrus,UT,82.5,81.20,38,,186.00,,186.00,M,Submasters 35-39,Raw,,B
1,C. David Hester,UT,140,126.80,45,,210.00,,210.00,M,Masters 45-49,Raw,,B
1,Ilya Kokorev,Rus,75,74.50,43,,190.00,,190.00,M,Open,Single-ply,,B
2,Jon Cunningham,UT,75,73.90,52,,180.00,,180.00,M,Open,Single-ply,,B
1,Scott Mecham,UT,110,109.30,37,,375.00,,375.00,M,Open,Single-ply,,B
1,Scott Mecham,UT,110,109.30,37,,375.00,,375.00,M,Submasters 35-39,Single-ply,,B
1,Jon Cunningham,UT,75,73.90,52,,180.00,,180.00,M,Masters 50-54,Single-ply,,B
1,Melissa Nations,UT,75,73.60,36,,77.50,,77.50,F,Open,Multi-ply,,B
1,Heather Gibson,UT,90+,105.00,42,,150.00,,150.00,F,Open,Multi-ply,,B
1,Ed Kinsey,UT,90,89.10,35,,277.50,,277.50,M,Open,Multi-ply,,B
2,Dana Walker,UT,90,87.50,38,,275.00,,275.00,M,Open,Multi-ply,,B
1,Kurt Larsen,UT,100,98.50,43,,237.50,,237.50,M,Open,Multi-ply,,B
1,Jesse Johnson,UT,125,122.60,50,,250.00,,250.00,M,Open,Multi-ply,,B
1,Jason Gibson,UT,140,125.10,42,,312.50,,312.50,M,Open,Multi-ply,,B
2,Jeremiah Johnson,UT,140,138.80,42,,287.50,,287.50,M,Open,Multi-ply,,B
1,Nathan Baptist,UT,140+,200.00,31,,320.00,,320.00,M,Open,Multi-ply,,B
1,Ed Kinsey,UT,90,89.10,35,,277.50,,277.50,M,Submasters 35-39,Multi-ply,,B
2,Dana Walker,UT,90,87.50,38,,275.00,,275.00,M,Submasters 35-39,Multi-ply,,B
1,Jason Gibson,UT,140,125.10,42,,312.50,,312.50,M,Masters 40-44,Multi-ply,,B
2,Jeremiah Johnson,UT,140,138.80,42,,287.50,,287.50,M,Masters 40-44,Multi-ply,,B
1,Kelli Hoopes,WY,52,52.00,38,,,140.00,140.00,F,Open,Raw,,D
2,Paola Johnson,UT,52,50.80,27,,,117.50,117.50,F,Open,Raw,,D
1,Sarah Kuhnke,UT,56,54.70,29,,,142.50,142.50,F,Open,Raw,,D
1,Leslie Hofheins,UT,67.5,66.60,45,,,207.50,207.50,F,Open,Raw,,D
2,Amy Evans,UT,67.5,66.40,25,,,145.00,145.00,F,Open,Raw,,D
1,Nick Dunn,UT,67.5,67.20,35,,,245.00,245.00,M,Open,Raw,,D
1,Shea Kopecky,UT,90,89.10,30,,,250.00,250.00,M,Open,Raw,,D
1,Brennon Peterson,UT,100,99.30,23,,,307.50,307.50,M,Open,Raw,,D
2,Lance Davis,UT,100,99.80,49,,,247.50,247.50,M,Open,Raw,,D
1,Brandon Cass,MO,110,107.60,42,,,360.00,360.00,M,Open,Raw,,D
1,Jerry Pritchett,AZ,140+,166.40,35,,,415.00,415.00,M,Open,Raw,,D
1,Nick Dunn,UT,67.5,67.20,35,,,245.00,245.00,M,Submasters 35-39,Raw,,D
1,Lance Davis,UT,100,99.80,49,,,247.50,247.50,M,Masters 45-49,Raw,,D
1,Jon Cunningham,UT,75,73.90,54,,,197.50,197.50,M,Open,Single-ply,,D
1,Justin Clifford,WA,125,123.30,29,,,322.50,322.50,M,Open,Single-ply,,D
1,Arron Chavez,UT,140+,157.40,43,,,322.50,322.50,M,Open,Single-ply,,D
1,Melissa Nations,UT,75,73.60,36,,,137.50,137.50,F,Open,Multi-ply,,D
1,Dana Walker,UT,90,87.50,38,,,292.50,292.50,M,Open,Multi-ply,,D
2,Ed Kinsey,UT,90,89.10,35,,,265.00,265.00,M,Open,Multi-ply,,D
1,Kurt Larsen,UT,100,98.50,43,,,250.00,250.00,M,Open,Multi-ply,,D
1,Dana Walker,UT,90,87.50,38,,,292.50,292.50,M,Submasters 35-39,Multi-ply,,D
