Division,Sex,Name,Country,WeightClassKg,Best3SquatKg,Best3BenchKg,Best3DeadliftKg,Deadlift4Kg,TotalKg,BodyweightKg,Event,Equipment,Place
Pro Open,F,Marianne Kosonen,Finland,52,250,142.5,187.5,195,580,51.89,SBD,Multi-ply,1
Pro Open,F,Anna-Maija Kosonen,Finland,67.5,192.5,105,193,,490.5,67,SBD,Multi-ply,1
Pro Juniors,F,Julia Vins,Russia,67.5,252.5,,,,252.5,62.69,S,Multi-ply,1
Pro Open,M,Simon Kankkonen,Finland,90,400,320,240,,960,89.9,SBD,Multi-ply,1
Pro Open,M,Robin Vestman,Finland,100,300,215,275,,790,97.48,SBD,Multi-ply,1
Pro Open,M,Roman Elets,Russia,100,262.5,170,260,,692.5,97.11,SBD,Multi-ply,2
Pro Open,M,Santeri Asikainen,Finland,90,57.5,200,75,,332.5,86.59,SBD,Wraps,1
