Name,WeightClassKg,Best3SquatKg,Best3BenchKg,Best3DeadliftKg,TotalKg,Sex,Event,Division,Equipment,Age,Place,AgeClass
Judy Gedney,44,82.5,55,107.5,245,F,SBD,Open,Single-ply,,1,
Rex McLaren,52,150,87.5,170,407.5,M,SBD,Open,Single-ply,,1,13-19
Larry Adams,52,132.5,80,185,397.5,M,SBD,Open,Single-ply,,2,
F. Yasaton,52,115,70,150,335,M,SBD,Open,Single-ply,,3,
T. Donze,52,117.5,60,130,307.5,M,SBD,Open,Single-ply,,4,
Diane Frantz,52,107.5,57.5,140,305,F,SBD,Open,Single-ply,,1,
Donna Wicker,52,107.5,47.5,142.5,297.5,F,SBD,Open,Single-ply,,2,
J. Meier,52,95,82.5,115,292.5,M,SBD,Open,Single-ply,,5,
K. Stringer,52,82.5,52.5,117.5,252.5,F,SBD,Open,Single-ply,,3,
M. Kafura,52,60,45,100,205,M,SBD,Open,Single-ply,,6,
T. Allgrie,52,55,32.5,72.5,160,M,SBD,Open,Single-ply,,7,
J. Rhoadarruer,52,52.5,50,,,F,SBD,Open,Single-ply,,DQ,
Dove,52,,,,,F,SBD,Open,Single-ply,,DQ,
Fred Hofer,56,152.5,97.5,152.5,402.5,M,SBD,Open,Single-ply,,1,35-999
J. Lynch,56,102.5,87.5,157.5,347.5,M,SBD,Open,Single-ply,,2,
Melissa Orth,56,130,72.5,145,347.5,F,SBD,Open,Single-ply,17,1,
P. Lanzante,56,125,72.5,132.5,330,M,SBD,Open,Single-ply,,3,
Milanie Getz,56,117.5,70,160,347.5,F,SBD,Open,Single-ply,,2,
Eileen Todaro,56,107.5,67.5,115,290,F,SBD,Open,Single-ply,,3,
N. Weber,56,70,50,90,210,F,SBD,Open,Single-ply,,4,
Dick Dillard,60,185,90,227.5,502.5,M,SBD,Open,Single-ply,,1,
J. Privitor,60,202.5,97.5,195,495,M,SBD,Open,Single-ply,,2,
G. Simmons,60,165,100,212.5,477.5,M,SBD,Open,Single-ply,,3,
Robert Bridges,60,167.5,97.5,205,470,M,SBD,Open,Single-ply,,4,13-19
S. Shamblin,60,160,107.5,182.5,450,M,SBD,Open,Single-ply,,5,
F. Manna,60,140,110,185,435,M,SBD,Open,Single-ply,,6,
M. Gillette,60,160,90,182.5,432.5,M,SBD,Open,Single-ply,,7,
K. Hammon,60,160,95,177.5,432.5,M,SBD,Open,Single-ply,,8,
W. Baker,60,132.5,115,182.5,430,M,SBD,Open,Single-ply,,9,
M. Ward,60,127.5,107.5,177.5,412.5,M,SBD,Open,Single-ply,,10,
D. Gibbs,60,85,77.5,167.5,330,M,SBD,Open,Single-ply,,11,
Kathy Leonard,60,130,47.5,142.5,320,F,SBD,Open,Single-ply,,1,
J. Lanzante,60,105,57.5,137.5,300,M,SBD,Open,Single-ply,,12,
K. Carswell,60,80,42.5,110,232.5,F,SBD,Open,Single-ply,,2,
T. Moe,60,90,45,82.5,217.5,F,SBD,Open,Single-ply,,3,
Pete Scholz,67.5,202.5,122.5,217.5,542.5,M,SBD,Open,Single-ply,,1,
Gary Lee,67.5,197.5,117.5,217.5,532.5,M,SBD,Open,Single-ply,,2,
N. Randitas,67.5,180,110,205,495,M,SBD,Open,Single-ply,,3,
B. Jordan,67.5,155,130,205,490,M,SBD,Open,Single-ply,,4,
P. Lapinski,67.5,172.5,115,192.5,480,M,SBD,Open,Single-ply,,5,
Tony Mueller,67.5,172.5,100,207.5,480,M,SBD,Open,Single-ply,,6,13-19
R. Presswood,67.5,175,107.5,190,472.5,M,SBD,Open,Single-ply,,7,
D. Weber,67.5,147.5,117.5,190,455,M,SBD,Open,Single-ply,,8,
J. Kessler,67.5,155,110,190,455,M,SBD,Open,Single-ply,,9,
J. van der Muelen,67.5,147.5,112.5,182.5,442.5,M,SBD,Open,Single-ply,,10,
D. Gilbertson,67.5,165,97.5,170,432.5,M,SBD,Open,Single-ply,,11,
D. Schaufelberger,67.5,155,95,182.5,432.5,M,SBD,Open,Single-ply,,12,
J. Hoffman,67.5,147.5,82.5,190,420,M,SBD,Open,Single-ply,,13,
J. Howard,67.5,137.5,110,172.5,420,M,SBD,Open,Single-ply,,14,
J. Dallas,67.5,115,90,167.5,372.5,M,SBD,Open,Single-ply,,15,
J. Kincaid,67.5,150,80,125,355,M,SBD,Open,Single-ply,,16,
P. Stoffel,67.5,70,40,90,200,M,SBD,Open,Single-ply,,17,
L. Cheathan,67.5,,,,,M,SBD,Open,Single-ply,,DQ,
J. Countryman,67.5,,,,,M,SBD,Open,Single-ply,,DQ,
R. Williamson,67.5,,,,,M,SBD,Open,Single-ply,,DQ,
D. Tery,67.5,,,,,M,SBD,Open,Single-ply,,DQ,
Tom Maupin,75,245,160,270,675,M,SBD,Open,Single-ply,,1,
Doug Peterson,75,222.5,130,242.5,595,M,SBD,Open,Single-ply,,2,
P. Conis,75,212.5,145,210,567.5,M,SBD,Open,Single-ply,,3,
P. Malone,75,215,110,232.5,557.5,M,SBD,Open,Single-ply,,4,
W. Henry,75,182.5,137.5,217.5,537.5,M,SBD,Open,Single-ply,,5,
J. Georgen,75,177.5,140,217.5,535,M,SBD,Open,Single-ply,,6,
D. Hutchinson,75,210,122.5,200,532.5,M,SBD,Open,Single-ply,,7,
J. Landgrebe,75,175,115,200,490,M,SBD,Open,Single-ply,,8,
M. Marini,75,177.5,107.5,200,485,M,SBD,Open,Single-ply,,9,
G. Eudaly,75,157.5,107.5,217.5,482.5,M,SBD,Open,Single-ply,,10,
T. Kisler,75,172.5,120,190,482.5,M,SBD,Open,Single-ply,,11,
D. DeWitt,75,200,107.5,170,477.5,M,SBD,Open,Single-ply,,12,
S. Baird,75,162.5,112.5,202.5,477.5,M,SBD,Open,Single-ply,,13,
Ed Angstrom,75,160,120,167.5,447.5,M,SBD,Open,Single-ply,,14,35-999
G. Spurrier,75,137.5,100,185,422.5,M,SBD,Open,Single-ply,,15,
L. Hyatt,75,100,70,127.5,297.5,F,SBD,Open,Single-ply,,1,
M. Sternberg,75,102.5,50,90,242.5,F,SBD,Open,Single-ply,,2,
L. Hoversten,75,70,40,107.5,217.5,F,SBD,Open,Single-ply,,3,
K. Brodick,75,62.5,45,90,197.5,F,SBD,Open,Single-ply,,4,
L. Stone,75,260,145,,,M,SBD,Open,Single-ply,,DQ,
T. Harris,75,145,,,,M,SBD,Open,Single-ply,,DQ,
W. Dove,75,110,,,,M,SBD,Open,Single-ply,,DQ,
T. Piha,75,,,,,M,SBD,Open,Single-ply,,DQ,
B. Almany,75,,,,,M,SBD,Open,Single-ply,,DQ,
Mike Bridges,82.5,355.6,215,320,890.6,M,SBD,Open,Single-ply,,1,
S. Lee,82.5,240,142.5,255,637.5,M,SBD,Open,Single-ply,,2,
D. Zitt,82.5,240,150,230,620,M,SBD,Open,Single-ply,,3,
T. Lanzante,82.5,222.5,140,237.5,600,M,SBD,Open,Single-ply,,4,
M. Temborius,82.5,157.5,147.5,217.5,522.5,M,SBD,Open,Single-ply,,5,
A. Benko,82.5,185,127.5,207.5,520,M,SBD,Open,Single-ply,,6,
M. Paulus,82.5,190,127.5,190,507.5,M,SBD,Open,Single-ply,,7,
G. Clow,82.5,157.5,107.5,190,455,M,SBD,Open,Single-ply,,8,
R. McGarry,82.5,122.5,105,172.5,400,M,SBD,Open,Single-ply,,9,
R. Pozzoliniwolf,82.5,205,152.5,,,M,SBD,Open,Single-ply,,DQ,
T. Gavin,82.5,147.5,,,,M,SBD,Open,Single-ply,,DQ,
M. Neumann,82.5,,,,,M,SBD,Open,Single-ply,,DQ,
Phillip Accordino,82.5,,,,,M,SBD,Open,Single-ply,,DQ,
N. Wasser,82.5,,,,,M,SBD,Open,Single-ply,,DQ,
M. Woodward,82.5,,,,,M,SBD,Open,Single-ply,,DQ,
B. Lubke,82.5,,,,,M,SBD,Open,Single-ply,,DQ,
Ernie Frantz,90,327.5,205,352.5,885,M,SBD,Open,Single-ply,46,1,35-999
B. Sullivan,90,277.5,177.5,290,745,M,SBD,Open,Single-ply,,2,
J. Cribbin,90,265,162.5,305,732.5,M,SBD,Open,Single-ply,,3,
M. Seago,90,260,170,245.5,675.5,M,SBD,Open,Single-ply,,4,
R. Zenzen,90,265,170,237.5,672.5,M,SBD,Open,Single-ply,,5,
B. Waltemath,90,250,157.5,247.5,655,M,SBD,Open,Single-ply,,6,
D. Garrett,90,220,137.5,262.5,620,M,SBD,Open,Single-ply,,7,
P. Rupright,90,227.5,150,237.5,615,M,SBD,Open,Single-ply,,8,
D. Wilson,90,217.5,150,242.5,610,M,SBD,Open,Single-ply,,9,
J. Miles,90,200,160,240,600,M,SBD,Open,Single-ply,,10,
Victor Bates,90,207.5,137.5,247.5,592.5,M,SBD,Open,Single-ply,,11,35-999
D. Sutton,90,192.5,145,242.5,580,M,SBD,Open,Single-ply,,12,
Tom Gingerich,90,205,140,227.5,572.5,M,SBD,Open,Single-ply,,13,13-19
Vic Pic,90,192.5,142.5,235,570,M,SBD,Open,Single-ply,,14,13-19
B. Love,90,210,115,242.5,567.5,M,SBD,Open,Single-ply,,15,
R. Fielder,90,210,125,215,550,M,SBD,Open,Single-ply,,16,
J. Burns,90,177.5,110,227.5,515,M,SBD,Open,Single-ply,,17,
R. Williams,90,167.5,125,205,497.5,M,SBD,Open,Single-ply,,18,
C. Draper,90,175,125,182.5,482.5,M,SBD,Open,Single-ply,,19,
B. Kendall,90,137.5,100,200,437.5,M,SBD,Open,Single-ply,,20,
J. Burnett,90,227.5,,,,M,SBD,Open,Single-ply,,DQ,
J. Kinney,90,,,,,M,SBD,Open,Single-ply,,DQ,
B. Auglin,90,,,,,M,SBD,Open,Single-ply,,DQ,
J. Anderson,90,,,,,M,SBD,Open,Single-ply,,DQ,
S. Mekilly,90,,,,,M,SBD,Open,Single-ply,,DQ,
Dennis Reed,100,352.5,187.5,322.5,862.5,M,SBD,Open,Single-ply,,1,35-999
J. Snitak,100,312.5,210,267.5,790,M,SBD,Open,Single-ply,,2,
E. Lewis,100,270,190,262.5,722.5,M,SBD,Open,Single-ply,,3,
S. Mangin,100,230,122.5,240,592.5,M,SBD,Open,Single-ply,,4,
F. Carson,100,205,137.5,247.5,590,M,SBD,Open,Single-ply,,5,
D. Hogan,100,200,152.5,227.5,580,M,SBD,Open,Single-ply,,6,
P. Gray,100,215,162.5,200,577.5,M,SBD,Open,Single-ply,,7,
V. Debruine,100,242.5,,,,M,SBD,Open,Single-ply,,DQ,
H. Hitchcock,100,,,,,M,SBD,Open,Single-ply,,DQ,
Andy Jackson,110,352.5,215,310,877.5,M,SBD,Open,Single-ply,,1,
Robert Pleticha,110,295,230,307.5,832.5,M,SBD,Open,Single-ply,,2,
Jan van de Weghe,110,272.5,185,337.5,795,M,SBD,Open,Single-ply,,3,
T. Henderson,110,272.5,167.5,325,765,M,SBD,Open,Single-ply,,4,
B. Carlson,110,275,175,292.5,742.5,M,SBD,Open,Single-ply,,5,
J. Bruch,110,252.5,150,262.5,665,M,SBD,Open,Single-ply,,6,
Ross Panyke,110,242.5,135,255,632.5,M,SBD,Open,Single-ply,,7,13-19
R. Ryan,110,250,140,240,630,M,SBD,Open,Single-ply,,8,
L. Marsh,110,230,172.5,222.5,625,M,SBD,Open,Single-ply,,9,
M. Flynn,110,212.5,157.5,242.5,612.5,M,SBD,Open,Single-ply,,10,
J. Hollibaugh,110,215,150,232.5,597.5,M,SBD,Open,Single-ply,,11,
C. Anderson,110,172.5,112.5,190,475,M,SBD,Open,Single-ply,,12,
Matt Dimel,110,162.5,162.5,,,M,SBD,Open,Single-ply,,DQ,
Dan Goddard,125,275,217.5,310,802.5,M,SBD,Open,Single-ply,,1,
M. Hyduke,125,300,192.5,280,772.5,M,SBD,Open,Single-ply,,2,
Robert Bretl,125,272.5,190,285,747.5,M,SBD,Open,Single-ply,,3,35-999
L. Mathes,125,255,172.5,237.5,665,M,SBD,Open,Single-ply,,4,
J. Brunkow,125,170,110,227.5,507.5,M,SBD,Open,Single-ply,,5,
D. Korff,125,155,107.5,220,482.5,M,SBD,Open,Single-ply,,6,
C. Mathes,125,,,,,M,SBD,Open,Single-ply,,DQ,
John Ware,125,,,,,M,SBD,Open,Single-ply,,DQ,
Jim Greco,125+,307.5,192.5,302.5,802.5,M,SBD,Open,Single-ply,,1,
T. Barlyske,125+,275,167.5,265,707.5,M,SBD,Open,Single-ply,,2,
M. Perkins,125+,257.5,160,272.5,690,M,SBD,Open,Single-ply,,3,
S. Schay,125+,187.5,122.5,205,515,M,SBD,Open,Single-ply,,4,
