WeightClassKg,Event,Equipment,Sex,Name,BodyweightKg,Best3SquatKg,Bench1Kg,Bench2Kg,Bench3Kg,Best3BenchKg,Best3DeadliftKg,TotalKg,Division,Place
60,D,Raw,M,Frankie Camera,57.88,,,,,,201.85,201.85,Open,1
75,D,Raw,F,Lisa B. Burke,73.66,,,,,,167.83,167.83,Open,1
75,D,Raw,F,Victoria Frace,74.21,,,,,,147.42,147.42,Open,2
75,D,Raw,M,Johnathan McCarthy,73.21,,,,,,244.94,244.94,Open,1
82.5,D,Raw,M,Abner Nazario,82.19,,,,,,281.23,281.23,Open,1
90,D,Raw,M,Jeffrey Hazard,89.36,,,,,,242.67,242.67,Open,1
100,D,Raw,M,Edward Bergman,96.16,,,,,,242.67,242.67,Open,2
100,D,Raw,M,Brad Parkhurst,95.25,,,,,,251.74,251.74,Open,1
110,D,Raw,M,Jared Goble,109.63,,,,,,319.78,319.78,Open,1
125,D,Raw,M,Michael Selmon,121.56,,,,,,331.12,331.12,Open,1
82.5,B,Raw,M,Tim Lewis,81.74,,,,,174.63,,174.63,Open,1
82.5,B,Raw,M,Fred Bland,77.75,,,,,145.15,,145.15,Open,2
100,B,Raw,M,Brad Parkhurst,95.25,,,,,181.44,,181.44,Open,1
100,B,Raw,M,Edward Bergman,96.16,,,,,172.37,,172.37,Open,2
,B,Multi-ply,M,Jim Phraner,108.41,,342.46,353.8,-362.87,353.8,,353.8,Open,1
,B,Multi-ply,M,Tim Hensley,90.63,,306.17,317.51,324.32,324.32,,324.32,Open,3
,B,Multi-ply,M,Mike Bingham,81.56,,285.76,290.3,294.84,294.84,,294.84,Open,6
,B,Multi-ply,M,Tim Gale #1,122.02,,340.19,353.8,-362.87,353.8,,353.8,Open,2
,B,Multi-ply,M,Eric DeCaires,103.51,,-294.84,294.84,308.44,308.44,,308.44,Open,5
,B,Multi-ply,M,Anthony King,121.56,,292.57,301.64,312.98,312.98,,312.98,Open,4
,B,Multi-ply,M,Bill Ross,88.09,,244.94,263.08,272.16,272.16,,272.16,Open,7
,B,Multi-ply,M,James Matta,94.8,,258.55,265.35,272.16,272.16,,272.16,Open,8
,B,Multi-ply,M,Richard Singh,154.77,,-299.37,-299.37,-319.78,,,,Open,DQ
,B,Multi-ply,M,JoeDon Breda,109.23,,-306.17,-306.17,-319.78,,,,Open,DQ
75,SBD,Wraps,F,Alaina Cordone,73.66,195.04,,,,104.33,192.78,492.15,Open,1
82.5,SBD,Wraps,F,Tarra Oravec,82.19,170.1,,,,124.74,226.8,521.63,Open,4
67.5,SBD,Wraps,F,Danielle Szocik,67.49,147.42,,,,102.06,183.7,433.18,Open,1
60,SBD,Wraps,F,Savannah Minnici,58.88,129.27,,,,68.04,165.56,362.87,Open,1
75,SBD,Wraps,F,Katrina Karwoski,70.13,147.42,,,,95.25,165.56,408.23,Open,1
56,SBD,Wraps,F,Karolin Mantilla-Benjamin,54.61,113.4,,,,65.77,136.08,315.25,Open,1
56,SBD,Wraps,F,Courtney Miller,55.52,115.67,,,,56.7,136.08,308.44,Open,2
67.5,SBD,Multi-ply,F,Tammy B. Howard,65.95,,,,,,,,Open,DQ
82.5,SBD,Multi-ply,M,Marcus Morris,81.47,387.82,,,,274.42,290.3,952.54,Open,1
75,SBD,Multi-ply,M,Sandy Tepper,74.48,324.32,,,,226.8,288.03,839.15,Open,1
100,SBD,Multi-ply,M,Jonathan Ross,99.88,367.41,,,,288.03,317.51,972.96,Open,1
100,SBD,Multi-ply,M,Chris Bartl,97.07,337.93,,,,263.08,303.91,904.92,Open,2
125,SBD,Multi-ply,M,Jonathan Byrd,124.65,435.45,,,,333.39,115.67,884.51,Open,1
140,SBD,Multi-ply,M,Bill Fritz,137.44,390.09,,,,,,,Open,DQ
110,SBD,Multi-ply,M,Brian Carroll,109.59,,,,,,,,Open,DQ
110,SBD,Multi-ply,M,Chris Della Fave,109.68,,,,,,376.48,,Open,DQ
90,SBD,Multi-ply,M,Mark Van Alstyne,87.45,322.05,,,,,,,Open,DQ
67.5,SBD,Wraps,M,Brian Galloway,62.87,260.82,,,,167.83,201.85,630.49,Open,1
140,SBD,Wraps,M,Denis Feise,132.72,381.02,,,,244.94,308.44,934.4,Open,1
125,SBD,Wraps,M,Kevin Smith,120.47,351.53,,,,219.99,335.66,907.18,Open,1
125,SBD,Wraps,M,Rich Justice,122.29,369.68,,,,222.26,315.25,907.18,Open,2
140,SBD,Wraps,M,Robert Rivera Jr,130.54,362.87,,,,215.46,335.66,913.99,Open,2
100,SBD,Wraps,M,Bob Merkh,99.88,351.53,,,,206.38,288.03,845.95,Open,1
110,SBD,Wraps,M,Daniel Dalenberg,109.41,335.66,,,,206.38,312.98,855.02,Open,1
140,SBD,Wraps,M,Michael Powers,130.36,347,,,,190.51,344.73,882.24,Open,3
90,SBD,Wraps,M,Joe Sullivan,89.18,285.76,,,,183.7,288.03,757.5,Open,1
125,SBD,Wraps,M,Aaron Frazier,120.75,328.85,,,,213.19,290.3,832.34,Open,3
82.5,SBD,Wraps,M,Jacob Sundey,82.46,263.08,,,,167.83,272.16,703.07,Open,1
125,SBD,Wraps,M,Drew Sweany,123.2,331.12,,,,195.04,294.84,821,Open,4
100,SBD,Wraps,M,Ignatius DeFranco,98.43,294.84,,,,188.24,281.23,764.3,Open,2
67.5,SBD,Wraps,M,Andrew Petti,67.04,226.8,,,,129.27,226.8,582.87,Open,2
90,SBD,Wraps,M,Fernando Marcano-Suarez,87.91,274.42,,,,192.78,249.48,716.68,Open,2
67.5,SBD,Wraps,M,Anthony Celozzi,66.5,219.99,,,,136.08,217.72,573.79,Open,3
90,SBD,Wraps,M,James Lauer,89.9,272.16,,,,158.76,281.23,712.14,Open,3
125,SBD,Wraps,M,Magic Mike Monaghan,121.11,292.57,,,,188.24,308.44,789.25,Open,5
110,SBD,Wraps,M,Skyler Woolard,110,308.44,,,,176.9,274.42,759.77,Open,2
125,SBD,Wraps,M,Ian MacIntyre,122.92,317.51,,,,188.24,265.35,771.11,Open,6
82.5,SBD,Wraps,M,Brandon Densmore,81.74,240.4,,,,149.69,249.48,639.57,Open,2
82.5,SBD,Wraps,M,James Colleary,81.83,238.14,,,,154.22,240.4,632.76,Open,3
