Event,Sex,Name,State,BodyweightKg,WeightClassKg,Division,Best3SquatKg,Best3BenchKg,Best3DeadliftKg,TotalKg,Equipment,Place
SBD,F,Susan Haywood,MB,81.25,82.5,Masters 1,90.0,70.0,120.0,280.0,Single-ply,1
SBD,F,Allison Rain,SK,80.95,82.5,Masters 1,57.5,45.0,105.0,207.5,Single-ply,2
SBD,F,Janet Warne,ON,63.7,67.5,Masters 1,90.0,52.5,125.0,267.5,Single-ply,1
SBD,F,Pat Ling,BC,55.4,56,Masters 1,117.5,70.0,130.0,317.5,Single-ply,1
SBD,F,Jacqueline Sandu,BC,47.65,48,Masters 1,125.0,62.5,140.0,327.5,Single-ply,1
