Place,Name,CyrillicName,Division,BirthDate,Event,Equipment,Tested,Sex,WeightClassKg,BodyweightKg,Country,Squat1Kg,Squat2Kg,Squat3Kg,Best3SquatKg,Squat4Kg,Bench1Kg,Bench2Kg,Bench3Kg,Best3BenchKg,Bench4Kg,Deadlift1Kg,Deadlift2Kg,Deadlift3Kg,Best3DeadliftKg,Deadlift4Kg,TotalKg
1,Natalya Blinkova,Наталья Блинкова,J 20 - 23,1991-03-20,SBD,Multi-ply,Yes,F,52,52,Russia,-115,115,-125,115,,70,75,80,80,,125,135,142.5,142.5,,337.5
1,Sandra Kesaeva,Сандра Кесаева,T 18 - 19,1993-05-02,SBD,Multi-ply,Yes,F,56,55.85,Russia,105,110,-115,110,,47.5,50,52.5,52.5,,110,-120,125,125,,287.5
1,Anna Isakova,Анна Исакова,J 20 - 23,1988-11-08,SBD,Multi-ply,Yes,F,56,56,Russia,80,-90,95,95,,40,45,-50,45,,75,-85,85,85,,225
1,Mariya Pustovit,Мария Пустовит,O,1985-07-30,SBD,Multi-ply,Yes,F,56,55.25,Russia,125,-137.5,-137.5,125,,75,80,-82.5,80,,115,,,115,,320
DQ,Anastasiya Noskova,Анастасия Носкова,O,1984-02-14,SBD,Multi-ply,Yes,F,56,54.4,Russia,-115,,,,,-55,,,,,-120,,,,,
1,Polina Kulkova,Полина Кулькова,O,1978-12-05,SBD,Multi-ply,Yes,F,67.5,66.5,Russia,-170,170,192.5,192.5,,85,-90,-90,85,,160,170,180,180,183,457.5
1,Oksana Udovenko,Оксана Удовенко,J 20 - 23,1991-10-21,SBD,Multi-ply,Yes,F,82.5,81.2,Russia,160,170,-190,170,,80,100,105,105,,140,160,-165,160,,435
1,Kazbek Gogaev,Казбек Гогаев,T 18 - 19,1993-08-13,SBD,Multi-ply,Yes,M,60,59.55,Russia,150,160,170,170,,70,75,-80,75,,180,190,195,195,200,440
1,Marat Kurdanov,Марат Курданов,T 18 - 19,1993-08-31,SBD,Multi-ply,Yes,M,67.5,61.65,Russia,120,130,135,135,,80,-85,90,90,,150,160,172.5,172.5,,397.5
1,Oleg Son,Олег Сон,J 20 - 23,1991-05-22,SBD,Multi-ply,Yes,M,67.5,66.4,Russia,190,-205,-205,190,,110,120,-125,120,,190,-205,-205,190,,500
1,Sergey Alampiev,Сергей Алампиев,O,1957-04-07,SBD,Multi-ply,Yes,M,67.5,67,Russia,180,200,-205,200,,105,-112.5,-112.5,105,,180,200,210,210,,515
1,Sergey Alampiev,Сергей Алампиев,M 55 - 59,1957-04-07,SBD,Multi-ply,Yes,M,67.5,67,Russia,180,200,-205,200,,105,-112.5,-112.5,105,,180,200,210,210,,515
1,Roman Raspopin,Роман Распопин,T 16-17,1996-03-15,SBD,Multi-ply,Yes,M,75,74.1,Russia,-220,220,235,235,,120,-130,-130,120,,200,-212.5,212.5,212.5,,567.5
2,Nikita Fomenko,Никита Фоменко,T 16-17,1995-04-23,SBD,Multi-ply,Yes,M,75,74.05,Russia,200,215,-225,215,,110,120,125,125,,190,200,-215,200,,540
DQ,Georgiy Tukkaev,Георгий Туккаев,T 16-17,1994-04-21,SBD,Multi-ply,Yes,M,75,70.4,Russia,150,-170,190,190,,100,-110,-110,100,,-160,-180,-180,,,
1,Yaroslav Medvedev,Ярослав Медведев,T 18 - 19,1993-01-01,SBD,Multi-ply,Yes,M,75,75,Russia,235,245,255,255,,175,182.5,-187.5,182.5,,215,225,235,235,,672.5
1,Aleksandr Petrov,Александр Петров,J 20 - 23,1990-12-27,SBD,Multi-ply,Yes,M,75,75,Russia,-165,165,180,180,,130,-145,-145,130,,180,205,-215,205,,515
1,Sergey Ryabykh,Сергей Рябых,O,1987-07-11,SBD,Multi-ply,Yes,M,75,74.1,Russia,-200,-200,200,200,,-145,-145,145,145,,185,-200,-200,185,,530
1,Kirill Andreev,Кирилл Андреев,T 16-17,1995-04-03,SBD,Multi-ply,Yes,M,82.5,81.35,Russia,190,205,-215,205,,120,127.5,135,135,,210,220,227.5,227.5,,567.5
2,Oganes Tsikvadze,Оганес Циквадзе,T 16-17,1995-08-30,SBD,Multi-ply,Yes,M,82.5,81.4,Russia,200,210,220,220,,125,135,-140,135,,200,-210,210,210,,565
3,Amond Gigolaev,Амонд Гиголаев,T 16-17,1995-01-27,SBD,Multi-ply,Yes,M,82.5,77.4,Russia,150,-160,160,160,,80,85,-90,85,,170,-180,,170,,415
DQ,Vladimir Ulev,Владимир Ульев,T 16-17,1994-06-30,SBD,Multi-ply,Yes,M,82.5,77.4,Russia,-220,-220,-220,,,-120,,,,,-180,,,,,
1,Alexander Karpenko,Александр Карпенко,T 18 - 19,1992-04-25,SBD,Multi-ply,Yes,M,82.5,79.8,Russia,280,300,312.5,312.5,,190,200,205,205,,260,270,-282.5,270,,787.5
1,Aslanbek Plikhachev,Асланбек Плихачев,J 20 - 23,1991-08-20,SBD,Multi-ply,Yes,M,82.5,75.1,Russia,-150,150,165,165,,130,145,-150,145,,-180,180,-202.5,180,,490
1,Alexander Karpenko,Александр Карпенко,O,1992-04-25,SBD,Multi-ply,Yes,M,82.5,79.8,Russia,280,300,312.5,312.5,,190,200,205,205,,260,270,-282.5,270,,787.5
2,Vasiliy Fursa,Василий Фурса,O,1979-08-05,SBD,Multi-ply,Yes,M,82.5,81.9,Russia,270,-285,285,285,,170,-177.5,-177.5,170,,255,-275,-275,255,,710
DQ,Konstantin Sapunkov,Константин Сапунков,O,1981-09-02,SBD,Multi-ply,Yes,M,82.5,79.95,Russia,-255,255,-265,255,,-185,-185,-185,,,-230,,,,,
1,Mikhail Zhuravlev,Михаил Журавлев,M 65 - 69,1943-10-29,SBD,Multi-ply,Yes,M,82.5,81.15,Russia,190,202.5,210,210,,120,130,-135,130,,200,215,-231,215,,555
1,Evgeniy Pivovarov,Евгений Пивоваров,J 20 - 23,1988-09-01,SBD,Multi-ply,Yes,M,90,88.1,Russia,-250,250,-260,250,,-180,-180,180,180,,240,-250,,240,,670
1,Dmitriy Derevyanko,Дмитрий Деревянко,O,1984-02-09,SBD,Multi-ply,Yes,M,90,89.6,Ukraine,280,300,310,310,,180,190,200,200,,-260,-260,260,260,,770
DQ,Aleksey Zharikov,Алексей Жариков,M 40 - 44,1971-02-19,SBD,Multi-ply,Yes,M,90,87.5,Russia,-265,-265,-265,,,-200,,,,,-235,,,,,
1,Aleksandr Makarov,Александр Макаров,M 55 - 59,1957-01-02,SBD,Multi-ply,Yes,M,90,89.85,Russia,225,235,-240,235,,155,165,-175,165,,215,230,-240,230,,630
1,Aleksey Osipov,Алексей Осипов,T 13-15,1996-05-15,SBD,Multi-ply,Yes,M,100,96.5,Russia,225,-235,235,235,,145,155,-160,155,,200,210,-220,210,,600
1,Kirill Baryshenskiy,Кирилл Барышенский,J 20 - 23,1992-02-10,SBD,Multi-ply,Yes,M,100,91.9,Russia,220,230,240,240,,150,160,165,165,,240,-250,250,250,,655
2,Ivan Savelev,Иван Савельев,J 20 - 23,1989-11-07,SBD,Multi-ply,Yes,M,100,90.25,Russia,-235,-235,235,235,,-155,-155,155,155,,220,235,-270,235,,625
1,Nikolay Kelep,Николай Келеп,O,1984-03-17,SBD,Multi-ply,Yes,M,100,97.4,Russia,220,230,240,240,,190,-230,,190,,240,250,,250,,680
1,Sergey Mavrenkov,Сергей Мавренков,M 45 - 49,1966-11-05,SBD,Multi-ply,Yes,M,100,97.8,Russia,215,225,-235,225,,170,185,-192.5,185,,190,,,190,,600
1,Nikolay Adyukov,Николай Адюков,M 55 - 59,1954-11-23,SBD,Multi-ply,Yes,M,100,95.6,Russia,165,175,180,180,,120,125,127.5,127.5,,140,150,160,160,,467.5
1,Rushan Suleymanov,Рушан Сулейманов,J 20 - 23,1990-10-10,SBD,Multi-ply,Yes,M,110,107.35,Russia,230,245,252.5,252.5,255,160,170,180,180,,180,195,202.5,202.5,,635
1,Pavel Shcheglov,Павел Щеглов,O,1978-07-16,SBD,Multi-ply,Yes,M,125,124.65,Russia,-320,-320,320,320,,202.5,215,225,225,,230,-245,-245,230,,775
2,Denis Makeev,Денис Макеев,O,1983-04-22,SBD,Multi-ply,Yes,M,125,120,Russia,250,-260,265,265,,170,180,190,190,,265,280,290,290,,745
1,Vyacheslav Shadrin,Вячеслав Шадрин,O,1968-02-21,SBD,Multi-ply,Yes,M,140,125.85,Russia,230,260,,260,,160,180,,180,,230,-260,,230,,670
1,Vyacheslav Shadrin,Вячеслав Шадрин,M 40 - 44,1968-02-21,SBD,Multi-ply,Yes,M,140,125.85,Russia,230,260,,260,,160,180,,180,,230,-260,,230,,670
1,Mariya Romanchikova,Мария Романчикова,T 16-17,1996-02-16,SBD,Wraps,Yes,F,48,45.35,Russia,55,60,-65,60,,35,-37.5,-37.5,35,,85,90,-100,90,,185
1,Natalya Konchakova,Наталья Кончакова,O,1977-08-14,SBD,Wraps,Yes,F,48,47.75,Russia,95,97.5,-100,97.5,,45,50,52.5,52.5,,100,115,-132.5,115,,265
2,Natalya Tokareva,Наталья Токарева,O,1973-05-06,SBD,Wraps,Yes,F,48,47.9,Russia,-65,65,70,70,,40,-45,-45,40,,75,-90,90,90,,200
1,Zarina Dzanagova,Зарина Дзанагова,T 16-17,1994-08-07,SBD,Wraps,Yes,F,52,49.6,Russia,75,80,-85,80,,35,40,-42.5,40,,105,110,-115,110,,230
1,Ekaterina Plokhaya,Екатерина Плохая,J 20 - 23,1989-11-11,SBD,Wraps,Yes,F,52,52,Russia,75.5,-80,-85,75.5,,42.5,45,47.5,47.5,,100,-105,-105,100,,222.5
1,Svetlana Nesterova,Светлана Нестерова,O,1975-04-29,SBD,Wraps,Yes,F,52,51.55,Ukraine,65,75,77.5,77.5,,40,-42.5,42.5,42.5,,75,-85,-85,75,,195
1,Alena Govorova,Алена Говорова,T 18 - 19,1992-11-12,SBD,Wraps,Yes,F,56,55.05,Russia,65,75,77.5,77.5,,42.5,47.5,-52.5,47.5,,-75,75,80,80,,205
1,Alena Sotnikova,Алена Сотникова,J 20 - 23,1989-08-29,SBD,Wraps,Yes,F,56,55.25,Russia,100,-105,-105,100,,57.5,60,62.5,62.5,,115,120,125,125,,287.5
1,Svetlana Maletskaya,Светлана Малецкая,O,1983-06-04,SBD,Wraps,Yes,F,56,55.9,Russia,105,-110,-110,105,,62.5,65,67.5,67.5,-68,130,-140,-140,130,,302.5
2,Elena Shelepova,Елена Шелепова,O,,SBD,Wraps,Yes,F,56,55.5,Russia,90,-95,95,95,,60,65,67.5,67.5,,115,-122.5,-122.5,115,,277.5
1,Irina Ageeva,Ирина Агеева,T 18 - 19,1992-12-13,SBD,Wraps,Yes,F,60,58.9,Russia,50,55,60,60,,40,-45,-45,40,,80,87.5,92.5,92.5,,192.5
1,Sara Abbasova,,O,1983-06-20,SBD,Wraps,Yes,F,60,59.95,Azerbaijan,100,-107.5,-110,100,,47.5,52.5,-55,52.5,,110,120,130,130,,282.5
1,Elizaveta Shinkareva,Елизавета Шинкарева,T 13-15,1998-06-26,SBD,Wraps,Yes,F,67.5,66.25,Russia,72.5,77.5,82.5,82.5,,47.5,52.5,-55,52.5,,70,75,80,80,,215
1,Olga Kazankova,Ольга Казанкова,O,1979-06-26,SBD,Wraps,Yes,F,75,74.7,Russia,-110,-110,110,110,,65,70,72.5,72.5,,120,130,140,140,,322.5
1,Nadezhda Marochkina,Надежда Марочкина,M 55 - 59,1957-02-07,SBD,Wraps,Yes,F,75,69.8,Russia,75,85,90,90,,45,-50,52.5,52.5,,75,85,95,95,,237.5
1,Alla Pugovkina,Алла Пуговкина,O,1975-12-12,SBD,Wraps,Yes,F,82.5,79.95,Russia,-120,-120,120,120,,82.5,-87.5,-87.5,82.5,,130,140,-145,140,,342.5
2,Elizaveta Sprogis,Елизавета Спрогис,O,1977-08-24,SBD,Wraps,Yes,F,82.5,77.6,Russia,-110,110,-120,110,,70,75,-77.5,75,,145,155,-162.5,155,,340
1,Nikolay Grachev,Николай Грачев,O,1956-04-16,SBD,Wraps,Yes,M,52,50.3,Russia,90,95,96,96,97,65,-72.5,-73.5,65,,130,142.5,,142.5,,303.5
1,Nikolay Grachev,Николай Грачев,M 55 - 59,1956-04-16,SBD,Wraps,Yes,M,52,50.3,Russia,90,95,96,96,97,65,-72.5,-73.5,65,,130,142.5,,142.5,,303.5
1,Rafik Rustamov,Рафик Рустамов,J 20 - 23,1989-06-27,SBD,Wraps,Yes,M,56,55.9,Azerbaijan,-130,-130,130,130,,90,95,-97.5,95,,150,160,-165,160,,385
1,Rafik Rustamov,Рафик Рустамов,O,1989-06-27,SBD,Wraps,Yes,M,56,55.9,Azerbaijan,-130,-130,130,130,,90,95,-97.5,95,,150,160,-165,160,,385
1,Maksim Khodunov,Максим Ходунов,T 16-17,1994-06-12,SBD,Wraps,Yes,M,60,59.45,Russia,-115,-115,115,115,,90,-95,-95,90,,135,142.5,-150,142.5,,347.5
1,Mikhail Tkachenko,Михаил Ткаченко,T 18 - 19,1993-06-13,SBD,Wraps,Yes,M,60,59.7,Russia,120,-132.5,132.5,132.5,,90,100.5,105,105,,160,-172.5,-172.5,160,,397.5
DQ,Albert Kurmanov,Альберт Курманов,T 18 - 19,1992-06-14,SBD,Wraps,Yes,M,60,56.5,Russia,-110,115,-125,115,,-90,-90,-90,,,,,,,,
DQ,Soslan Kachmazov,Сослан Качмазов,T 18 - 19,1993-01-26,SBD,Wraps,Yes,M,60,58.15,Russia,-120,-120,-120,,,,,,,,,,,,,
1,Maksim Khodunov,Максим Ходунов,O,1994-06-12,SBD,Wraps,Yes,M,60,59.45,Russia,-115,-115,115,115,-131,90,-95,-95,90,,135,142.5,-150,142.5,,347.5
1,Maksim Sukhobok,Максим Сухобок,M 45 - 49,1965-01-01,SBD,Wraps,Yes,M,60,59,Russia,147.5,157.5,-166,157.5,,95,100,-103,100,,185,-200,-200,185,,442.5
1,Sergey Olenichenko,Сергей Олениченко,T 16-17,1994-05-12,SBD,Wraps,Yes,M,67.5,65.9,Russia,132.5,137.5,-145,137.5,,90,95,-100,95,,160,170,-185,170,,402.5
2,Sergey Strakhov,Сергей Страхов,T 16-17,1995-11-01,SBD,Wraps,Yes,M,67.5,65.3,Russia,115,125,132.5,132.5,,-80,-85,85,85,,160,170,-175,170,,387.5
1,Maksim Kolbasenko,Максим Колбасенко,T 18 - 19,1994-01-11,SBD,Wraps,Yes,M,67.5,65.85,Russia,140,150,160,160,,90,100,-107.5,100,,-150,150,160,160,,420
1,Mikhail Gerasimov,Михаил Герасимов,O,1983-08-06,SBD,Wraps,Yes,M,67.5,67.45,Russia,190,200,205,205,,140,-150,-150,140,,230,-250,-255,230,,575
2,Yuriy Nikitchenko,Юрий Никитченко,O,1977-06-27,SBD,Wraps,Yes,M,67.5,65.95,Russia,200,210,215,215,,120,-125,-125,120,,-200,-200,200,200,,535
3,Sergey Alampiev,Сергей Алампиев,O,1957-04-07,SBD,Wraps,Yes,M,67.5,67.5,Russia,140,150,160,160,,90,100,105,105,,180,200,-210,200,,465
1,Sergey Alampiev,Сергей Алампиев,M 55 - 59,1957-04-07,SBD,Wraps,Yes,M,67.5,67.5,Russia,140,150,160,160,,90,100,105,105,,180,200,-210,200,,465
1,Evgeniy Lyutikov,Евгений Лютиков,T 18 - 19,1993-03-18,SBD,Wraps,Yes,M,75,73.35,Russia,150,160,170,170,,90,100,-105,100,,190,200,210,210,,480
1,Vyacheslav Shmatov,Вячеслав Шматов,J 20 - 23,1991-03-16,SBD,Wraps,Yes,M,75,73.5,Russia,170,175,-180,175,,140,147.5,150,150,,215,225,-227.5,225,,550
1,Sergey Ayvazov,Сергей Айвазов,O,1977-07-19,SBD,Wraps,Yes,M,75,75,Russia,190,205,215,215,,122.5,132.5,137.5,137.5,,220,-242.5,242.5,242.5,,595
2,Vladimir Zhadenov,Владимир Жаденов,O,1987-06-01,SBD,Wraps,Yes,M,75,68.7,Russia,210,225,-230,225,,140,145,-150,145,,200,212.5,220,220,,590
3,Andrey Konovalenko,Андрей Коноваленко,O,1982-08-20,SBD,Wraps,Yes,M,75,74.65,Russia,210,-215,215,215,,137.5,140,-142.5,140,,232.5,-237.5,-237.5,232.5,,587.5
4,Timur Baybekov,Тимур Байбеков,O,1984-02-23,SBD,Wraps,Yes,M,75,71.1,Russia,140,-147.5,-150,140,,125,130,-135,130,,180,190,200,200,,470
1,Vladimir Pryazhentsev,Владимир Пряженцев,M 45 - 49,1965-12-04,SBD,Wraps,Yes,M,75,73.9,Russia,170,182,187.5,187.5,,117.5,125,130,130,,195,220,225,225,,542.5
1,Vladislav Naumov,Владислав Наумов,T 16-17,1994-11-23,SBD,Wraps,Yes,M,82.5,80.25,Russia,-160,170,-180,170,,120,125,130,130,,200,210,215,215,,515
2,Andrey Bogatchenko,Андрей Богатченко,T 16-17,1994-09-25,SBD,Wraps,Yes,M,82.5,81.95,Russia,150,160,-170,160,,130,-140,-140,130,,180,200,-220,200,,490
1,Ruslan Olekhov,Руслан Олехов,T 18 - 19,1994-03-22,SBD,Wraps,Yes,M,82.5,79.7,Russia,190,205,210,210,,140,145,-147.5,145,,200,212,220,220,,575
DQ,Sergey Smagin,Сергей Смагин,T 18 - 19,1992-09-25,SBD,Wraps,Yes,M,82.5,80.2,Russia,155,-160,160,160,,-145,-145,-145,,,,,,,,
DQ,Vladimir Babin,Владимир Бабин,T 18 - 19,1992-08-09,SBD,Wraps,Yes,M,82.5,82,Russia,-225,-225,-225,,,,,,,,,,,,,
1,Faradzh Dzhalilov,Фарадж Джалилов,J 20 - 23,1992-04-06,SBD,Wraps,Yes,M,82.5,81,Azerbaijan,-205,205,215,215,,160,-165,,160,,230,240,-250,240,,615
2,Roman Ermilov,Роман Ермилов,J 20 - 23,1989-10-19,SBD,Wraps,Yes,M,82.5,81.6,Russia,180,-185,-185,180,,-135,135,-140,135,,200,222.5,-235,222.5,,537.5
3,Aleksandr Shuvalov,Александр Шувалов,J 20 - 23,1990-07-10,SBD,Wraps,Yes,M,82.5,81.5,Russia,140,155,-165,155,,110,-120,-120,110,,200,210,215,215,,480
1,Eduard Dolgov,Едуард Долгов,O,1987-09-27,SBD,Wraps,Yes,M,82.5,81.15,Ukraine,230,240,-245,240,,162.5,172.5,-175,172.5,,255,265,-270,265,,677.5
2,Faradzh Dzhalilov,Фарадж Джалилов,O,1992-04-06,SBD,Wraps,Yes,M,82.5,81,Russia,-205,205,215,215,,160,-165,,160,,230,240,-250,240,,615
3,Betal Gubzhev,Бетал Губжев,O,1992-07-13,SBD,Wraps,Yes,M,82.5,79.8,Russia,190,205,-215,205,,105,115,-117.5,115,,215,232.5,247.5,247.5,,567.5
4,Roman Ermilov,Роман Ермилов,O,1989-10-19,SBD,Wraps,Yes,M,82.5,82.5,Russia,180,-185,-185,180,,-135,135,-140,135,,200,222.5,-235,222.5,,537.5
1,Vyacheslav Chevordaev,Вячеслав Чевордаев,M 60 - 64,1948-04-06,SBD,Wraps,Yes,M,82.5,81.1,Russia,170,180,-185,180,,-92.5,92.5,-97.5,92.5,,192.5,205,,205,,477.5
2,Vladimir Nagalyuk,Владимир Нагалюк,M 60 - 64,1951-09-21,SBD,Wraps,Yes,M,82.5,82.45,Ukraine,-140,-140,140,140,,70,75,80,80,,170,,,170,,390
1,Aleksandr Berezhnoy,Александр Бережной,T 16-17,1994-05-18,SBD,Wraps,Yes,M,90,87.75,Russia,180,190,200,200,,120,130,135,135,,202.5,220,-240,220,,555
1,Aleksey Kraynichuk,Алексей Крайничук,J 20 - 23,1988-06-02,SBD,Wraps,Yes,M,90,87.45,Russia,200,207.5,-212.5,207.5,,147.5,155,-162.5,155,,240,250,-262.5,250,,612.5
2,Artur Kodzhoyan,Артур Коджоян,J 20 - 23,1991-12-17,SBD,Wraps,Yes,M,90,87.65,Russia,195,-215,-215,195,,-100,-105,110,110,,250,275,-300,275,,580
1,Sergey Yudin,Сергей Юдин,O,1973-09-09,SBD,Wraps,Yes,M,90,89.55,Russia,215,225,230,230,,140,150,160,160,,230,265,-297.7,265,,655
2,Artem Levchenko,Артем Левченко,O,1983-10-20,SBD,Wraps,Yes,M,90,89.95,Russia,190,-200,,190,,150,-160,,150,,200,-210,,200,,540
1,Andrey Kazarov,Андрей Казаров,M 45 - 49,1966-02-28,SBD,Wraps,Yes,M,90,88.4,Russia,180,190,,190,,115,122.5,-130,122.5,,190,200,,200,,512.5
1,Nikita Boldyrev,Никита Болдырев,T 16-17,1995-07-06,SBD,Wraps,Yes,M,100,97.9,Russia,170,180,-185,180,,120,127.5,132.5,132.5,,210,222.5,-235,222.5,,535
1,Sergey Materinskiy,Сергей Материнский,T 18 - 19,1992-08-13,SBD,Wraps,Yes,M,100,96.7,Russia,175,190,200,200,,110,120,125,125,,215,225,232.5,232.5,,557.5
1,Denis Korobeynikov,Денис Коробейников,J 20 - 23,1990-04-16,SBD,Wraps,Yes,M,100,94.45,Russia,230,-240,-245,230,,150,160,165,165,,250,265,275,275,,670
2,Maksim Kalinin,Максим Калинин,J 20 - 23,1993-06-01,SBD,Wraps,Yes,M,100,92.5,Russia,165,172.5,-182.5,172.5,,140,147.5,-152.5,147.5,,180,200,215,215,,535
1,Denis Korobeynikov,Денис Коробейников,O,1990-04-16,SBD,Wraps,Yes,M,100,94.45,Russia,230,-240,-245,230,,150,160,165,165,,250,265,275,275,,670
1,Mikhail Bobkov,Михаил Бобков,M 60 - 64,1947-11-21,SBD,Wraps,Yes,M,100,95.75,Russia,180,,,180,,75,,,75,,180,,,180,,435
1,Maksim Talalov,Максим Талалов,J 20 - 23,1989-04-21,SBD,Wraps,Yes,M,110,107.5,Russia,-210,210,-217.5,210,,130,140,-150,140,,220,-235,-235,220,,570
1,Nikolay Fesanyuk,Николай Фесанюк,O,1984-05-30,SBD,Wraps,Yes,M,110,108.5,Russia,280,300,310,310,315,180,190,-197.5,190,,-310,310,330,330,-340,830
2,Valentin Bezkorovaynyy,Валентин Безкоровайный,O,1973-09-14,SBD,Wraps,Yes,M,110,104.8,Ukraine,220,227.5,-235,227.5,,150,-157.5,-157.5,150,,225,230,240,240,,617.5
1,Aleksandr Afanasev,Александр Афанасьев,M 45 - 49,1966-11-02,SBD,Wraps,Yes,M,110,108.25,Russia,180,200,-205,200,,150,155,-160,155,,-200,205,220,220,,575
2,Aleksandr Shcherbak,Александр Щербак,M 45 - 49,1966-11-27,SBD,Wraps,Yes,M,110,108.5,Russia,-185,185,195,195,,135,142.5,147.5,147.5,,195,210,225,225,,567.5
1,Mikhail Lapchenkov,Михаил Лапченков,M 50 - 54,1959-04-06,SBD,Wraps,Yes,M,110,108.4,Russia,160,170,-175,170,,110,117.5,-122.5,117.5,,170,185,-190,185,,472.5
1,Dmitriy Gostishchev,Дмитрий Гостищев,M 65 - 69,1947-03-22,SBD,Wraps,Yes,M,110,107.8,Russia,130,140,150,150,,140,-150,-150,140,,130,150,160,160,,450
1,Aleksandr Zaytsev,Александр Зайцев,O,1980-04-04,SBD,Wraps,Yes,M,125,120.05,Russia,280,300,320,320,,200,215,225,225,,280,300,-315,300,,845
2,Vladimir Ivankov,Владимир Иванков,O,1986-07-03,SBD,Wraps,Yes,M,125,122.25,Russia,245,255,262.5,262.5,,-160,160,167.5,167.5,,250,265,270,270,,700
3,Artem Shekhovtsov,Артем Шеховцов,O,1985-05-25,SBD,Wraps,Yes,M,125,110.6,Russia,220,235,245,245,,135,-145,145,145,,250,280,285,285,,675
4,Andrey Shmorgun,Андрей Шморгун,O,1984-11-20,SBD,Wraps,Yes,M,125,116.75,Russia,205,215,222.5,222.5,,170,180,182.5,182.5,,250,260,-267.5,260,,665
1,Vyacheslav Shadrin,Вячеслав Шадрин,M 40 - 44,1968-02-21,SBD,Wraps,Yes,M,125,124.85,Russia,160,,,160,,120,,,120,,200,,,200,,480
1,Vladimir Chernyshov,Владимир Чернышов,M 60 - 64,1948-09-04,SBD,Wraps,Yes,M,125,122.6,Russia,175,-185,,175,,95,107.5,-112.5,107.5,,165,185,200,200,,482.5
1,Natalya Blinkova,Наталья Блинкова,J 20 - 23,1991-03-20,B,Multi-ply,Yes,F,52,51.85,Russia,,,,,,75,80,-85,80,,,,,,,80
DQ,Alena Sotnikova,Алена Сотникова,J 20 - 23,1989-08-29,B,Multi-ply,Yes,F,56,55.6,Russia,,,,,,-80,-80,-80,,,,,,,,
1,Mariya Pustovit,Мария Пустовит,O,1985-07-30,B,Multi-ply,Yes,F,56,55.25,Russia,,,,,,-75,75,80,80,,,,,,,80
2,Nataliya Zagrebina,Наталия Загребина,O,1977-10-29,B,Multi-ply,Yes,F,56,55,Russia,,,,,,-65,65,-70,65,,,,,,,65
1,Vadim Sokushev,Вадим Сокушев,J 20 - 23,1990-03-28,B,Multi-ply,Yes,M,52,49.45,Russia,,,,,,110,115,-120,115,,,,,,,115
2,Kaplan Skhalyakho,Каплан Схаляхо,J 20 - 23,1990-08-28,B,Multi-ply,Yes,M,52,51.25,Russia,,,,,,102.5,-115,-115,102.5,,,,,,,102.5
1,Vadim Sokushev,Вадим Сокушев,O,1990-03-28,B,Multi-ply,Yes,M,52,49.45,Russia,,,,,,110,115,-120,115,,,,,,,115
2,Kaplan Skhalyakho,Каплан Схаляхо,O,1990-08-28,B,Multi-ply,Yes,M,52,51.25,Russia,,,,,,102.5,-115,-115,102.5,,,,,,,102.5
1,Ruslan Kudryavtsev,Руслан Кудрявцев,O,1985-07-04,B,Multi-ply,Yes,M,56,53.65,Russia,,,,,,-130,-130,130,130,,,,,,,130
1,Igor Lyubaev,Игорь Любаев,O,1979-04-30,B,Multi-ply,Yes,M,60,59.45,Russia,,,,,,110,120,-130,120,,,,,,,120
1,Artur Abdyushev,Артур Абдюшев,T 18 - 19,1993-02-28,B,Multi-ply,Yes,M,67.5,65.8,Russia,,,,,,147.5,152.5,-160,152.5,,,,,,,152.5
1,Armen Saakyan,Армен Саакян,J 20 - 23,1988-09-04,B,Multi-ply,Yes,M,67.5,66.9,Russia,,,,,,145,-152.5,-152.5,145,,,,,,,145
DQ,Vusal Gumbatov,Вусал Гумбатов,J 20 - 23,1989-06-29,B,Multi-ply,Yes,M,67.5,66.85,Ukraine,,,,,,-145,-145,-145,,,,,,,,
DQ,Dmitriy Kolistratov,Дмитрий Колистратов,O,1977-03-08,B,Multi-ply,Yes,M,67.5,67.4,Russia,,,,,,-152.5,-152.5,,,,,,,,,
1,Yaroslav Medvedev,Ярослав Медведев,T 18 - 19,1993-01-01,B,Multi-ply,Yes,M,75,75,Russia,,,,,,175,180,185,185,-190,,,,,,185
1,Aleksandr Petrov,Александр Петров,J 20 - 23,1990-12-27,B,Multi-ply,Yes,M,75,74.95,Russia,,,,,,130,-145,,130,,,,,,,130
1,Sergey Gerasimenko,Сергей Герасименко,O,1984-07-09,B,Multi-ply,Yes,M,75,74.95,Russia,,,,,,-150,150,160,160,,,,,,,160
DQ,Armen Khachaturyan,Армен Хачатурян,O,1978-07-18,B,Multi-ply,Yes,M,75,74.7,Russia,,,,,,-170,-170,-170,,,,,,,,
1,Alexander Karpenko,Александр Карпенко,T 18 - 19,1992-04-25,B,Multi-ply,Yes,M,82.5,79,Russia,,,,,,190,200,207.5,207.5,-212.5,,,,,,207.5
2,Timur Urazgaliev,Тимур Уразгалиев,T 18 - 19,1992-06-08,B,Multi-ply,Yes,M,82.5,82.45,Russia,,,,,,150,160,172.5,172.5,,,,,,,172.5
1,Vladimir Kuvanov,Владимир Куванов,J 20 - 23,1989-06-12,B,Multi-ply,Yes,M,82.5,81.65,Russia,,,,,,195,-202.5,205,205,-208,,,,,,205
2,Sergey Tupikov,Сергей Тупиков,J 20 - 23,1988-11-12,B,Multi-ply,Yes,M,82.5,77.75,Russia,,,,,,-150,-150,150,150,,,,,,,150
1,Mikhail Veber,Михаил Вебер,O,1971-07-29,B,Multi-ply,Yes,M,82.5,82.4,Russia,,,,,,-225,-225,225,225,-231,,,,,,225
2,Oleg Kesaev,Олег Кесаев,O,1987-09-04,B,Multi-ply,Yes,M,82.5,80.75,Russia,,,,,,-185,185,200,200,,,,,,,200
3,Aleksey Bryazgunov,Алексей Брязгунов,O,1970-09-04,B,Multi-ply,Yes,M,82.5,78.3,Russia,,,,,,180,187.5,195,195,,,,,,,195
4,Vladimir Tishkovskiy,Владимир Тишковский,O,1986-10-26,B,Multi-ply,Yes,M,82.5,82.45,Russia,,,,,,190,-195,195,195,,,,,,,195
DQ,Ruslan Albershteyn,Руслан Альберштейн,O,1973-01-09,B,Multi-ply,Yes,M,82.5,81.65,Russia,,,,,,-155,-160,-160,,,,,,,,
1,Mikhail Veber,Михаил Вебер,M 40 - 44,1971-07-29,B,Multi-ply,Yes,M,82.5,82.4,Russia,,,,,,-225,-225,225,225,-231,,,,,,225
2,Aleksey Bryazgunov,Алексей Брязгунов,M 40 - 44,1970-09-04,B,Multi-ply,Yes,M,82.5,78.3,Russia,,,,,,180,187.5,195,195,,,,,,,195
1,Konstantin Smirnov,Константин Смирнов,M 45 - 49,1962-07-15,B,Multi-ply,Yes,M,82.5,82.45,Russia,,,,,,140,-150,-150,140,,,,,,,140
1,Vladimir Sidorenko,Владимир Сидоренко,M 50 - 54,1961-10-27,B,Multi-ply,Yes,M,82.5,80.2,Russia,,,,,,-125,130,-140,130,,,,,,,130
1,Evgeniy Pivovarov,Евгений Пивоваров,J 20 - 23,1988-09-01,B,Multi-ply,Yes,M,90,88.1,Russia,,,,,,180,190,200,200,,,,,,,200
1,Konstantin Sapunkov,Константин Сапунков,O,1981-09-02,B,Multi-ply,Yes,M,90,82.7,Russia,,,,,,170,-180,180,180,,,,,,,180
DQ,Sergey Vinnichenko,Сергей Винниченко,O,1974-12-04,B,Multi-ply,Yes,M,90,86.15,Russia,,,,,,-180,-180,-180,,,,,,,,
1,Aleksandr Koshman,Александр Кошман,M 40 - 44,1971-08-05,B,Multi-ply,Yes,M,90,86.65,Russia,,,,,,-170,170,177.5,177.5,,,,,,,177.5
2,Uruzmag Merdenov,Урузмаг Мерденов,M 40 - 44,1968-01-17,B,Multi-ply,Yes,M,90,89.4,Russia,,,,,,170,-175,-175,170,,,,,,,170
DQ,Aleksey Zharikov,Алексей Жариков,M 40 - 44,1971-02-19,B,Multi-ply,Yes,M,90,87.35,Russia,,,,,,-200,-200,-200,,,,,,,,
1,Igor Rachkov,Игорь Рачков,M 45 - 49,1965-03-06,B,Multi-ply,Yes,M,90,86.65,Russia,,,,,,-150,150,-160,150,,,,,,,150
1,Aleksandr Anokhin,Александр Анохин,J 20 - 23,1991-07-30,B,Multi-ply,Yes,M,100,97.95,Russia,,,,,,-230,230,-245,230,,,,,,,230
2,Ruslan Kulebyakin,Руслан Кулебякин,J 20 - 23,1991-02-26,B,Multi-ply,Yes,M,100,98.75,Russia,,,,,,215,-230,-230,215,,,,,,,215
1,Aleksandr Borshchev,Александр Борщев,O,1986-03-24,B,Multi-ply,Yes,M,100,98.65,Russia,,,,,,245,-255,255,255,-272.5,,,,,,255
2,Aleksandr Anokhin,Александр Анохин,O,1991-07-30,B,Multi-ply,Yes,M,100,97.95,Russia,,,,,,-230,230,-245,230,,,,,,,230
3,Yuriy Solovev,Юрий Соловьев,O,1974-01-25,B,Multi-ply,Yes,M,100,97.3,Russia,,,,,,225,-230,-230,225,,,,,,,225
4,Evgeniy Uvarov,Евгений Уваров,O,1977-02-03,B,Multi-ply,Yes,M,100,93.95,Russia,,,,,,220,-227.5,-230,220,,,,,,,220
1,Oleg Kostennikov,Олег Костенников,M 45 - 49,1966-01-24,B,Multi-ply,Yes,M,100,99.1,Russia,,,,,,-180,190,-200,190,,,,,,,190
DQ,Sergey Mavrenkov,Сергей Мавренков,M 45 - 49,1966-11-05,B,Multi-ply,Yes,M,100,97.6,Russia,,,,,,-175,-175,-175,,,,,,,,
1,Vasiliy Shpodarev,Василий Шподарев,J 20 - 23,1989-01-13,B,Multi-ply,Yes,M,110,104.75,Russia,,,,,,180,200,-212.5,200,,,,,,,200
2,Rushan Suleymanov,Рушан Сулейманов,J 20 - 23,1990-10-10,B,Multi-ply,Yes,M,110,107.85,Russia,,,,,,170,-180,-180,170,,,,,,,170
1,Andrey Lomnitskiy,Андрей Ломницкий,O,1980-11-10,B,Multi-ply,Yes,M,110,107.25,Ukraine,,,,,,240,-250,-260,240,,,,,,,240
2,Aleksey Ventsov,Алексей Венцов,O,1981-04-22,B,Multi-ply,Yes,M,110,109.2,Russia,,,,,,220,-232.5,232.5,232.5,,,,,,,232.5
DQ,Valeriy Kurochkin,Валерий Курочкин,O,1978-11-09,B,Multi-ply,Yes,M,110,108.7,Russia,,,,,,-250,-260,-265,,,,,,,,
1,Aleksandr Seregin,Александр Серегин,O,1980-09-16,B,Multi-ply,Yes,M,125,118.3,Russia,,,,,,-220,-225,225,225,,,,,,,225
2,Artem Sedov,Артем Седов,O,1979-03-18,B,Multi-ply,Yes,M,125,115.2,Russia,,,,,,200,-210,-210,200,,,,,,,200
1,Aleksey Tarasov,Алексей Тарасов,O,1976-03-21,B,Multi-ply,Yes,M,140,128.45,Russia,,,,,,240,250,257.5,257.5,,,,,,,257.5
2,Pavel Shcheglov,Павел Щеглов,O,1978-07-16,B,Multi-ply,Yes,M,140,125.55,Russia,,,,,,210,-230,-230,210,,,,,,,210
DQ,Oleg Kozyrev,Олег Козырев,O,1975-03-01,B,Multi-ply,Yes,M,140+,199,Russia,,,,,,-300,,,,,,,,,,
1,Yana Saveleva,Яна Савельева,O,1982-06-29,B,Raw,Yes,F,44,44,Russia,,,,,,42.5,-47.5,-47.5,42.5,,,,,,,42.5
1,Irina Skrynnikova,Ирина Скрынникова,T 16-17,1994-08-24,B,Raw,Yes,F,48,48,Russia,,,,,,45,52.5,-60,52.5,,,,,,,52.5
1,Albina Chernyak,Альбіна Черняк,T 18 - 19,1994-01-08,B,Raw,Yes,F,48,46.6,Ukraine,,,,,,-50,50,-60,50,,,,,,,50
1,Mariya Lapshova,Мария Лапшова,J 20 - 23,1991-03-19,B,Raw,Yes,F,52,50,Russia,,,,,,62.5,67.5,-70,67.5,,,,,,,67.5
1,Ekaterina Konovalova,Екатерина Коновалова,O,1986-05-04,B,Raw,Yes,F,52,52,Russia,,,,,,65,-70,70,70,,,,,,,70
2,Nataliya Bubenshchikova,Наталия Бубенщикова,O,1973-09-07,B,Raw,Yes,F,52,51.7,Russia,,,,,,-62.5,62.5,-65,62.5,,,,,,,62.5
3,Liliya Prots,Лилия Проць,O,1974-01-09,B,Raw,Yes,F,52,52,Ukraine,,,,,,57.5,62.5,-65,62.5,,,,,,,62.5
1,Irina Lapshova,Ирина Лапшова,M 45 - 49,1964-03-13,B,Raw,Yes,F,52,51.3,Russia,,,,,,57.5,60,-62.5,60,,,,,,,60
1,Alena Govorova,Алена Говорова,T 18 - 19,1992-11-12,B,Raw,Yes,F,56,55.2,Russia,,,,,,42.5,47.5,50,50,-52.5,,,,,,50
1,Anna Konoval,Анна Коновал,O,1984-08-08,B,Raw,Yes,F,56,54.3,Ukraine,,,,,,75,77.5,-80,77.5,,,,,,,77.5
2,Anastasiya Noskova,Анастасия Носкова,O,1984-02-14,B,Raw,Yes,F,56,54.4,Russia,,,,,,45,50,-52.5,50,,,,,,,50
3,Nataliya Zagrebina,Наталия Загребина,O,1977-10-29,B,Raw,Yes,F,56,54.7,Russia,,,,,,50,-55,-55,50,,,,,,,50
1,Anastasiya Rakcheeva,Анастасия Ракчеева,O,1971-01-19,B,Raw,Yes,F,60,59.6,Russia,,,,,,82.5,87.5,92.5,92.5,,,,,,,92.5
1,Anastasiya Rakcheeva,Анастасия Ракчеева,M 40 - 44,1971-01-19,B,Raw,Yes,F,60,59.6,Russia,,,,,,82.5,87.5,92.5,92.5,,,,,,,92.5
1,Elizaveta Shinkareva,Елизавета Шинкарева,T 13-15,1998-06-26,B,Raw,Yes,F,67.5,65.6,Russia,,,,,,47.5,52.5,55,55,,,,,,,55
1,Marina Khristoforova,Марина Христофорова,O,1966-04-22,B,Raw,Yes,F,67.5,62.6,Ukraine,,,,,,80,-85,-85,80,,,,,,,80
2,Irina Zaytseva,Ирина Зайцева,O,1976-03-18,B,Raw,Yes,F,67.5,65,Russia,,,,,,47.5,52.5,-57.5,52.5,,,,,,,52.5
1,Anna Nikolenko,Анна Николенко,M 40 - 44,1970-08-29,B,Raw,Yes,F,67.5,65.8,Russia,,,,,,-55,55,60,60,,,,,,,60
1,Marina Khristoforova,Марина Христофорова,M 45 - 49,1966-04-22,B,Raw,Yes,F,67.5,62.6,Ukraine,,,,,,80,-85,-85,80,,,,,,,80
1,Svetlana Sinacheva,Светлана Синачева,O,1966-12-15,B,Raw,Yes,F,75,74,Russia,,,,,,95,100,105,105,,,,,,,105
2,Irina Krasnova,Ирина Краснова,O,1984-02-06,B,Raw,Yes,F,75,74.4,Russia,,,,,,70,80,-85,80,,,,,,,80
3,Olga Kazankova,Ольга Казанкова,O,1979-06-26,B,Raw,Yes,F,75,74.6,Russia,,,,,,70,77.5,-80,77.5,,,,,,,77.5
4,Vita Maslennikova,Вита Масленникова,O,1983-05-30,B,Raw,Yes,F,75,68.3,Russia,,,,,,-75,75,-80,75,,,,,,,75
1,Tatyana Sayfullina,Татьяна Сайфуллина,O,1958-12-04,B,Raw,Yes,F,82.5,76,Russia,,,,,,42.5,47.5,50,50,,,,,,,50
1,Tatyana Sayfullina,Татьяна Сайфуллина,M 50 - 54,1958-12-04,B,Raw,Yes,F,82.5,76,Russia,,,,,,42.5,47.5,50,50,,,,,,,50
1,Aleksey Korotkikh,Алексей Коротких,T 13-15,1998-05-25,B,Raw,Yes,M,52,45.6,Russia,,,,,,50,55,,55,,,,,,,55
2,Egor Berdnik,Егор Бердник,T 13-15,2003-11-18,B,Raw,Yes,M,52,40,Russia,,,,,,25,27.5,30,30,,,,,,,30
3,German Veber,Герман Вебер,T 13-15,2003-09-09,B,Raw,Yes,M,52,40,Russia,,,,,,25,27.5,-30,27.5,,,,,,,27.5
1,Kaplan Skhalyakho,Каплан Схаляхо,J 20 - 23,1990-08-28,B,Raw,Yes,M,52,52,Russia,,,,,,85,-92.5,-92.5,85,,,,,,,85
1,Kaplan Skhalyakho,Каплан Схаляхо,O,1990-08-28,B,Raw,Yes,M,52,52,Russia,,,,,,85,-92.5,-92.5,85,,,,,,,85
1,Vitaliy Sapegin,Виталий Сапегин,T 16-17,1994-11-01,B,Raw,Yes,M,56,55.3,Russia,,,,,,97.5,106,-110,106,,,,,,,106
1,Tigran Saakyan,Тигран Саакян,T 18 - 19,1993-05-24,B,Raw,Yes,M,56,55.2,Russia,,,,,,90,-95,95,95,,,,,,,95
1,Nikolay Lopin,Николай Лопин,O,1983-07-11,B,Raw,Yes,M,56,55.7,Russia,,,,,,90,102.5,-107.5,102.5,,,,,,,102.5
1,Timur Vasilchenko,Тимур Васильченко,T 16-17,1995-12-07,B,Raw,Yes,M,60,60,Russia,,,,,,90,-100,100,100,,,,,,,100
1,Albert Kurmanov,Альберт Курманов,T 18 - 19,1992-06-14,B,Raw,Yes,M,60,58.7,Russia,,,,,,80,87.5,-97.5,87.5,,,,,,,87.5
1,Admir Shidginov,Адмир Шидгинов,O,1986-03-05,B,Raw,Yes,M,60,59.7,Russia,,,,,,-105,115,-127.5,115,,,,,,,115
2,Aleksandr Tsvirko,Александр Цвирко,O,1975-12-10,B,Raw,Yes,M,60,60,Russia,,,,,,85,-90,90,90,,,,,,,90
1,Adam Gubzhev,Адам Губжев,T 13-15,1996-09-11,B,Raw,Yes,M,67.5,64.7,Russia,,,,,,75,82.5,-87.5,82.5,,,,,,,82.5
1,Oleg Oleynik,Олег Олейник,T 16-17,1995-09-28,B,Raw,Yes,M,67.5,66,Ukraine,,,,,,85,-92.5,-97.5,85,,,,,,,85
1,Ararat Agdzhoyan,Арарат Агджоян,T 18 - 19,1993-11-03,B,Raw,Yes,M,67.5,67.5,Russia,,,,,,105,107.5,-112.5,107.5,,,,,,,107.5
1,Aram Melkonyan,Арам Мелконян,J 20 - 23,1991-07-13,B,Raw,Yes,M,67.5,66.1,Russia,,,,,,-120,-125,125,125,,,,,,,125
2,Yuriy Belenkiy,Юрий Беленький,J 20 - 23,1990-03-23,B,Raw,Yes,M,67.5,63.7,Russia,,,,,,115,-120,-120,115,,,,,,,115
1,Vladimir Zabolotnev,Владимир Заболотнев,O,1968-02-25,B,Raw,Yes,M,67.5,67.3,Russia,,,,,,142.5,150,-152.5,150,,,,,,,150
2,Mikhail Gerasimov,Михаил Герасимов,O,1983-08-06,B,Raw,Yes,M,67.5,67.4,Russia,,,,,,142.5,-150,-150,142.5,,,,,,,142.5
3,Artem Tserunyan,Артем Церунян,O,1984-01-23,B,Raw,Yes,M,67.5,67.5,Russia,,,,,,125,130,132.5,132.5,,,,,,,132.5
4,Aleksandr Davydtsev,Александр Давыдцев,O,1987-10-25,B,Raw,Yes,M,67.5,66.7,Russia,,,,,,125,-135,-135,125,,,,,,,125
5,Roman Popov,Роман Попов,O,1977-09-21,B,Raw,Yes,M,67.5,66.6,Russia,,,,,,110,-120,-120,110,,,,,,,110
6,Vladimir Eryshkanov,Владимир Ерышканов,O,1978-12-02,B,Raw,Yes,M,67.5,62,Russia,,,,,,80,82,-85,82,,,,,,,82.5
1,Vladimir Zabolotnev,Владимир Заболотнев,M 40 - 44,1968-02-25,B,Raw,Yes,M,67.5,67.3,Russia,,,,,,142.5,150,-152.5,150,,,,,,,150
1,Yuriy Vikhorev,Юрий Вихорев,M 60 - 64,1950-06-28,B,Raw,Yes,M,67.5,66.1,Russia,,,,,,-90,-90,90,90,,,,,,,90
1,Andrey Gabuev,Андрей Габуев,T 13-15,1996-09-30,B,Raw,Yes,M,75,75,Russia,,,,,,75,-82.5,-85,75,,,,,,,75
1,Stanislav Zaikin,Станислав Заикин,T 16-17,1994-06-30,B,Raw,Yes,M,75,73.4,Russia,,,,,,-115,-115,115,115,,,,,,,115
1,Sergey Denisov,Сергей Денисов,J 20 - 23,1988-10-25,B,Raw,Yes,M,75,72.4,Russia,,,,,,155,160,-163,160,,,,,,,160
2,Maksim Popov,Максим Попов,J 20 - 23,1991-05-18,B,Raw,Yes,M,75,73.4,Russia,,,,,,125,-135,-135,125,,,,,,,125
1,Evgeniy Simbirskiy,Евгений Симбирский,O,1988-01-13,B,Raw,Yes,M,75,75,Russia,,,,,,160,170,-180,170,,,,,,,170
2,Andrey Petrov,Андрей Петров,O,1979-10-14,B,Raw,Yes,M,75,74,Russia,,,,,,135,142.5,145,145,,,,,,,145
3,Aleksandr Volgin,Александр Волгин,O,1986-10-14,B,Raw,Yes,M,75,73.5,Russia,,,,,,140,-145,-155,140,,,,,,,140
4,Armen Khachaturyan,Армен Хачатурян,O,1978-07-18,B,Raw,Yes,M,75,75,Russia,,,,,,120,130,-142.5,130,,,,,,,130
5,Andrey Kramskoy,Андрей Крамской,O,1982-03-26,B,Raw,Yes,M,75,74.4,Russia,,,,,,125,-130,-130,125,,,,,,,125
6,Stepan Pogosyan,Степан Погосян,O,1984-04-18,B,Raw,Yes,M,75,75,Russia,,,,,,125,-135,-135,125,,,,,,,125
7,Timur Baybekov,Тимур Байбеков,O,1984-02-23,B,Raw,Yes,M,75,71.5,Russia,,,,,,120,-130,-140,120,,,,,,,120
DQ,Viktor Zozulin,Виктор Зозулин,O,1984-12-24,B,Raw,Yes,M,75,73,Russia,,,,,,-120,-120,-120,,,,,,,,
1,Nikolay Kireev,Николай Киреев,M 45 - 49,1963-09-02,B,Raw,Yes,M,75,74.8,Russia,,,,,,135,140,145,145,,,,,,,145
1,Arsen Kaseev,Арсен Касєєв,M 55 - 59,1955-04-24,B,Raw,Yes,M,75,74.4,Ukraine,,,,,,127.5,-132.5,-132.5,127.5,,,,,,,127.5
1,Yuriy Dvizov,Юрий Двизов,M 65 - 69,1947-02-05,B,Raw,Yes,M,75,74,Russia,,,,,,112.5,117.5,120,120,,,,,,,120
1,Semen Titorenko,Семен Титоренко,T 13-15,1996-08-04,B,Raw,Yes,M,82.5,77.3,Russia,,,,,,80,90,-102.5,90,,,,,,,90
1,Bogdan Dronov,Богдан Дронов,T 18 - 19,1994-01-19,B,Raw,Yes,M,82.5,75.6,Russia,,,,,,127.5,135,145,145,,,,,,,145
2,Sergey Smagin,Сергей Смагин,T 18 - 19,1992-09-25,B,Raw,Yes,M,82.5,80,Russia,,,,,,135,145,-150,145,,,,,,,145
1,Valentin Gorobets,Валентин Горобец,J 20 - 23,1988-07-21,B,Raw,Yes,M,82.5,81.2,Russia,,,,,,162.5,170,-175,170,,,,,,,170
2,Aslanbek Pchikhaev,Асланбек Пчихаев,J 20 - 23,1991-08-20,B,Raw,Yes,M,82.5,75.9,Russia,,,,,,140,-147.5,-147.5,140,,,,,,,140
1,Mikhail Nagovitsyn,Михаил Наговицын,O,1980-11-25,B,Raw,Yes,M,82.5,82,Russia,,,,,,175,185,195,195,-206,,,,,,195
2,Aleksandr Pozdnyakov,Александр Поздняков,O,1979-07-04,B,Raw,Yes,M,82.5,82.3,Russia,,,,,,160,170,177.5,177.5,,,,,,,177.5
3,Valentin Gorobets,Валентин Горобец,O,1988-07-21,B,Raw,Yes,M,82.5,81.2,Russia,,,,,,162.5,170,-175,170,,,,,,,170
4,Aleksandr Drosin,Александр Дросин,O,1982-02-21,B,Raw,Yes,M,82.5,82.5,Russia,,,,,,167.5,-172.5,-172.5,167.5,,,,,,,167.5
5,Aleksandr Olisov,Александр Олисов,O,1982-06-19,B,Raw,Yes,M,82.5,80.7,Russia,,,,,,155,-162.5,-162.5,155,,,,,,,155
6,Anton Volodin,Антон Володин,O,1983-06-26,B,Raw,Yes,M,82.5,81.2,Russia,,,,,,145,150,-155,150,,,,,,,150
7,Ermek Sarsenbaev,Ермек Сарсенбаев,O,1977-11-13,B,Raw,Yes,M,82.5,82.2,Russia,,,,,,145,150,-155,150,,,,,,,150
1,Sergey Rudenko,Сергей Руденко,M 50 - 54,1959-01-01,B,Raw,Yes,M,82.5,79.6,Russia,,,,,,125,130,140,140,,,,,,,140
2,Vladimir Sidorenko,Владимир Сидоренко,M 50 - 54,1961-10-27,B,Raw,Yes,M,82.5,81.4,Russia,,,,,,100,110,115,115,,,,,,,115
1,Aleksandr Tkachuk,Александр Ткачук,M 70 - 74,1940-03-19,B,Raw,Yes,M,82.5,81.3,Russia,,,,,,85,90,100,100,-105,,,,,,100
1,Evgeniy Lemeshchenko,Евгений Лемещенко,T 16-17,1995-07-23,B,Raw,Yes,M,90,89.2,Russia,,,,,,135,-142.5,142.5,142.5,,,,,,,142.5
1,Vladislav Derevyanko,Владислав Деревянко,T 18 - 19,1992-11-23,B,Raw,Yes,M,90,85.8,Russia,,,,,,155,160,-165,160,,,,,,,160
2,Nikolay Pletenetskiy,Николай Плетенецкий,T 18 - 19,1992-05-22,B,Raw,Yes,M,90,86.9,Russia,,,,,,145,152.5,157.5,157.5,,,,,,,157.5
3,Maksim Kalinin,Максим Калинин,T 18 - 19,1993-06-01,B,Raw,Yes,M,90,89.4,Russia,,,,,,145,-150,152.5,152.5,,,,,,,152.5
4,Nazhmudin Atlaskirov,Нажмудин Атласкиров,T 18 - 19,1993-10-04,B,Raw,Yes,M,90,87,Russia,,,,,,132.5,145,-150,145,,,,,,,145
5,Aleksandr Boykov,Александр Бойков,T 18 - 19,1992-06-29,B,Raw,Yes,M,90,90,Russia,,,,,,130,137.5,-147.5,137.5,,,,,,,137.5
1,Khasan Yusupov,Хасан Юсупов,J 20 - 23,1989-11-14,B,Raw,Yes,M,90,86.9,Russia,,,,,,165,175,177.5,177.5,,,,,,,177.5
2,Artem Kiselev,Артем Киселев,J 20 - 23,1988-12-17,B,Raw,Yes,M,90,87.8,Russia,,,,,,170,-177.5,-177.5,170,,,,,,,170
3,Stanislav Rybalchenko,Станислав Рыбальченко,J 20 - 23,1988-06-07,B,Raw,Yes,M,90,88.6,Russia,,,,,,152.5,160,-165,160,,,,,,,160
4,Aleksandr Sukhanov,Александр Суханов,J 20 - 23,1989-11-13,B,Raw,Yes,M,90,88.3,Russia,,,,,,120,125,132.5,132.5,,,,,,,132.5
1,Roman Golubev,Роман Голубев,O,1984-01-12,B,Raw,Yes,M,90,89,Russia,,,,,,195,206,207.5,207.5,,,,,,,207.5
2,Yuriy Fyodorov,Юрий Фёдоров,O,1975-05-23,B,Raw,Yes,M,90,86.4,Russia,,,,,,-190,190,-195,190,,,,,,,190
3,Vladimir Konchakov,Владимир Кончаков,O,1973-05-25,B,Raw,Yes,M,90,89.3,Russia,,,,,,180,190,-195,190,,,,,,,190
4,Aleksandr Matveev,Александр Матвеев,O,1974-03-14,B,Raw,Yes,M,90,89.7,Russia,,,,,,-170,175,182.5,182.5,,,,,,,182.5
5,Andrey Grachev,Андрей Грачев,O,1984-06-27,B,Raw,Yes,M,90,88.1,Russia,,,,,,170,180,-185,180,,,,,,,180
6,Vyacheslav Kuzhelev,Вячеслав Кужелев,O,1977-05-21,B,Raw,Yes,M,90,88.8,Russia,,,,,,170,180,-190,180,,,,,,,180
7,Aleksey Novitskiy,Алексей Новицкий,O,1971-05-28,B,Raw,Yes,M,90,86.5,Russia,,,,,,167.5,,,167.5,,,,,,,167.5
8,Nikolay Krivorotin,Николай Криворотин,O,1980-12-19,B,Raw,Yes,M,90,89.3,Russia,,,,,,162.5,-170,-170,162.5,,,,,,,162.5
9,Sergey Vinnichenko,Сергей Винниченко,O,1974-12-04,B,Raw,Yes,M,90,87.2,Russia,,,,,,155,-165,-170,155,,,,,,,155
10,Petr Dvurechenskiy,Петр Двуреченский,O,1986-04-28,B,Raw,Yes,M,90,88.7,Russia,,,,,,150,-155,-155,150,,,,,,,150
11,Anton Moiseenko,Антон Моисеенко,O,1988-02-11,B,Raw,Yes,M,90,89.1,Russia,,,,,,132.5,140,150,150,,,,,,,150
DQ,Eduard Levada,Эдуард Левада,O,1976-05-08,B,Raw,Yes,M,90,86,Russia,,,,,,-152.5,,,,,,,,,,
1,Viktor Volkov,Виктор Волков,M 40 - 44,1968-05-10,B,Raw,Yes,M,90,84.3,Russia,,,,,,130,-137.5,-137.5,130,,,,,,,130
DQ,Aleksey Novitskiy,Алексей Новицкий,M 40 - 44,1971-05-28,B,Raw,Yes,M,90,86.5,Russia,,,,,,-167.5,-167.5,-167.5,,,,,,,,
1,Igor Moroz,Игорь Мороз,M 45 - 49,1965-09-17,B,Raw,Yes,M,90,86.8,Russia,,,,,,150,160,165,165,,,,,,,165
1,Nikolay Golik,Николай Голик,M 60 - 64,1951-12-01,B,Raw,Yes,M,90,87.8,Russia,,,,,,75,85,-87.5,85,,,,,,,85
1,Rustam Mashukov,Рустам Машуков,T 13-15,1996-05-11,B,Raw,Yes,M,100,97,Russia,,,,,,-120,122.5,-127.5,122.5,,,,,,,122.5
1,Oleg Ropai,Олег Ропаи,T 18 - 19,1992-06-25,B,Raw,Yes,M,100,97.6,Russia,,,,,,-155,155,-157.5,155,,,,,,,155
1,Dmitriy Nikolaevskiy,Дмитрий Николаевский,J 20 - 23,1989-10-06,B,Raw,Yes,M,100,97.7,Russia,,,,,,175,182.5,185,185,,,,,,,185
2,Dmitriy Litvinenko,Дмитрий Литвиненко,J 20 - 23,1989-07-05,B,Raw,Yes,M,100,94.3,Ukraine,,,,,,170,-180,-192.5,170,,,,,,,170
1,Oleg Filimonov,Олег Филимонов,O,1987-03-12,B,Raw,Yes,M,100,96.2,Russia,,,,,,210,-215,215,215,,,,,,,215
2,Andrey Skvortsov,Андрей Скворцов,O,1977-11-25,B,Raw,Yes,M,100,98.7,Russia,,,,,,200,207.5,-212.5,207.5,,,,,,,207.5
3,Pavel Milovanov,Павел Милованов,O,1977-10-05,B,Raw,Yes,M,100,99.9,Russia,,,,,,-192.5,192.5,-195,192.5,,,,,,,192.5
4,Evgeniy Skorokhod,Евгений Скороход,O,1980-02-18,B,Raw,Yes,M,100,98.4,Russia,,,,,,-162.5,165,172.5,172.5,,,,,,,172.5
5,Denis Denisov,Денис Денисов,O,1985-10-23,B,Raw,Yes,M,100,95,Russia,,,,,,155,165,170,170,,,,,,,170
6,Vitaliy Gorshkov,Виталий Горшков,O,1977-12-05,B,Raw,Yes,M,100,97.7,Russia,,,,,,162.5,165,-170,165,,,,,,,165
7,Denis Demb,Денис Демб,O,1979-07-02,B,Raw,Yes,M,100,99.2,Russia,,,,,,145,-162.5,,145,,,,,,,145
DQ,Sergey Pavlenko,Сергей Павленко,O,1982-11-07,B,Raw,Yes,M,100,97.2,Russia,,,,,,-162.5,-162.5,-162.5,,,,,,,,
1,Temur Yuldashev,Темур Юлдашев,M 40 - 44,1969-03-11,B,Raw,Yes,M,100,96.6,Ukraine,,,,,,170,175,180,180,,,,,,,180
2,Sergey Sokolov,Сергей Соколов,M 40 - 44,1969-11-06,B,Raw,Yes,M,100,97.8,Russia,,,,,,160,170,177.5,177.5,,,,,,,177.5
2,Dmitriy Sapozhnikov,Дмитрий Сапожников,M 40 - 44,1967-06-01,B,Raw,Yes,M,100,100,Russia,,,,,,-142.5,-152.5,152.5,152.5,,,,,,,152.5
4,Dmitriy Polevin,Дмитрий Полевин,M 40 - 44,1971-03-13,B,Raw,Yes,M,100,98.9,Russia,,,,,,-145,145,-152.5,145,,,,,,,145
1,Vadim Mikheev,Вадим Михеев,M 45 - 49,1966-04-21,B,Raw,Yes,M,100,97.3,Russia,,,,,,115,125,130,130,,,,,,,130
1,Eduard Kesaev,Эдуард Кесаев,M 50 - 54,1958-10-16,B,Raw,Yes,M,100,99.9,Russia,,,,,,150,-160,160,160,,,,,,,160
2,Vyacheslav Frank,Вячеслав Франк,M 50 - 54,1962-03-03,B,Raw,Yes,M,100,98.7,Russia,,,,,,135,140,-142.5,140,,,,,,,140
1,Vladimir Korshunov,Володимир Коршунов,M 65 - 69,1942-11-15,B,Raw,Yes,M,100,93.6,Russia,,,,,,125,135,-140,135,,,,,,,135
1,Artem Grigoryan,Артем Григорян,J 20 - 23,1988-05-12,B,Raw,Yes,M,110,106.2,Russia,,,,,,150,160,-167.5,160,,,,,,,160
1,Dmitriy Tenetko,Дмитрий Тенетко,O,1975-08-11,B,Raw,Yes,M,110,109.3,Azerbaijan,,,,,,205,210,-215,210,,,,,,,210
2,Igor Evdokimov,Игорь Евдокимов,O,1971-04-22,B,Raw,Yes,M,110,108.8,Russia,,,,,,185,-195,,185,,,,,,,185
3,Vladimir Sych,Владимир Сыч,O,1981-03-18,B,Raw,Yes,M,110,104,Russia,,,,,,-145,145,-150,145,,,,,,,145
1,Dmitriy Silchenkov,Дмитрий Сильченков,M 40 - 44,1970-06-17,B,Raw,Yes,M,110,108.4,Russia,,,,,,180,190,-195,190,,,,,,,190
2,Igor Evdokimov,Игорь Евдокимов,M 40 - 44,1971-04-22,B,Raw,Yes,M,110,108.8,Russia,,,,,,185,,,185,,,,,,,185
1,Aleksandr Afanasev,Александр Афанасьев,M 45 - 49,1966-11-02,B,Raw,Yes,M,110,108.1,Russia,,,,,,-150,150,-167.5,150,,,,,,,150
1,Viktor Mandrygin,Виктор Мандрыгин,M 50 - 54,1959-08-11,B,Raw,Yes,M,110,109,Russia,,,,,,170,177.5,182.5,182.5,-185,,,,,,182.5
1,Karen Avetisyan,Карэн Аветисян,J 20 - 23,1989-01-24,B,Raw,Yes,M,125,115.5,Russia,,,,,,175,-180,,175,,,,,,,175
1,Andrey Zavgorodniy,Андрей Завгородний,O,1981-04-04,B,Raw,Yes,M,125,122,Russia,,,,,,240,250,-255,250,,,,,,,250
2,Yuriy Gordyakov,Юрий Гордяков,O,1976-04-27,B,Raw,Yes,M,125,118.4,Russia,,,,,,210,217.5,-222.5,217.5,,,,,,,217.5
3,Aleksandr Okhrimenko,Александр Охрименко,O,1987-02-08,B,Raw,Yes,M,125,115,Russia,,,,,,190,202.5,,202.5,,,,,,,202.5
4,Ramil Safarov,Рамил Сафаров,O,1968-04-08,B,Raw,Yes,M,125,121.8,Russia,,,,,,192.5,-200,-200,192.5,,,,,,,192.5
5,Sergey Penzyakov,Сергей Пензяков,O,1974-09-23,B,Raw,Yes,M,125,114.2,Russia,,,,,,180,190,-195,190,,,,,,,190
6,Aleksandr Seregin,Александр Серегин,O,1980-09-16,B,Raw,Yes,M,125,118,Russia,,,,,,185,-195,-195,185,,,,,,,185
1,Aleksandr Stryga,Александр Стрыга,M 40 - 44,1967-10-15,B,Raw,Yes,M,125,117.5,Ukraine,,,,,,205,215,-225,215,,,,,,,215
2,Ramil Safarov,Рамил Сафаров,M 40 - 44,1968-04-08,B,Raw,Yes,M,125,121.8,Russia,,,,,,192.5,-200,-200,192.5,,,,,,,192.5
3,Sergey Lylov,Сергей Лылов,M 40 - 44,1968-12-27,B,Raw,Yes,M,125,125,Russia,,,,,,170,-185,,170,,,,,,,170
1,Andrey Radin,Андрей Радин,M 45 - 49,1965-04-09,B,Raw,Yes,M,125,112.1,Russia,,,,,,-140,140,-155,140,,,,,,,140
1,Grachik Egozaryan,Грачик Егозарьян,M 55 - 59,1952-08-10,B,Raw,Yes,M,125,113.7,Russia,,,,,,170,180,-185,180,,,,,,,180
2,Sergey Kirillov,Сергей Кириллов,M 55 - 59,1954-11-08,B,Raw,Yes,M,125,115.5,Russia,,,,,,145,150,157.5,157.5,,,,,,,157.5
1,Evgeniy Sibilev,Евгений Сибилев,O,1970-03-08,B,Raw,Yes,M,140,127.3,Russia,,,,,,185,195,200,200,,,,,,,200
1,Evgeniy Sibilev,Евгений Сибилев,M 40 - 44,1970-03-08,B,Raw,Yes,M,140,127.3,Russia,,,,,,185,195,200,200,,,,,,,200
1,Igor Khutorov,Игорь Хуторов,M 45 - 49,1963-11-05,B,Raw,Yes,M,140,129.8,Russia,,,,,,200,-205,-207.5,200,,,,,,,200
1,Oleg Kozyrev,Олег Козырев,O,1975-03-01,B,Raw,Yes,M,140+,141,Russia,,,,,,180,195,210,210,222.5,,,,,,210
2,Roman Marachev,Роман Марачев,O,1978-05-16,B,Raw,Yes,M,140+,144.1,Russia,,,,,,200,205,210,210,-220.5,,,,,,210
3,Igor Nasteka,Игорь Настека,O,1964-08-09,B,Raw,Yes,M,140+,141.5,Russia,,,,,,190,-195,-195,190,,,,,,,190
1,Igor Nasteka,Игорь Настека,M 45 - 49,1964-08-09,B,Raw,Yes,M,140+,141.5,Russia,,,,,,190,-195,-195,190,,,,,,,190
1,Mariya Pustovit,Мария Пустовит,O,1985-07-30,D,Raw,Yes,F,56,56,Russia,,,,,,,,,,,-122.5,122.5,-130,122.5,,122.5
DQ,Anastasiya Noskova,Анастасия Носкова,O,1984-02-14,D,Raw,Yes,F,56,54.1,Russia,,,,,,,,,,,-110,-110,-110,,,
1,Liliya Myazhitova,Лилия Мяжитова,O,1993-04-29,D,Raw,Yes,F,60,58,Russia,,,,,,,,,,,120,127.5,,127.5,,127.5
1,Olga Kazankova,Ольга Казанкова,O,1979-06-26,D,Raw,Yes,F,75,74.4,Russia,,,,,,,,,,,120,135,145,145,,145
1,Aleksey Lukyanov,Алексей Лукьянов,O,1992-05-14,D,Raw,Yes,M,60,59.7,Russia,,,,,,,,,,,180,190,-200,190,,190
2,Igor Lyubaev,Игорь Любаев,O,1979-04-30,D,Raw,Yes,M,60,58.8,Russia,,,,,,,,,,,180,-190,-200,180,,180
3,Albert Kurmanov,Альберт Курманов,O,1992-06-14,D,Raw,Yes,M,60,59,Russia,,,,,,,,,,,145,160,172.5,172.5,,172.5
1,Sergey Alampiev,Сергей Алампиев,O,1957-04-07,D,Raw,Yes,M,67.5,66.2,Russia,,,,,,,,,,,190,200,210,210,,210
2,Vladislav Kashirin,Владислав Каширин,O,1989-09-09,D,Raw,Yes,M,67.5,67,Russia,,,,,,,,,,,170,190,-195,190,,190
1,Timur Baybekov,Тимур Байбеков,O,1984-02-23,D,Raw,Yes,M,75,71.8,Russia,,,,,,,,,,,190,200,205,205,,205
1,Aleksandr Shuvalov,Александр Шувалов,O,1990-07-10,D,Raw,Yes,M,82.5,82.4,Russia,,,,,,,,,,,200,215,225,225,,225
2,Vitaliy Naydenov,Виталий Найденов,O,1969-09-21,D,Raw,Yes,M,82.5,81.8,Russia,,,,,,,,,,,185,205,215,215,,215
1,Aleksandr Nemchinov,Александр Немчинов,O,1951-11-10,D,Raw,Yes,M,90,89.1,Russia,,,,,,,,,,,-230,235,-255,235,,235
2,Roman Ermilov,Роман Ермилов,O,1989-10-19,D,Raw,Yes,M,90,82.6,Russia,,,,,,,,,,,215,230,-240,230,,230
3,Igor Tolstyakov,Игорь Толстяков,O,1990-07-26,D,Raw,Yes,M,90,90,Russia,,,,,,,,,,,230,-240,-240,230,,230
4,Zamudin Balkizov,Замудин Балкизов,O,1986-03-25,D,Raw,Yes,M,90,85.8,Russia,,,,,,,,,,,225,-255,-255,225,,225
5,Aleksey Zharikov,Алексей Жариков,O,1971-02-19,D,Raw,Yes,M,90,87,Russia,,,,,,,,,,,180,200,210,210,,210
1,Aleksandr Denisov,Александр Денисов,O,1983-09-15,D,Raw,Yes,M,100,96.9,Russia,,,,,,,,,,,-220,220,232.5,232.5,,232.5
2,Vyacheslav Frank,Вячеслав Франк,O,1962-03-03,D,Raw,Yes,M,100,99.6,Russia,,,,,,,,,,,205,220,232.5,232.5,,232.5
3,Mikhail Bobkov,Михаил Бобков,O,1947-11-21,D,Raw,Yes,M,100,93.6,Russia,,,,,,,,,,,210,222.5,-232.5,222.5,,222.5
1,Andrey Fedoseev,Андрей Федосеев,O,1974-03-03,D,Raw,Yes,M,110,109.9,Russia,,,,,,,,,,,275,287.5,-300,287.5,,287.5
2,Sergey Mazanov,Сергей Мазанов,O,1975-06-18,D,Raw,Yes,M,110,108.4,Russia,,,,,,,,,,,280,-295,-297.5,280,,280
3,Artem Grigoryan,Артем Григорян,O,1988-05-12,D,Raw,Yes,M,110,106.2,Russia,,,,,,,,,,,230,240,-250,240,,240
1,Anton Redkin,Антон Редькин,O,1986-08-15,D,Raw,Yes,M,125,121.5,Russia,,,,,,,,,,,250,265,-285,265,,265
1,Vizhe Mirmirani,Виже Мирмирани,M 45 - 49,1965-04-14,SBD,Multi-ply,No,F,60,59.4,Russia,130,145,155,155,,75,85,90,90,,-135,135,-145,135,,380
1,Mariya Kalanina,Мария Каланина,O,1982-03-29,SBD,Multi-ply,No,F,75,74,Russia,180,-190,190,190,,90,-100,100,100,,180,190,-195,190,,480
1,Tatyana Merezhko,Татьяна Мережко,O,1978-07-05,SBD,Multi-ply,No,F,82.5,82.5,Russia,-265,265,-272.5,265,,122.5,-127.5,-127.5,122.5,,200,210,-215,210,,597.5
1,Maksim Kuznetsov,Максим Кузнецов,T 18 - 19,1993-12-04,SBD,Multi-ply,No,M,60,59.65,Russia,170,,,170,,80,,,80,,180,192.5,-202.5,192.5,,442.5
1,Asif Believ,Асиф Белиев,O,1986-01-25,SBD,Multi-ply,No,M,60,59.4,Azerbaijan,192.5,-205,-205,192.5,,107.5,115,117.5,117.5,,182.5,200,-215,200,,510
1,Rihards Tomass,,T 13-15,2000-08-26,SBD,Multi-ply,No,M,67.5,67.45,Latvia,110,120,125,125,,50,-60,60,60,,110,120,,120,,305
1,Roman Kiselyov,Роман Киселёв,T 16-17,1995-11-20,SBD,Multi-ply,No,M,75,74.95,Russia,180,205,225,225,,110,120,-125,120,,180,200,212.5,212.5,,557.5
1,Aleksandr Garbuzov,Александр Гарбузов,T 18 - 19,1992-12-18,SBD,Multi-ply,No,M,75,70.5,Russia,150,160,-170,160,,105,-110,,105,,180,190,-200,190,,455
1,Maksim Shvarts,Максим Шварц,J 20 - 23,1989-11-29,SBD,Multi-ply,No,M,75,75,Russia,300,310,-320,310,,170,-180,-180,170,,-270,270,-287.5,270,,750
1,Aleksey Lazarev,Алексей Лазарев,O,1985-04-06,SBD,Multi-ply,No,M,75,74.35,Russia,270,290,300,300,,160,180,185,185,,260,275,280,280,,765
2,Maksim Shvarts,Максим Шварц,O,1989-11-29,SBD,Multi-ply,No,M,75,75,Russia,300,310,-320,310,,170,-180,-180,170,,-270,270,-287.5,270,,750
3,Zaur Gusenov,Заур Гусенов,O,1986-11-25,SBD,Multi-ply,No,M,75,73.85,Russia,-275,275,-290,275,,170,180,-187.5,180,,230,242.5,-245,242.5,,697.5
1,Aleksandr Ponedelin,Александр Понеделин,M 60 - 64,1950-06-06,SBD,Multi-ply,No,M,75,74.3,Russia,220,240,-255,240,,-80,80,90,90,,215,230,-245,230,,560
1,Dmitriy Yakovlev,Дмитрий Яковлев,J 20 - 23,1992-02-10,SBD,Multi-ply,No,M,82.5,82.4,Russia,315,330,342.5,342.5,,185,195,200,200,,255,265,-272.5,265,,807.5
1,Vladimir Zhabin,Владимир Жабин,O,1980-06-27,SBD,Multi-ply,No,M,82.5,82.45,Russia,-315,315,-325,315,,195,-205,-210,195,,280,295,300,300,,810
2,Dmitriy Yakovlev,Дмитрий Яковлев,O,1992-02-10,SBD,Multi-ply,No,M,82.5,82.4,Russia,315,330,342.5,342.5,,185,195,200,200,,255,265,-272.5,265,,807.5
DQ,Sergey Sokolovskiy,Сергей Соколовский,O,1976-08-03,SBD,Multi-ply,No,M,82.5,82.5,Ukraine,270,-285,285,285,,-145,-145,-145,,,-290,,,-290,,
1,Sergey Emelyanov,Сергей Емельянов,M 40 - 44,1971-05-11,SBD,Multi-ply,No,M,82.5,75.95,Russia,220,-230,230,230,,-150,-150,150,150,,200,220,,220,,600
1,Aleksandr Denisov,Александр Денисов,T 18 - 19,1992-05-17,SBD,Multi-ply,No,M,90,88.9,Ukraine,280,300,315,315,,-180,180,200,200,,275,290,305,305,,820
1,Evgeniy Solovev,Евгений Соловьев,J 20 - 23,1988-09-20,SBD,Multi-ply,No,M,90,87.15,Russia,275,285,300,300,,165,-185,185,185,,240,255,-262.5,255,,740
1,Maxim Piskunov,Максим Пискунов,O,1982-07-24,SBD,Multi-ply,No,M,90,90,Russia,360,-385,-385,360,,-225,225,235,235,,280,295,-310,295,,890
2,Ilya Lebedev,Илья Лебедев,O,1972-02-11,SBD,Multi-ply,No,M,90,88.9,Russia,295,-320,-320,295,,200,220,-230,220,,257.5,280,300,300,,815
3,Evgeniy Khripunov,Евгений Хрипунов,O,1981-07-13,SBD,Multi-ply,No,M,90,89.65,Russia,320,-340,-340,320,,205,-240,-252.5,205,,255,265,-272.5,265,,790
1,Ilya Lebedev,Илья Лебедев,M 40 - 44,1972-02-11,SBD,Multi-ply,No,M,90,88.9,Russia,295,-320,-320,295,,200,220,-230,220,,257.5,280,300,300,,815
1,Kaplan Tlevtsezhev,Каплан Тлевцежев,M 55 - 59,1956-02-13,SBD,Multi-ply,No,M,90,84.85,Russia,200,210,,210,,105,,,105,,200,210,,210,,525
1,Aleksey Pleshakov,Алексей Плешаков,T 16-17,1994-07-23,SBD,Multi-ply,No,M,100,98.2,Russia,-310,310,325,325,,207.5,222.5,-227.5,222.5,,252.5,272.5,-285,272.5,,820
1,Aleksandr Chalyy,Александр Чалый,T 18 - 19,1992-10-07,SBD,Multi-ply,No,M,100,96.2,Ukraine,260,280,-300,280,,190,-200,-200,190,,250,270,290,290,,760
1,Hafiz Verdiyev,,J 20 - 23,1990-03-04,SBD,Multi-ply,No,M,100,98.1,Azerbaijan,340,-355,-360,340,,225,237.5,250,250,,310,330,-340,330,,920
DQ,Aleksandr Panaskin,Александр Панаскин,J 20 - 23,1991-06-27,SBD,Multi-ply,No,M,100,98.2,Russia,-320,-330,-330,,,,,,,,,,,,,
1,Hafiz Verdiyev,,O,1990-03-04,SBD,Multi-ply,No,M,100,98.1,Azerbaijan,340,-355,-360,340,,225,237.5,250,250,,310,330,-340,330,,920
2,Pavel Isakov,Павел Исаков,O,1980-11-04,SBD,Multi-ply,No,M,100,99.8,Russia,350,370,-380,370,,250,-260,260,260,,270,-300,-300,270,,900
3,Pavel Mitrofanov,Павел Митрофанов,O,1983-08-12,SBD,Multi-ply,No,M,100,98.7,Russia,-330,330,-350,330,,210,230,-240,230,,260,-285,285,285,,845
4,Aleksey Reshetov,Алексей Решетов,O,1975-07-07,SBD,Multi-ply,No,M,100,97.5,Russia,-305,305,312.5,312.5,,180,192.5,200,200,,230,250,,250,,762.5
DQ,Dmitriy Borisenko,Дмитрий Борисенко,O,1982-11-15,SBD,Multi-ply,No,M,100,97.4,Russia,-330,-330,-330,,,-200,,,,,-290,,,,,
DQ,Aleksandr Panaskin,Александр Панаскин,O,1991-06-27,SBD,Multi-ply,No,M,100,98.2,Russia,-320,-330,-330,,,-230,,,,,-260,,,,,
DQ,Eduard Maksimov,Эдуард Максимов,O,1971-11-20,SBD,Multi-ply,No,M,100,100,Russia,-310,-320,-320,,,-250,,,,,-280,,,,,
DQ,Eduard Maksimov,Эдуард Максимов,M 40 - 44,1971-11-20,SBD,Multi-ply,No,M,100,98.3,Russia,-310,-320,-320,,,-250,,,,,-280,,,,,
1,Aleksandr Krovikov,Александр Кровиков,M 50 - 54,1961-09-26,SBD,Multi-ply,No,M,100,97.3,Russia,200,225,-235,225,,150,160,170,170,,200,250,270,270,,665
DQ,Sergey Lyakhevich,Сергей Ляхевич,T 18 - 19,1993-10-02,SBD,Multi-ply,No,M,110,105.6,Ukraine,-300,300,320,320,,185,195,-200,195,,-300,-300,-300,,,
DQ,Ivan Morgun,Иван Моргун,J 20 - 23,1990-10-18,SBD,Multi-ply,No,M,110,105.3,Russia,-330,-350,-350,,,,,,,,,,,,,
1,Ivars Cīrulis,,O,1979-11-26,SBD,Multi-ply,No,M,110,109.5,Latvia,-370,-390,390,390,,-260,275,-300,275,,320,350,-365,350,,1015
2,Stoyan Andreev,,O,1978-09-09,SBD,Multi-ply,No,M,110,110,Bulgaria,365,385,400,400,,230,240,250,250,,350,-365,-367.5,350,,1000
3,Denis Rodyakin,Денис Родякин,O,1988-03-30,SBD,Multi-ply,No,M,110,107.7,Russia,-400,400,415,415,,242.5,-250,,242.5,,320,-335,-357.5,320,,977.5
4,Dmitriy Logunov,Дмитрий Логунов,O,1987-04-26,SBD,Multi-ply,No,M,110,109.9,Russia,350,375,385,385,,235,250,-257.5,250,,-300,-300,300,300,,935
5,Yuriy Dmitrienko,Юрий Дмитриенко,O,1983-07-25,SBD,Multi-ply,No,M,110,106.9,Russia,280,-300,300,300,,180,195,205,205,,250,-270,-270,250,,755
DQ,Mikhail Mikao,Михаил Микао,O,1985-07-29,SBD,Multi-ply,No,M,110,103.6,Russia,-290,-290,-300,,,-170,,,,,-255,,,,,
DQ,Vüsal Mardanov,Вусал Марданов,O,1985-02-18,SBD,Multi-ply,No,M,110,108.8,Azerbaijan,330,-350,,330,,-310,310,325,325,,-370,-370,-370,,,
1,Michal Berezňák,,M 45 - 49,1963-12-11,SBD,Multi-ply,No,M,110,104.3,Slovakia,260,280,300,300,,120,-140,,120,,250,270,-285,270,,690
1,Oleg Tokarev,Олег Токарев,M 55 - 59,1954-02-28,SBD,Multi-ply,No,M,110,101,Russia,245,260,-280,260,,-200,200,210,210,,230,250,-270,250,,720
1,Vasiliy Voropaev,Василий Воропаев,M 55 - 59,1956-06-10,SBD,Multi-ply,No,M,110,101.9,Russia,215,230,250,250,,110,-120,,110,,210,230,250,250,,610
1,Artem Grechanov,Артем Гречанов,J 20 - 23,1991-12-20,SBD,Multi-ply,No,M,125,110.5,Russia,-280,280,300,300,,170,-190,190,190,,250,270,-300,270,,760
1,Rufat Agayev,,O,1975-08-16,SBD,Multi-ply,No,M,125,124.9,Azerbaijan,-450,450,470,470,,280,295,-302.5,295,,360,-385,-385,360,,1125
2,Sergey Blokh,Сергей Блох,O,1973-04-19,SBD,Multi-ply,No,M,125,117.8,Russia,340,360,370,370,,280,-290,-290,280,,320,-340,-350,320,,970
1,Vladimir Polivanov,Владимир Поливанов,M 45 - 49,1963-01-20,SBD,Multi-ply,No,M,125,122.5,Russia,280,-300,-300,280,,170,,,170,,280,300,,300,,750
1,Sergey Novikov,Сергей Новиков,O,1974-01-28,SBD,Multi-ply,No,M,140,126.3,Russia,300,320,,320,,240,-260,-270,240,,250,-265,265,265,,825
1,Alexander Klyushev,Александр Клюшев,O,1983-12-23,SBD,Multi-ply,No,M,140+,145.5,Russia,400,,,400,,270,-275,275,275,,360,380,-402.5,380,,1055
DQ,Igor Nastynov,Игорь Настынов,M 50 - 54,1961-03-14,SBD,Multi-ply,No,M,140+,147.4,Russia,320,-360,,320,,170,185,,185,,-275,-275,-275,,,
1,Gyunel Talybova,Гюнель Талыбова,O,1982-04-06,SBD,Wraps,No,F,52,51.85,Azerbaijan,110,120,125,125,-130,80,-85,85,85,,155,165,170,170,175,380
1,Olga Ilicheva,Ольга Ильичева,O,1979-03-03,SBD,Wraps,No,F,75,68.4,Russia,75,85,-92.5,85,,45,50,-55,50,,100,110,115,115,,250
1,Tatyana Merezhko,Татьяна Мережко,O,1978-07-05,SBD,Wraps,No,F,82.5,82.2,Russia,190,-202.5,202.5,202.5,,92.5,95,-100,95,,200,207.5,212.5,212.5,,510
1,Dmitriy Maslov,Дмитрий Маслов,O,1981-06-19,SBD,Wraps,No,M,60,58.8,Russia,120,-125,-125,120,,90,-95,95,95,,150,-160,160,160,,375
1,Igor Kuznetsov,Игорь Кузнецов,J 20 - 23,1989-08-17,SBD,Wraps,No,M,67.5,67.1,Russia,190,200,207.5,207.5,,135,145,-150,145,,215,225,-235,225,,577.5
1,Igor Kuznetsov,Игорь Кузнецов,O,1989-08-17,SBD,Wraps,No,M,67.5,67.1,Russia,190,200,207.5,207.5,,135,145,-150,145,,215,225,-235,225,,577.5
2,Radik Akhatov,Радик Ахатов,O,1984-01-30,SBD,Wraps,No,M,67.5,67.1,Russia,180,185,,185,,130,135,-140,135,,210,225,-232.5,225,,545
3,Ivan Afanasev,Иван Афанасьев,O,1987-01-13,SBD,Wraps,No,M,67.5,65.75,Russia,157.5,167.5,175,175,,120,127.5,135,135,,200,215,-225,215,,525
1,Igor Kondrashov,Игорь Кондрашов,O,1987-03-07,SBD,Wraps,No,M,75,75,Russia,-225,-225,225,225,,135,140,-145,140,,260,270,282.5,282.5,,647.5
2,Vladislav Lukanin,Владислав Луканин,O,1984-10-28,SBD,Wraps,No,M,75,74.95,Russia,240,255,265,265,,120,-125,-127.5,120,,240,252.5,260,260,,645
1,Aleksandr Ponedelin,Александр Понеделин,M 60 - 64,1950-06-06,SBD,Wraps,No,M,75,74.3,Russia,180,192.5,205,205,,80,87.5,-92.5,87.5,,190,207.5,220,220,,512.5
1,Gennadiy Chuldenko,Геннадий Чульденко,M 60 - 64,1948-07-04,SBD,Wraps,No,M,75,74.7,Russia,160,165,170,170,,40,-50,50,50,,190,205,-215,205,,425
1,Ruslan Ryzhikh,Руслан Рыжих,T 16-17,1995-06-04,SBD,Wraps,No,M,82.5,82.25,Ukraine,210,-230,-230,210,,130,146,-150,146,,210,230,-246,230,,586
1,Artem Krylov,Артем Крылов,J 20 - 23,1990-09-03,SBD,Wraps,No,M,82.5,81,Russia,180,205,220,220,,135,-142.5,142.5,142.5,,-210,215,252.5,252.5,,615
2,Sergey Spesivtsev,Сергей Спесивцев,J 20 - 23,1990-06-22,SBD,Wraps,No,M,82.5,81.85,Russia,-170,175,185,185,,115,120,-125,120,,210,240,-255,240,,545
1,Andrey Ivzhenko,Андрей Ивженко,O,1977-03-28,SBD,Wraps,No,M,82.5,82.5,Ukraine,70,,,70,,-155,-155,155,155,,100,,,100,,325
1,Gennadiy Bogdanov,Геннадий Богданов,M 40 - 44,1968-01-12,SBD,Wraps,No,M,82.5,82.2,Russia,205,215,,215,,150,160,172.5,172.5,,170,200,230,230,,617.5
2,Andrey Shelepov,Андрей Шелепов,M 40 - 44,1970-05-04,SBD,Wraps,No,M,82.5,82.4,Russia,175,185,-190,185,,140,145,147.5,147.5,,210,-225,-225,210,,542.5
1,Vladimir Tarbonov,Владимир Тарбонов,M 55 - 59,1954-11-01,SBD,Wraps,No,M,82.5,80.45,Russia,155,170,-180,170,,95,102.5,-105,102.5,,190,200,-210,200,,472.5
1,Vladimir Babin,Владимир Бабин,T 18 - 19,1992-08-09,SBD,Wraps,No,M,90,82.95,Russia,195,212.5,-225,212.5,,120,125,-130,125,,-245,245,265,265,,602.5
2,Aleksey Gusakov,Алексей Гусаков,T 18 - 19,1992-12-11,SBD,Wraps,No,M,90,87.45,Russia,170,185,192.5,192.5,,120,130,132.5,132.5,,220,230,-240,230,,555
3,Aleksey Brovkin,Алексей Бровкин,T 18 - 19,1993-12-08,SBD,Wraps,No,M,90,88.7,Russia,170,175,180,180,,-115,115,120,120,,200,-210,210,210,,510
1,Aleksey Sova,Алексей Сова,J 20 - 23,1991-09-22,SBD,Wraps,No,M,90,89.6,Russia,170,180,190,190,,120,125,-130,125,,-200,200,215,215,,530
1,Aleksey Bazhenov,Алексей Баженов,O,1977-11-01,SBD,Wraps,No,M,90,88.3,Russia,230,240,-245,240,,175,-185,-185,175,,250,260,270,270,,685
2,Evgeniy Blinkov,Евгений Блинков,O,1987-09-03,SBD,Wraps,No,M,90,87.65,Russia,230,240,,240,,180,-187.5,,180,,262.5,-277.5,-277.5,262.5,,682.5
3,Vladimir Reshetov,Владимир Решетов,O,1975-07-07,SBD,Wraps,No,M,90,88.65,Russia,220,230,240,240,,155,165,170,170,,230,237.5,245,245,,655
4,Vladimir Khristov,Владимир Христов,O,1983-07-20,SBD,Wraps,No,M,90,88.05,Bulgaria,200,-212.5,,200,,120,130,-140,130,,75,,,75,,405
DQ,Andrey Nesterenko,Андрей Нестеренко,O,1980-08-21,SBD,Wraps,No,M,90,85.55,Russia,-195,195,202.5,202.5,,-145,-145,-145,,,-235,,,-235,,
1,Dmitriy Postnov,Дмитрий Постнов,M 40 - 44,1971-07-17,SBD,Wraps,No,M,90,88.75,Russia,185,195,205,205,,135,-145,-145,135,,200,210,220,220,,560
1,Aleksandr Tsvetkov,Александр Цветков,M 55 - 59,1957-04-10,SBD,Wraps,No,M,90,88.6,Russia,192.5,-200,205,205,212.5,110,115,120,120,,200,230,245,245,,570
1,Valeriy Nugumanov,Валерий Нугуманов,M 70 - 74,1939-06-25,SBD,Wraps,No,M,90,89.6,Russia,-185,195,205,205,,112.5,115,,115,,185,195,200,200,,520
1,Sergey Lir,Сергей Лир,J 20 - 23,1991-08-25,SBD,Wraps,No,M,100,99.2,Russia,230,240,-250,240,,180,190,200,200,,250,270,280,280,,720
2,Aleksandr Elizarov,Александр Елизаров,J 20 - 23,1991-08-13,SBD,Wraps,No,M,100,99.4,Russia,225,-230,,225,,130,-140,,130,,225,-235,,225,,580
1,Akim Vakhtin,Аким Вахтин,O,1983-10-06,SBD,Wraps,No,M,100,98.55,Russia,270,280,-290,280,,170,-180,-180,170,,300,-310,-315,300,,750
2,Aslambek Abaev,Асламбек Абаев,O,1959-06-28,SBD,Wraps,No,M,100,95,Russia,255,270,277.5,277.5,,200,205,207.5,207.5,,255,-275,,255,,740
3,Aleksandr Merkurev,Александр Меркурьев,O,1985-12-01,SBD,Wraps,No,M,100,99.8,Russia,-220,220,235,235,,160,170,175,175,,260,267.5,-272.5,267.5,,677.5
1,Aslambek Abaev,Асламбек Абаев,M 50 - 54,1959-06-28,SBD,Wraps,No,M,100,95,Russia,255,270,277.5,277.5,,200,205,207.5,207.5,,255,-275,,255,,740
1,Vladimir Dubrov,Владимир Дубров,M 65 - 69,1947-04-17,SBD,Wraps,No,M,100,97.95,Russia,-160,-160,160,160,,100,-110,-110,100,,180,190,200,200,,460
1,Oleg Rendorenko,Олег Рендоренко,J 20 - 23,1991-07-09,SBD,Wraps,No,M,110,110,Russia,260,270,280,280,,160,-170,170,170,,290,300,310,310,,760
2,Aleksandr Danshin,Александр Даньшин,J 20 - 23,1991-09-11,SBD,Wraps,No,M,110,109.4,Russia,210,230,240,240,,155,165,-175,165,,230,250,-265,250,,655
1,Stanislav Shvetsov,Станислав Швецов,O,1988-02-08,SBD,Wraps,No,M,110,110,Russia,310,-325,-330,310,,230,242.5,250,250,,320,335,350,350,,910
2,Sergey Starodubskiy,Сергей Стародубский,O,1977-12-20,SBD,Wraps,No,M,110,109.95,Russia,280,312.5,-320,312.5,,220,-227.5,,220,,280,-321,-321,280,,812.5
3,Yuriy Dementev,Юрий Дементьев,O,1983-05-26,SBD,Wraps,No,M,110,105.4,Russia,230,240,250,250,,180,-190,-190,180,,280,-285,285,285,,715
4,Andrey Tormozov,Андрей Тормозов,O,1983-03-18,SBD,Wraps,No,M,110,103.9,Russia,240,250,-260,250,,155,160,-165,160,,280,290,-300,290,,700
1,Stanislav Vlasov,Станислав Власов,M 40 - 44,1967-07-07,SBD,Wraps,No,M,110,106.8,Russia,200,215,225,225,,130,137.5,145,145,,-240,245,-260,245,,615
1,Aleksandr Belyy,Александр Белый,J 20 - 23,1990-10-24,SBD,Wraps,No,M,125,110.65,Ukraine,-245,-245,245,245,,150,-160,160,160,,278,290,300,300,,705
2,Egor Kirpa,Егор Кирпа,J 20 - 23,1991-08-17,SBD,Wraps,No,M,125,122.2,Russia,205,220,230,230,,-130,130,,130,,255,275,292.5,292.5,,652.5
3,Pavel Kalinin,Павел Калинин,J 20 - 23,1990-02-23,SBD,Wraps,No,M,125,113,Russia,210,225,-230,225,,155,165,-170,165,,240,-260,260,260,,650
1,Artur Stepanov,Артур Степанов,O,1978-03-08,SBD,Wraps,No,M,125,123.8,Russia,300,310,320,320,,210,220,-230,220,,320,340,350,350,,890
2,Sergey Daragan,Сергей Дараган,O,1978-11-12,SBD,Wraps,No,M,125,122.9,Russia,-290,-290,290,290,,200,210,-220,210,,340,360,-380,360,,860
3,Stanislav Mordvinov,Станислав Мордвинов,O,1983-11-04,SBD,Wraps,No,M,125,121,Russia,300,315,322.5,322.5,,200,210,-215,210,,300,320,-327.5,320,,852.5
4,Andrey Petrov,Андрей Петров,O,1981-09-30,SBD,Wraps,No,M,125,122.7,Russia,300,310,315,315,,207.5,212.5,217.5,217.5,,285,295,-300,295,,827.5
5,Sergey Luchenkov,Сергей Лученков,O,1977-05-24,SBD,Wraps,No,M,125,121.55,Russia,260,,,260,,215,222.5,-231,222.5,,270,-280,280,280,,762.5
6,Pavel Siryak,Павел Сиряк,O,1986-06-14,SBD,Wraps,No,M,125,110.8,Russia,240,255,-270,255,,185,-200,-200,185,,290,302.5,,302.5,,742.5
7,Sergey Vinokurov,Сергей Винокуров,O,1977-07-27,SBD,Wraps,No,M,125,116.3,Russia,250,260,270,270,,190,-200,-200,190,,270,277.5,,277.5,,737.5
DQ,Viktor Klimov,Виктор Климов,O,1975-03-10,SBD,Wraps,No,M,125,114.7,Russia,-265,-265,-265,,,-185,,,,,-292.5,,,,,
DQ,Ramig Nuruev,Рамиг Нуруев,O,1984-11-03,SBD,Wraps,No,M,125,117.95,Russia,-260,,,,,-205,,,,,-280,,,,,
1,Dmitriy Rakcheev,Дмитрий Ракчеев,M 40 - 44,1971-10-19,SBD,Wraps,No,M,125,117.9,Russia,240,255,-270,255,,150,160,165,165,,250,,,250,,670
1,Mikhail Toropov,Михаил Торопов,M 50 - 54,1960-08-09,SBD,Wraps,No,M,125,114.65,Russia,170,175,180,180,,145,155,-160,155,,220,240,250,250,,585
1,Andrey Makarov,Андрей Макаров,T 18 - 19,1993-07-22,SBD,Wraps,No,M,140,139.55,Russia,220,235,250,250,,180,190,200,200,,230,250,265,265,,715
1,Nikolay Iov,Николай Иов,J 20 - 23,1990-09-02,SBD,Wraps,No,M,140,126.7,Russia,-250,-250,250,250,,150,175,182.5,182.5,,240,265,285,285,-290.5,717.5
1,Aleksandr Stepanenko,Александр Степаненко,O,1974-07-25,SBD,Wraps,No,M,140,136,Russia,280,300,-320,300,,-200,205,212.5,212.5,,280,300,320,320,,832.5
2,Denis Muratov,Денис Муратов,O,1977-07-28,SBD,Wraps,No,M,140,132.75,Russia,215,-230,235,235,,210,220,-225,220,,-285,290,-300,290,,745
1,Sergey Tatarenko,Сергей Татаренко,M 40 - 44,1970-01-03,SBD,Wraps,No,M,140,127.85,Russia,190,-200,-200,190,,135,-145,-145,135,,200,210,-220,210,,535
1,Mikhail Koklyaev,Михаил Кокляев,O,1978-12-17,SBD,Wraps,No,M,140+,156.7,Russia,-330,340,-345,340,,200,215,225,225,,370,385,400,400,,965
2,Mikhail Kalinin,Михаил Калинин,O,1981-01-13,SBD,Wraps,No,M,140+,167.7,Russia,270,300,-320,300,,170,185,-192.5,185,,-260,270,,270,,755
DQ,Tatyana Dzhanpoladova,Татьяна Джанполадова,O,1984-09-15,B,Multi-ply,No,F,52,52,Russia,,,,,,-90,-90,-90,,,,,,,,
1,Anna Turaeva,Анна Тураева,O,1978-08-18,B,Multi-ply,No,F,82.5,82.1,Russia,,,,,,160,172.5,-185,172.5,,,,,,,172.5
1,Aleksandr Rode,Александр Роде,O,1981-04-14,B,Multi-ply,No,M,67.5,67.5,Russia,,,,,,230,-240.5,-245,230,,,,,,,230
2,Aleksandr Kovalenko,Александр Коваленко,O,1983-06-05,B,Multi-ply,No,M,67.5,67.4,Ukraine,,,,,,190,-200,-200,190,,,,,,,190
1,Ilya Kokorev,Илья Кокорев,O,1973-01-19,B,Multi-ply,No,M,75,74.3,Russia,,,,,,-235,235,-251,235,,,,,,,235
2,Konstantin Zhigulin,Константин Жигулин,O,1987-10-03,B,Multi-ply,No,M,75,73.9,Russia,,,,,,170,177.5,-185,177.5,,,,,,,177.5
3,Stanislav Marochko,Станислав Марочко,O,1981-12-03,B,Multi-ply,No,M,75,69.1,Ukraine,,,,,,150,160,-165,160,,,,,,,160
DQ,Ivan Karangin,Иван Карангин,O,1985-09-17,B,Multi-ply,No,M,75,74.9,Russia,,,,,,-150,,,,,,,,,,
1,Stanislav Bykov,Станислав Быков,J 20 - 23,1989-10-26,B,Multi-ply,No,M,82.5,79.3,Russia,,,,,,-170,170,-190,170,,,,,,,170
1,Sergey Koshkin,Сергей Кошкин,O,1971-09-28,B,Multi-ply,No,M,82.5,82.2,Russia,,,,,,265,-275,280,280,,,,,,,280
2,Dmitriy Khovanskiy,Дмитрий Хованский,O,1986-05-26,B,Multi-ply,No,M,82.5,82.5,Russia,,,,,,240,250,-255,250,,,,,,,250
3,Pavel Dvoryadkin,Павел Дворядкин,O,1986-07-17,B,Multi-ply,No,M,82.5,80.8,Russia,,,,,,180,-190,195,195,,,,,,,195
1,Sergey Koshkin,Сергей Кошкин,M 40 - 44,1971-09-28,B,Multi-ply,No,M,82.5,82.2,Russia,,,,,,265,-275,280,280,,,,,,,280
1,Valeriy Stoyanov,Валерий Стоянов,M 50 - 54,1957-11-25,B,Multi-ply,No,M,82.5,80.5,Russia,,,,,,130,140,150,150,,,,,,,150
1,Artur Nigmatullin,Артур Нигматуллин,T 16-17,1994-07-17,B,Multi-ply,No,M,90,87.3,Russia,,,,,,170,180,-200,180,,,,,,,180
1,Nikita Vasilev,Никита Васильев,J 20 - 23,1989-08-19,B,Multi-ply,No,M,90,88.9,Russia,,,,,,-220,220,230,230,,,,,,,230
2,Andrey Yufatov,Андрей Юфатов,J 20 - 23,1989-05-04,B,Multi-ply,No,M,90,89,Russia,,,,,,170,185,192.5,192.5,,,,,,,192.5
1,Yuriy Petryakov,Юрий Петряков,O,1964-02-23,B,Multi-ply,No,M,90,89.3,Russia,,,,,,230,-240,240,240,,,,,,,240
2,Yuriy Korikov,Юрий Кориков,O,1962-04-24,B,Multi-ply,No,M,90,90,Russia,,,,,,210,220,-230,220,,,,,,,220
3,Artem Arkhipov,Артем Архипов,O,1982-03-24,B,Multi-ply,No,M,90,84.4,Russia,,,,,,180,192.5,200,200,,,,,,,200
4,Georgiy Avdonin,Георгий Авдонин,O,1969-09-10,B,Multi-ply,No,M,90,86.9,Russia,,,,,,180,-192.5,-195,180,,,,,,,180
5,Rustam Pirov,Рустам Пиров,O,1986-07-01,B,Multi-ply,No,M,90,86.4,Tajikistan,,,,,,-160,160,-170,160,,,,,,,160
1,Ilya Lebedev,Илья Лебедев,M 40 - 44,1972-02-11,B,Multi-ply,No,M,90,90,Russia,,,,,,200,220,,220,,,,,,,220
2,Georgiy Avdonin,Георгий Авдонин,M 40 - 44,1969-09-10,B,Multi-ply,No,M,90,86.9,Russia,,,,,,180,-192.5,-195,180,,,,,,,180
1,Yuriy Petryakov,Юрий Петряков,M 45 - 49,1964-02-23,B,Multi-ply,No,M,90,89.3,Russia,,,,,,230,-240,240,240,,,,,,,240
2,Yuriy Korikov,Юрий Кориков,M 45 - 49,1962-04-24,B,Multi-ply,No,M,90,90,Russia,,,,,,210,220,-230,220,,,,,,,220
1,Aleksandr Petrov,Александр Петров,M 50 - 54,1960-07-17,B,Multi-ply,No,M,90,89.4,Russia,,,,,,240,250,-257.5,250,,,,,,,250
1,Petrovs Valerijs,,M 65 - 69,1946-08-09,B,Multi-ply,No,M,90,89.9,Latvia,,,,,,140,150,165,165,175,,,,,,165
1,Aleksandr Panaskin,Александр Панаскин,J 20 - 23,1991-06-27,B,Multi-ply,No,M,100,99.8,Russia,,,,,,220,235,245,245,,,,,,,245
2,Artem Artemenko,Артем Артеменко,J 20 - 23,1989-03-17,B,Multi-ply,No,M,100,99,Russia,,,,,,190,205,-220,205,,,,,,,205
1,Emin Galib Ogly Mamedov,Емин Галиб Оглы Мамедов,O,1974-08-30,B,Multi-ply,No,M,100,98,Russia,,,,,,300,310,315.5,315.5,,,,,,,315.5
2,Mustafa Akhmadov,Мустафа Ахмадов,O,1980-10-15,B,Multi-ply,No,M,100,96.4,Azerbaijan,,,,,,285,290,-310,290,,,,,,,290
3,Ardavast Martirosyan,Ардаваст Мартиросян,O,1975-10-12,B,Multi-ply,No,M,100,97.1,Russia,,,,,,250,270,285,285,,,,,,,285
4,Roman Anpilogov,Роман Анпилогов,O,1980-07-14,B,Multi-ply,No,M,100,99,Russia,,,,,,285,-302.5,-316,285,,,,,,,285
5,Dmitriy Lopan,Дмитрий Лопан,O,1976-03-22,B,Multi-ply,No,M,100,98.4,Russia,,,,,,225,-240,-240,225,,,,,,,225
1,Eduard Maksimov,Эдуард Максимов,M 40 - 44,1971-11-20,B,Multi-ply,No,M,100,99.8,Russia,,,,,,-250,250,265,265,,,,,,,265
1,Valeriy Akentev,Валерий Акентьев,M 50 - 54,1958-03-13,B,Multi-ply,No,M,100,99.4,Russia,,,,,,210,225,-235,225,,,,,,,225
1,Kalimulla Murzakhanov,Калимулла Мурзаханов,M 55 - 59,1955-07-29,B,Multi-ply,No,M,100,99.1,Russia,,,,,,190,200,-210,200,,,,,,,200
1,Sergey Ivanov,Сергей Иванов,J 20 - 23,1990-06-08,B,Multi-ply,No,M,110,102.8,Ukraine,,,,,,-260,260,280,280,,,,,,,280
2,Ivan Malovichko,Иван Маловичко,J 20 - 23,1990-03-08,B,Multi-ply,No,M,110,100.7,Ukraine,,,,,,210,-225,225,225,,,,,,,225
3,Denis Mosharov,Денис Мошаров,J 20 - 23,1992-01-31,B,Multi-ply,No,M,110,104.5,Russia,,,,,,-200,200,215,215,,,,,,,215
1,Denis Knyazev,Денис Князев,O,1987-09-11,B,Multi-ply,No,M,110,110,Russia,,,,,,330,-340,-340,330,,,,,,,330
2,Dmitriy Gorbachev,Дмитрий Горбачев,O,1970-03-06,B,Multi-ply,No,M,110,109.9,Russia,,,,,,-317.5,317.5,-330,317.5,,,,,,,317.5
3,Ibragim Ibragimov,Ибрагим Ибрагимов,O,1981-09-10,B,Multi-ply,No,M,110,109.5,Azerbaijan,,,,,,290,310,-330,310,,,,,,,310
4,Aleksandr Ivanov,Александр Иванов,O,1976-04-10,B,Multi-ply,No,M,110,107.6,Russia,,,,,,240,250,260,260,,,,,,,260
5,Viktor Fursov,Виктор Фурсов,O,1974-05-09,B,Multi-ply,No,M,110,109.2,Russia,,,,,,260,-270,-270,260,,,,,,,260
DQ,Sergey Kakichev,Сергей Какичев,O,1980-12-11,B,Multi-ply,No,M,110,106.8,Russia,,,,,,-230,-230,,-230,,,,,,,
1,Dmitriy Gorbachev,Дмитрий Горбачев,M 40 - 44,1970-03-06,B,Multi-ply,No,M,110,109.9,Russia,,,,,,-317.5,317.5,-330,317.5,,,,,,,317.5
1,Marko Lempinen,,M 45 - 49,1966-05-23,B,Multi-ply,No,M,110,105.4,Finland,,,,,,210,220,235,235,,,,,,,235
1,Jari Uotila,,M 50 - 54,1959-11-21,B,Multi-ply,No,M,110,105,Finland,,,,,,140,,,140,,,,,,,140
1,Oleg Tokarev,Олег Токарев,M 55 - 59,1954-02-28,B,Multi-ply,No,M,110,101.8,Russia,,,,,,195,200,215,215,,,,,,,215
1,Viktor Naydenov,Виктор Найденов,O,1987-01-25,B,Multi-ply,No,M,125,121.5,Russia,,,,,,-375,375,-385,375,,,,,,,375
2,Yuriy Kazantsev,Юрий Казанцев,O,1974-07-10,B,Multi-ply,No,M,125,113.5,Russia,,,,,,310,-320,-322.5,310,,,,,,,310
DQ,Sergey Starodubskiy,Сергей Стародубский,O,1977-12-20,B,Multi-ply,No,M,125,112.4,Russia,,,,,,-330,-330,-337.5,,,,,,,,
DQ,Viktor Klimov,Виктор Климов,O,1975-03-10,B,Multi-ply,No,M,125,117.4,Russia,,,,,,-290,-290,-290,,,,,,,,
DQ,Ramig Nuruev,Рамиг Нуруев,O,1984-11-03,B,Multi-ply,No,M,125,118.8,Russia,,,,,,-280,-280,-280,,,,,,,,
DQ,Oleg Zaytsev,Олег Зайцев,M 40 - 44,1969-04-19,B,Multi-ply,No,M,125,111.3,Russia,,,,,,-210,-210,-210,,,,,,,,
1,Dmitriy Permyakov,Дмитрий Пермяков,O,1975-04-28,B,Multi-ply,No,M,140,128,Russia,,,,,,310,322.5,335,335,,,,,,,335
2,Aleksandr Korshkov,Александр Коршков,O,1986-01-06,B,Multi-ply,No,M,140,130.8,Russia,,,,,,280,-290,-290,280,,,,,,,280
DQ,Aleksey Shlykov,Алексей Шлыков,O,1984-08-13,B,Multi-ply,No,M,140,125.7,Russia,,,,,,-300,-305,-305,,,,,,,,
1,Eduard Smetanin,Эдуард Сметанин,M 40 - 44,1969-10-15,B,Multi-ply,No,M,140,132.8,Russia,,,,,,180,-200,,180,,,,,,,180
1,Aleksandr Erozidi,Александр Ерозиди,M 45 - 49,1965-04-29,B,Multi-ply,No,M,140,130,Russia,,,,,,-250,-250,250,250,,,,,,,250
1,Veiso Laine,,M 60 - 64,1952-04-12,B,Multi-ply,No,M,140,128,Finland,,,,,,-230,230,242.5,242.5,,,,,,,242.5
1,Dmitriy Bescherov,Дмитрий Бесчеров,J 20 - 23,1991-01-30,B,Multi-ply,No,M,140+,147.5,Russia,,,,,,-230,-235,235,235,,,,,,,235
1,Péter Mihály,,O,1958-06-27,B,Multi-ply,No,M,140+,151,Slovakia,,,,,,220,-255,-255,220,,,,,,,220
1,Péter Mihály,,M 50 - 54,1958-06-27,B,Multi-ply,No,M,140+,151,Slovakia,,,,,,220,-255,-255,220,,,,,,,220
1,Anna Kadatskaya,Анна Кадацкая,O,1977-11-05,B,Raw,No,F,56,55.6,Ukraine,,,,,,97.5,-102.5,-102.5,97.5,,,,,,,97.5
1,Irina Fomenko,Ирина Фоменко,O,1985-05-28,B,Raw,No,F,60,57,Russia,,,,,,50,-52.5,-55,50,,,,,,,50
1,Natalya Goncharova,Наталья Гончарова,O,1974-09-06,B,Raw,No,F,67.5,66.1,Russia,,,,,,92.5,-100,-100,92.5,,,,,,,92.5
2,Ekaterina Kalyuzhnaya,Екатерина Калюжная,O,1987-11-05,B,Raw,No,F,67.5,62.4,Russia,,,,,,50,55,-60,55,,,,,,,55
1,Anna Turaeva,Анна Тураева,O,1978-08-18,B,Raw,No,F,82.5,82.5,Russia,,,,,,122.5,130,136.5,136.5,,,,,,,136.5
1,Viktoriya Sheludko,Виктория Шелудько,O,1973-12-24,B,Raw,No,F,90,86.2,Russia,,,,,,140,150,160,160,,,,,,,160
1,Aleksandr Sorochinskiy,Александр Сорочинский,J 20 - 23,1988-06-18,B,Raw,No,M,52,51.4,Russia,,,,,,80,90,,90,,,,,,,90
1,Aleksandr Konev,Александр Конев,T 13-15,1998-01-15,B,Raw,No,M,67.5,66.4,Russia,,,,,,90,100,-105,100,,,,,,,100
1,Stanislav Khaitov,Станіслав Хаїтов,J 20 - 23,1990-07-30,B,Raw,No,M,67.5,66.6,Ukraine,,,,,,130,140,150,150,,,,,,,150
2,Igor Kuznetsov,Игорь Кузнецов,J 20 - 23,1989-08-17,B,Raw,No,M,67.5,67.5,Russia,,,,,,140,145,147.5,147.5,,,,,,,147.5
1,Aleksandr Rode,Александр Роде,O,1981-04-14,B,Raw,No,M,67.5,66.7,Russia,,,,,,140,150,-160.5,150,,,,,,,150
1,Nikolay Konev,Николай Конев,T 16-17,1995-05-14,B,Raw,No,M,75,73.5,Russia,,,,,,135,-145,-145,135,,,,,,,135
1,Igor Gasyuk,Игорь Гасюк,J 20 - 23,1988-05-09,B,Raw,No,M,75,74.4,Ukraine,,,,,,160,170,-180,170,,,,,,,170
1,Maksim Rusnak,Максим Руснак,T 18 - 19,1993-12-29,B,Raw,No,M,82.5,82.2,Russia,,,,,,132.5,137.5,-140,137.5,,,,,,,137.5
1,Danil Shagin,Данил Шагин,J 20 - 23,1988-11-05,B,Raw,No,M,82.5,81.4,Russia,,,,,,170,-177.5,-177.5,170,,,,,,,170
1,Sergey Koshkin,Сергей Кошкин,O,1971-09-28,B,Raw,No,M,82.5,81,Russia,,,,,,205,210,215,215,-218,,,,,,215
2,Sergey Grishko,Сергей Гришко,O,1980-01-07,B,Raw,No,M,82.5,79.3,Russia,,,,,,207.5,212.5,-217.5,212.5,,,,,,,212.5
3,Anton Nazarov,Антон Назаров,O,1984-01-20,B,Raw,No,M,82.5,78.7,Russia,,,,,,175,180,185,185,,,,,,,185
4,Igor Ryzhov,Игорь Рыжов,O,1985-10-24,B,Raw,No,M,82.5,82.2,Russia,,,,,,185,-197.5,,185,,,,,,,185
5,Dmitriy Trofimov,Дмитрий Трофимов,O,1972-09-12,B,Raw,No,M,82.5,82.2,Russia,,,,,,165,172.5,177.5,177.5,,,,,,,177.5
6,Ivan Karangin,Иван Карангин,O,1985-09-17,B,Raw,No,M,82.5,75.3,Russia,,,,,,157.5,-165,165,165,,,,,,,165
1,Sergey Koshkin,Сергей Кошкин,M 40 - 44,1971-09-28,B,Raw,No,M,82.5,81,Russia,,,,,,205,210,215,215,,,,,,,215
2,Aleksandr Turaev,Александр Тураев,M 40 - 44,1968-08-07,B,Raw,No,M,82.5,81.4,Russia,,,,,,155,162.5,170,170,,,,,,,170
1,Anton Terebin,Антон Теребин,J 20 - 23,1990-12-08,B,Raw,No,M,90,89.1,Russia,,,,,,160,170,-180,170,,,,,,,170
2,Andrey Yufatov,Андрей Юфатов,J 20 - 23,1989-05-04,B,Raw,No,M,90,89.9,Russia,,,,,,-140,-140,140,140,,,,,,,140
1,Sergey Khodunov,Сергей Ходунов,O,1968-10-23,B,Raw,No,M,90,86.8,Russia,,,,,,-195,195,-200,195,,,,,,,195
2,Aleksandr Grigorov,Александр Григоров,O,1984-07-29,B,Raw,No,M,90,87.8,Russia,,,,,,185,195,-200,195,,,,,,,195
3,Andrey Syrbu,Андрей Сырбу,O,1983-07-01,B,Raw,No,M,90,88.7,Russia,,,,,,195,-200,-200,195,,,,,,,195
4,Artem Arkhipov,Артем Архипов,O,1982-03-24,B,Raw,No,M,90,85.3,Russia,,,,,,177.5,185,-195,185,,,,,,,185
5,Vyacheslav Popov,Вячеслав Попов,O,1981-04-16,B,Raw,No,M,90,86.3,Russia,,,,,,185,-190,-190,185,,,,,,,185
6,Pavel Belyy,Павел Белый,O,1978-06-03,B,Raw,No,M,90,88.9,Russia,,,,,,180,-185,-185,180,,,,,,,180
7,Stanislav Lyzhin,Станислав Лыжин,O,1982-01-07,B,Raw,No,M,90,89,Russia,,,,,,170,180,-197.5,180,,,,,,,180
DQ,Vasiliy Zlamanyuk,Василий Зламанюк,O,1983-04-26,B,Raw,No,M,90,87.5,Russia,,,,,,-172.5,-172.5,-172.5,,,,,,,,
1,Sergey Khodunov,Сергей Ходунов,M 40 - 44,1968-10-23,B,Raw,No,M,90,86.8,Russia,,,,,,-195,195,-200,195,,,,,,,195
2,Aleksey Sarkisyan,Алексей Саркисян,M 40 - 44,1971-03-16,B,Raw,No,M,90,88.7,Russia,,,,,,180,185,190,190,,,,,,,190
3,Georgiy Avdonin,Георгий Авдонин,M 40 - 44,1969-09-10,B,Raw,No,M,90,87.6,Russia,,,,,,157.5,165,-170,165,,,,,,,165
1,Aleksey Nebykov,Алексей Небыков,M 45 - 49,1966-03-19,B,Raw,No,M,90,87.7,Russia,,,,,,165,175,-180,175,,,,,,,175
DQ,Igor Moroz,Игорь Мороз,M 45 - 49,1965-09-17,B,Raw,No,M,90,86.5,Russia,,,,,,-150,,,,,,,,,,
1,Valeriys Petrovs,Валерийс Петровс,M 65 - 69,1946-08-09,B,Raw,No,M,90,89.4,Latvia,,,,,,-135,137.5,145,145,,,,,,,145
2,Vasiliy Mertsalov,Василий Мерцалов,M 65 - 69,1946-10-27,B,Raw,No,M,90,89.8,Russia,,,,,,130,140,-145,140,,,,,,,140
1,Sergey Lir,Сергей Лир,J 20 - 23,1991-08-25,B,Raw,No,M,100,97.9,Russia,,,,,,192.5,-202.5,-202.5,192.5,,,,,,,192.5
2,Aleksandr Panaskin,Александр Панаскин,J 20 - 23,1991-06-27,B,Raw,No,M,100,99.5,Russia,,,,,,160,180,-195,180,,,,,,,180
1,Grigoriy Slipchenko,Григорий Слипченко,O,1982-11-16,B,Raw,No,M,100,96.7,Russia,,,,,,220,230,235,235,,,,,,,235
2,Anas Nuriev,Анас Нуриев,O,1973-08-02,B,Raw,No,M,100,99.4,Russia,,,,,,210,220,-225,220,,,,,,,220
3,Mirza Sefikhanov,Мирза Сефиханов,O,1978-06-04,B,Raw,No,M,100,93.9,Russia,,,,,,200,210,-220,210,,,,,,,210
4,Aleksandr Kalyagin,Александр Калягин,O,1983-06-12,B,Raw,No,M,100,97.4,Russia,,,,,,195,202.5,-210,202.5,,,,,,,202.5
5,Vladislav Kobelev,Владислав Кобелев,O,1968-01-30,B,Raw,No,M,100,95.6,Russia,,,,,,180,190,-192.5,190,,,,,,,190
6,Ivan Trunov,Иван Трунов,O,1980-10-10,B,Raw,No,M,100,96,Russia,,,,,,180,190,-195,190,,,,,,,190
7,Mustafa Akhmadov,Мустафа Ахмадов,O,1980-10-15,B,Raw,No,M,100,96.8,Azerbaijan,,,,,,190,-202.5,-212.5,190,,,,,,,190
8,Mikhail Knyazkov,Михаил Князьков,O,1978-03-25,B,Raw,No,M,100,99.8,Russia,,,,,,190,-197.5,-197.5,190,,,,,,,190
9,Sergey Sedov,Сергей Седов,O,1972-11-03,B,Raw,No,M,100,99,Russia,,,,,,180,-190,,180,,,,,,,180
DQ,Ivan Solntsev,Иван Солнцев,O,1974-03-25,B,Raw,No,M,100,95.6,Russia,,,,,,-190,-190,-192.5,,,,,,,,
DQ,Aleksandr Panaskin,Александр Панаскин,O,1991-06-27,B,Raw,No,M,100,99.5,Russia,,,,,,-160,,,,,,,,,,
1,Eduard Maksimov,Эдуард Максимов,M 40 - 44,1971-11-20,B,Raw,No,M,100,98.9,Russia,,,,,,180,190,195,195,,,,,,,195
2,Vladislav Kobelev,Владислав Кобелев,M 40 - 44,1968-01-30,B,Raw,No,M,100,95.6,Russia,,,,,,180,190,-192.5,190,,,,,,,190
1,Petr Kovtun,Петр Ковтун,M 45 - 49,1966-08-21,B,Raw,No,M,100,98.4,Russia,,,,,,180,-190,-190,180,,,,,,,180
2,Aleksandr Dmitriev,Александр Дмитриев,M 45 - 49,1964-08-01,B,Raw,No,M,100,98.2,Russia,,,,,,150,160,-170,160,,,,,,,160
1,Aslambek Abaev,Асламбек Абаев,M 50 - 54,1959-06-28,B,Raw,No,M,100,95.3,Russia,,,,,,200,207.5,-211,207.5,,,,,,,207.5
2,Valeriy Akentev,Валерий Акентьев,M 50 - 54,1958-03-13,B,Raw,No,M,100,99.8,Russia,,,,,,155,160,,160,,,,,,,160
1,Vitaliy Omelchenko,Віталій Омельченко,J 20 - 23,1990-02-01,B,Raw,No,M,110,103.1,Russia,,,,,,190,200,-207.5,200,,,,,,,200
2,Artem Grechanov,Артем Гречанов,J 20 - 23,1991-12-20,B,Raw,No,M,110,109.9,Russia,,,,,,150,170,180,180,,,,,,,180
1,Vasiliy Fedyaev,Василий Федяев,O,1982-10-26,B,Raw,No,M,110,103.5,Russia,,,,,,240,245,-250,245,,,,,,,245
2,Oleg Saydentsal,Олег Сайденцаль,O,1975-03-14,B,Raw,No,M,110,109.2,Russia,,,,,,245,-250,-250,245,,,,,,,245
3,Denis Ivannikov,Денис Иванников,O,1982-09-27,B,Raw,No,M,110,109.9,Russia,,,,,,-220,220,-227.5,220,,,,,,,220
4,Oleg Khakimov,Олег Хакимов,O,1983-01-22,B,Raw,No,M,110,109.6,Russia,,,,,,177.5,-187.5,187.5,187.5,,,,,,,187.5
DQ,Sergey Padabed,Сергей Падабед,O,1985-11-13,B,Raw,No,M,110,109.1,Russia,,,,,,-210,-212.5,-212.5,,,,,,,,
1,Vasiliy Grishchenko,Василий Грищенко,M 40 - 44,1970-11-04,B,Raw,No,M,110,107.4,Russia,,,,,,190,200,-205,200,,,,,,,200
1,Evgeniy Stuchkov,Евгений Стучков,M 50 - 54,1961-06-09,B,Raw,No,M,110,107.8,Russia,,,,,,172.5,-180,180,180,,,,,,,180
2,Roman Rudnitskiy,Роман Рудницкий,M 50 - 54,1961-03-19,B,Raw,No,M,110,101.9,Russia,,,,,,160,175,-182.5,175,,,,,,,175
1,Nikolay Iov,Николай Иов,J 20 - 23,1990-09-02,B,Raw,No,M,125,124.6,Russia,,,,,,160,175,190,190,,,,,,,190
1,Murad Alibegov,Мурад Алибегов,O,1977-02-13,B,Raw,No,M,125,119.5,Russia,,,,,,240,250,255,255,,,,,,,255
2,Stanislav Kolachev,Станислав Колачев,O,1987-03-20,B,Raw,No,M,125,116.2,Russia,,,,,,230,240,-250,240,,,,,,,240
3,Denis Muratov,Денис Муратов,O,1984-08-18,B,Raw,No,M,125,125,Russia,,,,,,230,-240,-240,230,,,,,,,230
4,Sergey Luchenkov,Сергей Лученков,O,1977-05-24,B,Raw,No,M,125,121.6,Russia,,,,,,220,225,-230,225,,,,,,,225
5,Sergey Blokh,Сергей Блох,O,1973-04-19,B,Raw,No,M,125,117.3,Russia,,,,,,190,200,210,210,,,,,,,210
6,Nikolay Baykov,Николай Байков,O,1969-12-17,B,Raw,No,M,125,123,Russia,,,,,,210,-215,-215,210,,,,,,,210
7,Gennadiy Kokhanovskiy,Геннадий Кохановский,O,1975-03-26,B,Raw,No,M,125,121.1,Russia,,,,,,185,-200,-202.5,185,,,,,,,185
1,Bakhtiyar Velibekov,Бахтияр Велибеков,M 40 - 44,1971-03-01,B,Raw,No,M,125,115,Russia,,,,,,225,240,-245,240,,,,,,,240
2,Nikolay Baykov,Николай Байков,M 40 - 44,1969-12-17,B,Raw,No,M,125,123,Russia,,,,,,210,,,210,,,,,,,210
3,Oleg Drozdov,Олег Дроздов,M 40 - 44,1970-09-10,B,Raw,No,M,125,114.1,Russia,,,,,,200,-207.5,-207.5,200,,,,,,,200
1,Lev Chernykh,Лев Черных,M 45 - 49,1966-08-01,B,Raw,No,M,125,121.7,Russia,,,,,,185,192.5,-202.5,192.5,,,,,,,192.5
2,Vladimir Polivanov,Владимир Поливанов,M 45 - 49,1963-01-20,B,Raw,No,M,125,122.5,Russia,,,,,,170,177.5,182.5,182.5,,,,,,,182.5
1,Anatoliy Pauesov,Анатолий Пауесов,M 55 - 59,1953-06-14,B,Raw,No,M,125,112.8,Russia,,,,,,-150,152.5,160,160,,,,,,,160
1,Kirill Golberg,Кирилл Гольберг,O,1976-10-28,B,Raw,No,M,140,126.8,Russia,,,,,,240,250,-260,250,,,,,,,250
2,Denis Muratov,Денис Муратов,O,1977-07-28,B,Raw,No,M,140,130.6,Russia,,,,,,215,-222.5,-222.5,215,,,,,,,215
3,Dmitriy Kuleshov,Дмитрий Кулешов,O,1977-06-17,B,Raw,No,M,140,126,Russia,,,,,,187.5,192.5,197.5,197.5,,,,,,,197.5
1,Vladimir Enin,Владимир Енин,M 40 - 44,1970-05-28,B,Raw,No,M,140,125.5,Russia,,,,,,180,200,-210,200,,,,,,,200
2,Boris Trofimov,Борис Трофимов,M 40 - 44,1972-03-21,B,Raw,No,M,140,138.3,Russia,,,,,,-200,200,-205,200,,,,,,,200
3,Eduard Smetanin,Эдуард Сметанин,M 40 - 44,1969-10-15,B,Raw,No,M,140,132.8,Russia,,,,,,-150,150,,150,,,,,,,150
1,Viktor Kozlov,Виктор Козлов,M 45 - 49,1963-03-23,B,Raw,No,M,140,128.6,Russia,,,,,,232.5,-240,-240,232.5,,,,,,,232.5
1,Kirill Sarychev,Кирилл Сарычев,J 20 - 23,1989-01-01,B,Raw,No,M,140+,161.9,Russia,,,,,,270,281,,281,,,,,,,281
2,Nikita Kuzmin,Никита Кузьмин,J 20 - 23,1988-08-19,B,Raw,No,M,140+,144.6,Russia,,,,,,205,215,222.5,222.5,,,,,,,222.5
1,Kirill Sarychev,Кирилл Сарычев,O,1989-01-01,B,Raw,No,M,140+,161.9,Russia,,,,,,270,281,,281,,,,,,,281
2,Artyom Fadeev,Артём Фадеев,O,1980-11-11,B,Raw,No,M,140+,161.8,Russia,,,,,,235,-255,-255,235,,,,,,,235
3,Nikita Kuzmin,Никита Кузьмин,O,1988-08-19,B,Raw,No,M,140+,144.6,Russia,,,,,,205,215,222.5,222.5,,,,,,,222.5
4,Vadim Korkin,Вадим Коркин,O,1975-04-12,B,Raw,No,M,140+,166,Russia,,,,,,215,-220,-220,215,,,,,,,215
1,Igor Nastynov,Игорь Настынов,M 50 - 54,1961-03-14,B,Raw,No,M,140+,147.5,Russia,,,,,,115,135,,135,,,,,,,135
1,Tatyana Dzhanpoladova,Татьяна Джанполадова,O,1984-09-15,D,Raw,No,F,52,52,Russia,,,,,,,,,,,60,75,82.5,82.5,,82.5
1,Tatyana Merezhko,Татьяна Мережко,O,1978-07-05,D,Raw,No,F,82.5,82.5,Russia,,,,,,,,,,,200,212.5,-217.5,212.5,,212.5
1,Vladimir Khristov,Владимир Христов,O,1983-07-20,D,Raw,No,M,90,90,Bulgaria,,,,,,,,,,,240,260,280,280,,280
2,Ilya Lebedev,Илья Лебедев,O,1972-02-11,D,Raw,No,M,90,90,Russia,,,,,,,,,,,240,255,272.5,272.5,,272.5
3,Vladimir Zhabin,Владимир Жабин,O,1980-06-27,D,Raw,No,M,90,85.1,Russia,,,,,,,,,,,240,-255,-272.5,240,,240
1,Akim Vakhtin,Аким Вахтин,O,1983-10-06,D,Raw,No,M,100,97.3,Russia,,,,,,,,,,,300,,,300,,300
2,Aleksandr Panaskin,Александр Панаскин,O,1991-06-27,D,Raw,No,M,100,99.8,Russia,,,,,,,,,,,230,250,270,270,,270
3,Aleksey Kurkov,Алексей Курков,O,1976-03-29,D,Raw,No,M,100,100,Russia,,,,,,,,,,,215,230,245,245,,245
1,Andrey Ayvazov,Андрей Айвазов,O,1982-11-07,D,Raw,No,M,110,107.7,Russia,,,,,,,,,,,330,352.5,-360,352.5,,352.5
2,Vüsal Mardanov,Вусал Марданов,O,1985-02-18,D,Raw,No,M,110,109,Azerbaijan,,,,,,,,,,,340,-355,-355,340,,340
3,Stanislav Vlasov,Станислав Власов,O,1967-07-07,D,Raw,No,M,110,107.1,Russia,,,,,,,,,,,250,265,-270,265,,265
4,Aleksandr Teterin,Александр Тетерин,O,1974-11-15,D,Raw,No,M,110,103.6,Russia,,,,,,,,,,,235,247.5,-255,247.5,,247.5
1,Stoyan Andreev,,O,1978-09-09,D,Raw,No,M,125,114.4,Bulgaria,,,,,,,,,,,320,352.5,-362,352.5,,352.5
2,Baxtiyar Quliyev,,O,1975-12-19,D,Raw,No,M,125,113.4,Azerbaijan,,,,,,,,,,,350,-355,-360,350,,350
3,Sergey Blokh,Сергей Блох,O,1973-04-19,D,Raw,No,M,125,116.8,Russia,,,,,,,,,,,280,300,310,310,,310
4,Viktor Klimov,Виктор Климов,O,1975-03-10,D,Raw,No,M,125,117.4,Russia,,,,,,,,,,,280,295,-305,295,,295
2,Ramig Nuruev,Рамиг Нуруев,O,1984-11-03,D,Raw,No,M,125,118.8,Russia,,,,,,,,,,,275,295,,295,,295
6,Sergey Luchenkov,Сергей Лученков,O,1977-05-24,D,Raw,No,M,125,121.6,Russia,,,,,,,,,,,270,280,-297.5,280,,280
1,Alexander Klyushev,Александр Клюшев,O,1983-12-23,D,Raw,No,M,140+,144.4,Russia,,,,,,,,,,,347.5,370,382.5,382.5,,382.5
2,Mikhail Koklyaev,Михаил Кокляев,O,1978-12-17,D,Raw,No,M,140+,158.3,Russia,,,,,,,,,,,380,-402.5,,380,,380
3,Vladimir Kalinichenko,Владимир Калиниченко,O,1972-11-06,D,Raw,No,M,140+,155.5,Russia,,,,,,,,,,,345,365,-382.5,365,,365
DQ,Nikita Kuzmin,Никита Кузьмин,O,1988-08-19,D,Raw,No,M,140+,143.9,Russia,,,,,,,,,,,,,,,,
