Name,Color
Adam Leidigh,finland
Alberto Portillo,red
Alec Dorner,lightblue
Alice Munks,rainbow
Allison Hind,red
Amanda Kohatsu,green
Andrew Herbert,purple
Ben Gianacakos,pink
Blake Parado,green
Boris Lerner,lightblue
Brady Stewart,america
Brody Laybolt,royalblue
Bryan Hartsel,yellow
Carina Davis,pink
Christian Habihirwe,gold italic
Chrissy Castellano,lightpink
Ciarra Hutton,turquoise
Daphne Zhang,red
Dan Green,green
Dave Baker,rainbow
David O'Sullivan,rainbow
Dominique Fisher #1,red
Ellen Seidel,lightblue
Erika Hipwell,red
Erika Stevens,red
Esther Lee,lightblue
Garrett Fear,purple bold
Gemma Lucas,england
Greg Nuckols,helvetica
Haley Hill,america
Ivy Knight,yellow
James Skinner,lightblue
Jamila Owens,green
Jawon Garrison,red
Jeff Justo,bold
Jenn Rotsinger,rainbow
Jeremy Willis #1,rainbow
Jessica Pippen,red
Jo Whiteley,purple
Joe Sullivan,lightblue
Joseph Park,rainbow
Justin Jackson,lightblue algerian
Kai Ma,rainbow
Kalle Räsänen,finland
Katie DeMartino,rainbow
Kris Heckart,red
Kris Lewis,rainbow
Kristy Hawkins,green
Kyle McKee,yellow
Kylee Craig,lightpink
Leonetta Richardson,yellow
Lucinda Stansfield,red bold comicsans
Marina Cornwall,rainbow
Matt Pearce,small-caps letter-spacing-2 helvetica matt_gradient
Megan Hill,pink teal-shadow
Michael Petyak,lightblue
Michael Vessia,purple small-caps letter-spacing-2
Michelle Leu,salmonpink
Michelle Sothen,lightpink
Patrick Jeffries,america
Paul Jackson #1,royalblue
Phillip Lake,green
Rebecca Bachman,red
Reyhan Roybal,rainbow
Rich Sadiv,red
Rick Simmons,lightblue
Robert Simmons,rainbow
Robyn Turnbull,rainbow
Sarah Wellberg,green
Stefanie Cohen,umiami
Susan Salazar,lightblue
Tara Webber,green
Terrian Ashley,purple
Thomas Schwarz,red
Tommy O'Connor,ireland
Travis P. Rogers,lightblue
Trystan Oakley,green
Véronique Fradette,canada
Vincent Raia,red
Zachary Langdon,royalblue
Zachary Lockhart,red
Zachary Voase,rainbow small-caps
