Place,Name,State,WeightClassKg,BodyweightKg,Age,Best3SquatKg,Best3BenchKg,Best3DeadliftKg,TotalKg,Sex,Division,Equipment,Event
1,Emily Canacakos,AZ,75,74.5,23,122.5,72.5,157.5,352.5,F,Juniors 20-23,Raw,SBD
1,Rosario Espinoza,AZ,56,54.1,31,137.5,77.5,142.5,357.5,F,Open,Raw,SBD
2,Ellie Rojas,AZ,56,55.9,24,117.5,70,155,342.5,F,Open,Raw,SBD
3,Judy Polanco,AZ,56,55,28,110,62.5,130,302.5,F,Open,Raw,SBD
1,Kelly Lovan,IA,60,60,38,112.5,90,182.5,385,F,Open,Raw,SBD
2,Becky Kiraly,AZ,60,59.2,34,125,72.5,160,357.5,F,Open,Raw,SBD
3,Nannette Weaver,AZ,60,59.1,49,107.5,60,127.5,295,F,Open,Raw,SBD
1,Brittany Kohnke,AZ,67.5,65.3,32,127.5,70,162.5,360,F,Open,Raw,SBD
1,Emily Canacakos,AZ,75,74.5,23,122.5,72.5,157.5,352.5,F,Open,Raw,SBD
2,Caitie Canacakos,AZ,75,73.5,27,105,82.5,147.5,335,F,Open,Raw,SBD
DQ,Robin Shinsato,AZ,90,89.6,26,147.5,-65,162.5,,F,Open,Raw,SBD
1,Kelly Lovan,IA,60,60,38,112.5,90,182.5,385,F,Submasters 35-39,Raw,SBD
1,Nannette Weaver,AZ,60,59.1,49,107.5,60,127.5,295,F,Masters 45-49,Raw,SBD
1,David Joplin,AZ,82.5,82.5,23,225,175,260,660,M,Juniors 20-23,Raw,SBD
2,Nathan Zimmerman,AZ,82.5,79.6,22,162.5,103,175,440,M,Juniors 20-23,Raw,SBD
1,Malachi Klaus,AZ,90,85.7,17,190,150,227.5,567.5,M,Juniors 16-17,Raw,SBD
2,Jonathan Lewis,AZ,90,89.5,16,187.5,105,220,512.5,M,Juniors 16-17,Raw,SBD
1,Gabriel Diaz,AZ,110,106.9,22,217.5,163,245,625,M,Juniors 20-23,Raw,SBD
1,Kyle Lebel,AZ,67.5,66.8,28,142.5,115,195,452.5,M,Open,Raw,SBD
1,Juan Us Santiago,AZ,75,68.1,26,155,125,210,490,M,Open,Raw,SBD
1,David Joplin,AZ,82.5,82.5,23,225,175,260,660,M,Open,Raw,SBD
1,Kawika Henderson,AZ,90,87.5,30,212.5,150,252.5,615,M,Open,Raw,SBD
2,Kaleb Murray,AZ,90,86.3,24,197.5,158,242.5,597.5,M,Open,Raw,SBD
3,Malachi Klaus,AZ,90,85.7,17,190,150,227.5,567.5,M,Open,Raw,SBD
1,Kelley Wolfe,AZ,110,106.4,31,217.5,160,260,637.5,M,Open,Raw,SBD
2,Gabriel Diaz,AZ,110,106.9,22,217.5,163,245,625,M,Open,Raw,SBD
1,Aaron Hubbard,AZ,140,138.7,36,255,190,282.5,727.5,M,Open,Raw,SBD
1,Phillip Dominguez,AZ,82.5,77.6,41,142.5,123,175,440,M,Masters 40-44,Raw,SBD
1,Chad Drecksel,,110,107,62,200,145,250,595,M,Masters 60-64,Raw,SBD
1,Logan Whitfill,AZ,60,59.1,20,125,62.5,125,312.5,F,Juniors 20-23,Wraps,SBD
1,Suzanne Davis,AZ,60,60,45,165.5,98,220.5,484,F,Open,Wraps,SBD
1,Alycia Rodriguez,AZ,75,74.2,25,160,75,162.5,397.5,F,Open,Wraps,SBD
1,Sophia Hussary,AZ,82.5,82.1,39,157.5,103,205,465,F,Open,Wraps,SBD
1,Sophia Hussary,AZ,82.5,82.1,39,157.5,103,205,465,F,Submasters 35-39,Wraps,SBD
1,Suzanne Davis,AZ,60,60,45,165.5,98,220.5,484,F,Masters 45-49,Wraps,SBD
1,Cristina Ramirez,AZ,75,74.3,53,102.5,55,147.5,305,F,Masters 50-54,Wraps,SBD
1,Chevy Shumaker,AZ,67.5,67,18,165,103,192.5,460,M,Juniors 18-19,Wraps,SBD
1,Christopher Popoff,AZ,82.5,77.3,16,117.5,82.5,145,345,M,Juniors 16-17,Wraps,SBD
1,Quentin Gunning,AZ,110,107.6,18,245,125,252.5,622.5,M,Juniors 18-19,Wraps,SBD
1,Caleb Cattermole,AZ,110,108.6,22,255,170,255,680,M,Juniors 20-23,Wraps,SBD
1,Brandon Adams,AZ,67.5,65.9,30,160,108,215,482.5,M,Open,Wraps,SBD
2,Chevy Shumaker,AZ,67.5,67,18,165,103,192.5,460,M,Open,Wraps,SBD
1,Christopher Popoff,AZ,82.5,77.3,16,117.5,82.5,145,345,M,Open,Wraps,SBD
1,Asa Barnes,AZ,90,89.9,53,297.5,170,272.5,740,M,Open,Wraps,SBD
1,Matthew Lacy,AZ,100,96.6,34,235,155,240,630,M,Open,Wraps,SBD
1,Justin Bennett,AZ,110,108.8,26,255,193,302.5,750.5,M,Open,Wraps,SBD
2,Wesley Pellam,AZ,110,104.7,39,227.5,183,260,670,M,Open,Wraps,SBD
3,Kevin Hanson,AZ,110,107.9,26,192.5,175,257.5,625,M,Open,Wraps,SBD
4,Quentin Gunning,AZ,110,107.6,18,245,125,252.5,622.5,M,Open,Wraps,SBD
1,Nick Rowland,AZ,125,118.8,29,287.5,183,332.5,802.5,M,Open,Wraps,SBD
2,Brandon Serio,AZ,125,118.9,27,272.5,190,295,757.5,M,Open,Wraps,SBD
1,Ethan Gonzalez,AZ,140+,158.3,33,325,228,277.5,830,M,Open,Wraps,SBD
1,Wesley Pellam,AZ,110,104.7,39,227.5,183,260,670,M,Submasters 35-39,Wraps,SBD
1,Asa Barnes,AZ,90,89.9,53,297.5,170,272.5,740,M,Masters 50-54,Wraps,SBD
1,Michael Johnson,AZ,90,89.4,55,192.5,165,220,577.5,M,Masters 55-59,Wraps,SBD
1,Mike Early,AZ,100,96.1,41,282.5,243,260,785,M,Open,Single-ply,SBD
1,Philip Skinner,AZ,90,88.1,45,230,155,227.5,612.5,M,Masters 45-49,Single-ply,SBD
1,Charles de Tranaltes,AZ,90,88.8,52,207.5,163,255,625,M,Masters 50-54,Single-ply,SBD
1,Mike Early,AZ,100,96.1,41,282.5,243,260,785,M,Masters 40-44,Single-ply,SBD
1,Michael Kassir,AZ,82.5,81,28,,175,,175,M,Open,Raw,B
1,Kawika Henderson,AZ,90,87.5,30,,150,,150,M,Open,Raw,B
1,David R Ogden,AZ,140+,149.9,57,,103,,102.5,M,Masters 55-59,Raw,B
1,Albert Carlotti,AZ,82.5,80.8,48,,,230,230,M,Open,Raw,D
1,Kawika Henderson,AZ,90,87.5,30,,,252.5,252.5,M,Open,Raw,D
1,Justin Bennett,AZ,110,108.8,26,,,302.5,302.5,M,Open,Raw,D
2,Kelley Wolfe,AZ,110,106.4,31,,,260,260,M,Open,Raw,D
1,Albert Carlotti,AZ,82.5,80.8,48,,,230,230,M,Masters 45-49,Raw,D
1,Ray Muller,AZ,90,88.1,81,,,147.5,147.5,M,Masters,Raw,D
1,David R Ogden,AZ,140+,149.9,57,,,102.5,102.5,M,Masters 55-59,Raw,D
