Name,WeightClassKg,BodyweightKg,Event,Division,Equipment,Best3SquatKg,Best3BenchKg,Best3DeadliftKg,TotalKg,Sex,Place
Dave Murphy,110,108.41,B,AD Masters 5,Multi-ply,,,,,M,DQ
Eric DeCaires,110,103.15,B,AD Open,Multi-ply,,326.59,,326.59,M,1
JoeDon Breda,125,112.67,B,AD Open,Multi-ply,,281.23,,281.23,M,1
Josh Smith #7,67.5,65.23,B,UPA Open,Multi-ply,,,,,M,DQ
Barzeen Vaziri,140+,148.05,B,UPA Open,Multi-ply,,390.09,,390.09,M,1
Preston Prazak,52,40.37,B,AD Guest Lifter,Raw,,29.48,,29.48,M,G
Rachel Nutter,90+,155.31,B,AD Masters 1,Raw,,,,,F,DQ
Aaron Lundgaard,110,107.95,B,UPA Masters 1,Raw,,190.51,,190.51,M,1
Rick Colwell,125,121.93,B,UPA Masters 1,Raw,,183.7,,183.7,M,1
Nomg Terry,82.5,75.84,B,UPA Masters 2,Raw,,88.45,,88.45,M,1
John Berding,110,108.68,B,UPA Masters 2,Raw,,154.22,,154.22,M,1
Kim Boatman,67.5,67.4,B,AD Masters 3,Raw,,61.23,,61.23,F,1
Brad Hadden,140+,168.74,B,AD Masters 4,Raw,,142.88,,142.88,M,1
Behzad Bear,140+,208.2,B,AD Open,Raw,,129.27,,129.27,M,1
Marty Coleman,100,99.06,B,UPA Open,Raw,,154.22,,154.22,M,1
Jake Prazak,110,108.86,B,UPA Open,Raw,,233.6,,233.6,M,1
Collin Sheriff,125,122.92,B,UPA Open,Raw,,165.56,,165.56,M,3
Jerry Prazak,125,121.65,B,UPA Open,Raw,,174.63,,174.63,M,2
Andy Grimm,125,115.67,B,UPA Open,Raw,,199.58,,199.58,M,1
Bobby Faber,140,133.08,B,UPA Open,Raw,,242.67,,242.67,M,1
Damon Dixon,140+,172.18,B,UPA Open,Raw,,240.4,,240.4,M,2
LeRoy Walker,140+,166.38,B,UPA Open,Raw,,285.76,,285.76,M,1
Elizabeth Deysach,67.5,63.96,B,AD Teen 18-19,Raw,,34.02,,34.02,F,1
Ave Ball,44,22.14,D,AD Guest Lifter,Raw,,,27.22,27.22,F,G
Laila Thomas,44,23.86,D,AD Guest Lifter,Raw,,,36.29,36.29,F,G
Mya Brandenburg,44,43.91,D,AD Guest Lifter,Raw,,,54.43,54.43,F,G
Paige Prazak,44,32.93,D,AD Guest Lifter,Raw,,,65.77,65.77,F,G
Dylan Westhoff,52,25.4,D,AD Guest Lifter,Raw,,,40.82,40.82,M,G
Zack Jaakkola,52,30.3,D,AD Guest Lifter,Raw,,,63.5,63.5,M,G
Nikole Shipley,52,49.26,D,AD Guest Lifter,Raw,,,68.04,68.04,F,G
Hunter Luyando,56,55.79,D,AD Guest Lifter,Raw,,,106.59,106.59,M,G
Zac Salazar,60,59.51,D,AD Guest Lifter,Raw,,,83.91,83.91,M,G
Emma Salazar,82.5,78.83,D,AD Guest Lifter,Raw,,,70.31,70.31,F,G
Tracey Patrick,67.5,66.13,SBD,UPA Masters 1,Multi-ply,231.33,161.03,197.31,589.67,F,1
TJ Hayes,110,105.05,SBD,UPA Masters 1,Multi-ply,322.05,229.06,265.35,816.47,M,1
Pete Sengos,110,100.06,SBD,AD Masters 2,Multi-ply,349.27,238.14,285.76,873.17,M,1
Pamela Dorn,67.5,64.59,SBD,UPA Masters 3,Multi-ply,170.1,79.38,154.22,403.7,F,1
Bill Carlough,90,87.36,SBD,UPA Masters 4,Multi-ply,324.32,63.5,,,M,DQ
Candace Kucsulain,60,56.15,SBD,AD Open,Multi-ply,142.88,77.11,158.76,378.75,F,1
Kristin Vaziri,67.5,65.32,SBD,AD Open,Multi-ply,208.65,102.06,151.95,462.66,F,1
Aaron Sarnovsky,82.5,80.38,SBD,AD Open,Multi-ply,240.4,167.83,251.74,659.98,M,1
Jake Whately,90,89.81,SBD,AD Open,Multi-ply,283.5,204.12,272.16,759.77,M,2
Tim Hensley,90,89.99,SBD,AD Open,Multi-ply,317.51,317.51,272.16,907.18,M,1
Clint Moore,100,98.88,SBD,AD Open,Multi-ply,367.41,272.16,294.84,934.4,M,1
Nicole Davala,90+,116.39,SBD,AD Open,Multi-ply,,88.45,142.88,,F,DQ
Joe Buck,100,99.88,SBD,UPA Open,Multi-ply,396.89,333.39,267.62,997.9,M,1
Pat Helber,100,98.88,SBD,UPA Open,Multi-ply,,,,,M,DQ
Erik Johnsen,125,123.47,SBD,UPA Open,Multi-ply,272.16,249.48,242.67,764.3,M,1
Cory Schutter,140,135.08,SBD,UPA Open,Multi-ply,294.84,251.74,254.01,800.59,M,1
Corey Miceli,140,133.27,SBD,UPA Open,Multi-ply,,,362.87,,M,DQ
Jeff Frank,140+,180.08,SBD,UPA Open,Multi-ply,523.9,362.87,317.51,1204.29,M,1
Jayson McNett,140+,152.77,SBD,UPA Open,Multi-ply,399.16,,299.37,,M,DQ
Candie Yon,82.5,81.74,SBD,AD Masters 1,Wraps,136.08,58.97,147.42,342.46,F,1
Bob Budai,90,82.83,SBD,AD Masters 1,Wraps,163.29,113.4,172.37,449.06,M,1
Beth McBride,90,89.54,SBD,UPA Masters 1,Wraps,136.08,54.43,161.03,351.53,F,1
Shane Rickman,100,99.52,SBD,UPA Masters 1,Wraps,242.67,147.42,265.35,655.44,M,1
Erin Zemanovic,67.5,67.49,SBD,AD Masters 2,Wraps,97.52,61.23,111.13,269.89,F,1
Ellen Tomski,60,58.79,SBD,AD Masters 3,Wraps,138.35,58.97,147.42,344.73,F,1
Tim Walsh,100,95.07,SBD,AD Masters 3,Wraps,181.44,104.33,210.92,496.68,M,1
Brian Hudyma,125,122.56,SBD,AD Masters 5,Wraps,254.01,151.95,249.48,655.44,M,1
Krissy Ngo,48,47.81,SBD,AD Open,Wraps,83.91,49.9,117.93,251.74,F,1
Michele Paris,56,55.34,SBD,AD Open,Wraps,99.79,,131.54,,F,DQ
Ryan Helber,60,59.96,SBD,AD Open,Wraps,81.65,34.02,83.91,199.58,M,1
Jenna Sheriff,60,59.51,SBD,AD Open,Wraps,102.06,47.63,115.67,265.35,F,2
Paula Sheynerman,60,58.24,SBD,AD Open,Wraps,102.06,70.31,145.15,317.51,F,1
Jessica Fick,67.5,67.4,SBD,AD Open,Wraps,88.45,40.82,111.13,240.4,F,3
Juli Cardasis,67.5,62.78,SBD,AD Open,Wraps,102.06,56.7,117.93,276.69,F,2
Anna DuCharme,67.5,67.49,SBD,AD Open,Wraps,147.42,63.5,165.56,376.48,F,1
Jeff Meland,67.5,66.77,SBD,AD Open,Wraps,167.83,111.13,174.63,453.59,M,1
Melissa Hamilton,75,73.94,SBD,AD Open,Wraps,104.33,61.23,124.74,290.3,F,1
Jay Potter,75,71.49,SBD,AD Open,Wraps,165.56,106.59,165.56,437.72,M,3
Josh Nicklin,75,71.4,SBD,AD Open,Wraps,154.22,106.59,204.12,464.93,M,2
Drew Young,75,74.93,SBD,AD Open,Wraps,249.48,136.08,256.28,641.83,M,1
Becca Abrahams,82.5,80.01,SBD,AD Open,Wraps,167.83,88.45,174.63,430.91,F,1
Tony Smouthers,82.5,77.75,SBD,AD Open,Wraps,136.08,113.4,235.87,485.34,M,2
Nick Tomski,82.5,80.92,SBD,AD Open,Wraps,213.19,115.67,206.38,535.24,M,1
Darlene Delk,82.5,77.84,SBD,AD Open,Wraps,,52.16,129.27,,F,DQ
Aissa Galang,90,89.63,SBD,AD Open,Wraps,156.49,97.52,181.44,435.45,F,1
Jason Reed,90,88.54,SBD,AD Open,Wraps,167.83,111.13,158.76,437.72,M,2
Jared Bozich,90,88.72,SBD,AD Open,Wraps,192.78,102.06,215.46,510.29,M,1
Mark Dolence,100,95.44,SBD,AD Open,Wraps,170.1,102.06,158.76,430.91,M,4
Scott Sutherlin,100,99.97,SBD,AD Open,Wraps,206.38,163.29,226.8,596.47,M,3
Casey Flynn,100,99.06,SBD,AD Open,Wraps,206.38,147.42,249.48,603.28,M,2
Joey Kreft,100,97.52,SBD,AD Open,Wraps,226.8,142.88,247.21,616.89,M,1
Kirk Niatsikas,110,109.32,SBD,AD Open,Wraps,215.46,133.81,240.4,589.67,M,1
Andrew Burnell,125,115.58,SBD,AD Open,Wraps,317.51,213.19,337.93,868.63,M,1
Sonny Bruns,140,126.19,SBD,AD Open,Wraps,206.38,133.81,229.06,569.26,M,2
Gage Abrahams,140,137.17,SBD,AD Open,Wraps,285.76,147.42,306.17,739.36,M,1
Melissa Williams,90+,93.62,SBD,AD Open,Wraps,74.84,52.16,106.59,233.6,F,1
Dan Kennedy,140+,145.78,SBD,AD Open,Wraps,249.48,192.78,283.5,725.75,M,1
Becky Faber,75,72.03,SBD,UPA Open,Wraps,72.57,38.56,72.57,183.7,F,3
Jessica Ball,75,71.3,SBD,UPA Open,Wraps,102.06,54.43,122.47,278.96,F,2
Samantha Scott,75,73.3,SBD,UPA Open,Wraps,172.37,83.91,181.44,437.72,F,1
Jake Hartman,82.5,82.46,SBD,UPA Open,Wraps,260.82,181.44,297.1,739.36,M,1
Brad Snyder,90,89.45,SBD,UPA Open,Wraps,210.92,129.27,219.99,560.19,M,1
Dan Hentges,100,90.17,SBD,UPA Open,Wraps,151.95,120.2,201.85,474,M,3
Cory Allen,100,97.61,SBD,UPA Open,Wraps,274.42,158.76,294.84,728.02,M,2
Brian Scott,100,98.52,SBD,UPA Open,Wraps,299.37,210.92,285.76,796.05,M,1
Mike Vertrees,125,124.56,SBD,UPA Open,Wraps,374.21,210.92,267.62,852.75,M,1
Nate McLaughlin,140,132.81,SBD,UPA Open,Wraps,317.51,181.44,294.84,793.79,M,2
Chris Hepler,140,138.07,SBD,UPA Open,Wraps,376.48,217.72,331.12,925.33,M,1
Jen Bailey,90+,97.98,SBD,UPA Open,Wraps,127.01,70.31,140.61,337.93,F,1
Dejuan Garland,140+,152.04,SBD,UPA Open,Wraps,263.08,188.24,260.82,712.14,M,2
Nick Gout,140+,155.76,SBD,UPA Open,Wraps,272.16,165.56,281.23,718.94,M,1
Shawna Smith,75,70.85,SBD,AD Submasters,Wraps,95.25,54.43,102.06,251.74,F,1
Mike Hamilton,100,99.88,SBD,AD Submasters,Wraps,249.48,165.56,294.84,709.87,M,1
Stan Vespie,140+,140.89,SBD,AD Submasters,Wraps,294.84,183.7,265.35,743.89,M,1
Shannon Zokoe,67.5,66.77,BD,AD Guest Lifter,Raw,,36.29,102.06,138.35,F,G
Ashley Reed,56,55.25,BD,AD Open,Raw,,40.82,77.11,117.93,F,1
Monica Bint,75,72.3,BD,AD Open,Raw,,34.02,79.38,113.4,F,1
Jake Soule,110,108.68,BD,UPA Open,Raw,,170.1,215.46,385.55,M,2
Yago Williams,110,107.41,BD,UPA Open,Raw,,174.63,229.06,403.7,M,1
Jay Ashman,125,117.39,BD,UPA Open,Raw,,165.56,,,M,DQ
Scott Smith,140,138.07,BD,UPA Open,Raw,,201.85,260.82,462.66,M,1
