Name,Age,Sex,Equipment,Division,BodyweightKg,WeightClassKg,Squat1Kg,Squat2Kg,Squat3Kg,Squat4Kg,Best3SquatKg,Bench1Kg,Bench2Kg,Bench3Kg,Bench4Kg,Best3BenchKg,Deadlift1Kg,Deadlift2Kg,Deadlift3Kg,Deadlift4Kg,Best3DeadliftKg,TotalKg,Event,Place
Wayne Healy,18,M,Wraps,MT-2,59.25,60,135,145,-152.5,,145,55,60,62.5,,62.5,150,160,163,-165,163,370.5,SBD,1
Rainer Altmäe,27,M,Wraps,MO,66.65,67.5,190,205,-210,,205,135,141,145,-150,145,215,222.5,230,,230,580,SBD,1
Mark Devine,20,M,Wraps,M-J,64.6,67.5,120,135,147.5,,147.5,100,107.5,-110,,107.5,145,160,170,,170,425,SBD,1
Paddy Hayes,20,M,Wraps,M-J,67.15,67.5,-140,140,147.5,,147.5,70,77.5,-82.5,,77.5,150,160,170,,170,395,SBD,2
Kieran Bennett,19,M,Wraps,MT-2,74.35,75,200,-215,-215,,200,90,95,-100,,95,240,255,260,-270,260,555,SBD,1
Mark Ennis,27,M,Wraps,MO,73.85,75,150,-160,-160,,150,-117.5,117.5,-120,,117.5,170,180,190,,190,457.5,SBD,2
Billy Hutchison,26,M,Wraps,MO,75,75,205,215,220,225,220,120,125,-130,,125,240,-250,-250,,240,585,SBD,1
Neal Dempsey,36,M,Wraps,MN,73.8,75,135,-145,-145,,135,90,-97.5,-97.5,,90,160,175,182.5,,182.5,407.5,SBD,4
Eric Kearns,24,M,Wraps,MN,70.55,75,160,170,-185,,170,90,100,105,,105,160,180,195,,195,470,SBD,2
Seán Burke #1,30,M,Wraps,MN,73.75,75,150,-165,165,,165,75,82.5,87.5,,87.5,160,185,200,,200,452.5,SBD,3
Luke McCann,26,M,Wraps,MN,73.5,75,175,-182.5,-182.5,,175,115,125,-132.5,,125,190,200,-210,,200,500,SBD,1
Viktoras Jaunius,20,M,Wraps,M-J,73.25,75,160,170,-180,,170,-90,95,-100,,95,160,175,185,,185,450,SBD,2
Gatis Keiss,22,M,Wraps,M-J,75,75,150,165,185,,185,120,-125,-125,,120,190,205,220,,220,525,SBD,1
Bill Healy,65,M,Wraps,M-6,73.2,75,-205,-205,205,,205,125,135,-137.5,,135,210,-215,,,210,550,SBD,1
Seán Cregan,50,M,Wraps,M-3,74.7,75,205,-215,-215,,205,115,122.5,-125,,122.5,210,217.5,225,,225,552.5,SBD,1
Scott Dean,17,M,Wraps,MT-2,79.55,82.5,175,182.5,190,-192.5,190,102.5,107.5,-112.5,,107.5,185,195,202.5,205,202.5,500,SBD,1
Jason Brodie Lynch,14,M,Wraps,MT-1,80.75,82.5,90,100,110,-115,110,45,50,52.5,-55,52.5,110,120,127.5,130,127.5,290,SBD,1
Finn O'Riordan,37,M,Wraps,MO,80.6,82.5,160,-175,175,,175,100,112.5,-117.5,,112.5,200,215,-230,,215,502.5,SBD,2
Carlos Pérez #1,30,M,Wraps,MO,80.95,82.5,-220,220,230,,230,120,127.5,132.5,,132.5,215,225,235,,235,597.5,SBD,1
Dean McCabe,26,M,Wraps,MN,79.05,82.5,170,182.5,190,,190,115,125,132.5,,132.5,190,200,210,,210,532.5,SBD,2
David Halpenny,29,M,Wraps,MN,82.35,82.5,130,-140,140,,140,95,-100,-100,,95,70,,,,70,305,SBD,7
John Ruigrok,24,M,Wraps,MN,80.1,82.5,125,-135,-135,,125,70,75,-80,,75,160,170,180,,180,380,SBD,6
Richard Maher,27,M,Wraps,MN,79.9,82.5,160,170,-180,,170,110,115,120,,120,190,210,-220,,210,500,SBD,4
Cormac Butterby,26,M,Wraps,MN,81.1,82.5,155,165,170,,170,97.5,100,-102.5,,100,195,205,210,,210,480,SBD,5
Mick Barrett,33,M,Wraps,MN,78.35,82.5,160,180,-195,,180,115,120,-125,,120,200,220,-235,,220,520,SBD,3
Gareth Williams,24,M,Wraps,MN,77.5,82.5,-210,210,-220,,210,120,127.5,-135,,127.5,220,230,-240,,230,567.5,SBD,1
Kenneth Dean,21,M,Wraps,M-J,79.9,82.5,170,175,-185,,175,107.5,115,120,,120,210,225,-230,,225,520,SBD,2
Stephen Casey,21,M,Wraps,M-J,81.75,82.5,200,-220,-220,,200,140,145,-150,,145,265,280,290,-295,290,635,SBD,1
Wayne Cox,47,M,Wraps,M-2,81.1,82.5,180,200,-211,,200,97.5,102.5,-105,,102.5,231,245,250,,250,552.5,SBD,1
Kestutis Paskauskas,34,M,Wraps,MO,86.5,90,170,-180,-180,,170,110,120,-122.5,,120,180,190,197.5,,197.5,487.5,SBD,2
Mark Higgins,24,M,Wraps,MO,86.45,90,275,,,,275,190,-195,-195,,190,250,271,-280,,271,736,SBD,1
Tommy Dolan,28,M,Wraps,MO,87.6,90,-280,,,,,,,,,,,,,,,,SBD,DQ
Stephen Lee,29,M,Wraps,MN,87.5,90,140,160,-170,,160,120,130,-140,,130,180,190,197.5,,197.5,487.5,SBD,4
Colm Duignan,27,M,Wraps,MN,86.65,90,140,150,155,,155,95,102.5,-105,,102.5,180,190,200,,200,457.5,SBD,5
Kevin Harkin,24,M,Wraps,MN,89.55,90,195,205,212.5,,212.5,120,130,-135,,130,230,240,-245,,240,582.5,SBD,2
Colin Santry,25,M,Wraps,MN,88.35,90,170,185,-200,,185,120,130,-140,,130,210,230,250,,250,565,SBD,3
Marc Galligan,29,M,Wraps,MN,86.25,90,-250,250,260,,260,135,140,-145,,140,245,260,-270,,260,660,SBD,1
Andy Mooney,20,M,Wraps,M-J,89.05,90,175,187.5,-200,,187.5,95,102.5,-107.5,,102.5,200,-212.5,212.5,,212.5,502.5,SBD,2
Josh Lennon,22,M,Wraps,M-J,87,90,185,,,,185,125,135,-142.5,,135,225,-237.5,,,225,545,SBD,1
Jim Butler,50,M,Wraps,M-3,87.15,90,185,200,215,,215,100,105,115,,115,190,200,,,200,530,SBD,1
Fischer Wolfgang,47,M,Wraps,M-2,87.2,90,120,-130,-130,,120,-140,-140,-140,,,120,140,160,,160,,SBD,DQ
Sean Bullman,57,M,Wraps,M-4,91.75,100,100,120,,,120,60,80,,,80,150,170,,,170,370,SBD,1
Richard Penkert,51,M,Wraps,M-3,108.3,110,-255,255,,,255,140,152.5,-160,,152.5,220,,,,220,627.5,SBD,1
Caoimhe Bolton,27,F,Wraps,FO,51.25,52,82.5,90,95,,95,50,-55,55,,55,105,115,120,126,120,270,SBD,1
Sara Vero,25,F,Wraps,FO,51.05,52,70,75,-80,,75,55,60,-65,,60,120,125,-130,,125,260,SBD,2
Sophia Pauzin,24,F,Wraps,FN,55.4,56,60,67.5,75,,75,27.5,32.5,-37.5,,32.5,-95,95,-105,,95,202.5,SBD,2
Danielle McKinny,36,F,Wraps,FN,56,56,85,-95,-95,,85,-35,35,-40,,35,100,-110,-110,,100,220,SBD,1
Marie Walker,31,F,Wraps,FO,56,56,60,-70,-70,,60,35,-37.5,37.5,,37.5,100,110,-115,,110,207.5,SBD,3
Amy O'Neill,29,F,Wraps,FO,56,56,90,95,100,,100,-40,45,-47.5,,45,100,110,-115,,110,255,SBD,2
Emma Rogan,,F,Wraps,FO,55.1,56,95,110,-115,,110,55,-60,60,,60,130,140,-145,,140,310,SBD,1
Sharon Nagle,22,F,Wraps,F-J,58.9,60,55,70,-75,,70,35,-40,40,,40,65,85,-100,,85,195,SBD,1
Laura Connick,26,F,Wraps,FN,57.75,60,-70,70,-85,,70,40,45,-47.5,,45,95,105,120,,120,235,SBD,1
Annie Hunt,24,F,Wraps,FN,58.4,60,60,67.5,75,,75,40,-42.5,-42.5,,40,100,107.5,115,,115,230,SBD,2
Katie Ewing,25,F,Wraps,FN,57.3,60,75,82.5,90,,90,-45,-45,-47.5,,,115,125,-132.5,,125,,SBD,DQ
Corinna Tolan,36,F,Wraps,FO,59.5,60,92.5,102.5,-112.5,,102.5,40,46,-50,,46,120,130,140,146,140,288.5,SBD,1
Naomi Smith,21,F,Wraps,F-J,65.2,67.5,95,-102.5,-102.5,,95,55,58,60,-63,60,100,105,108,-110,108,263,SBD,1
Aoibheann McCaul,29,F,Wraps,FN,62.55,67.5,82.5,95,-100,,95,45,-52.5,-52.5,,45,115,122.5,,,122.5,262.5,SBD,1
Leona Connolly,30,F,Wraps,FN,68.3,75,50,60,70,,70,40,-42.5,42.5,,42.5,90,100,105,,105,217.5,SBD,1
Ashleigh Coyne,24,F,Wraps,FO,74.5,75,75,82.5,90,,90,35,-40,40,,40,125,132.5,137.5,,137.5,267.5,SBD,1
Olivia Donnelly,41,F,Wraps,FM-1,75.35,82.5,85,95,105,-110,105,45,50,-52.5,,50,115,125,132.5,,132.5,287.5,SBD,1
Patricia Page,45,F,Wraps,FM-2,81.2,82.5,100,-105,105,,105,50,-52.5,,,50,130,-137.5,-137.5,,130,285,SBD,1
Tara O'Shaughnessy,39,F,Wraps,FO,77.65,82.5,120,135,-145,,135,65,72.5,-75,,72.5,140,152.5,-161,,152.5,360,SBD,1
Michael Gallagher,39,M,Single-ply,MOS,59.7,60,185,-195,-206,,185,95,105,-110,,105,175,185,-190,,185,475,SBD,1
Adam Priestly,20,M,Multi-ply,M-JE,66.5,67.5,192.5,-200,200,-210,200,-90,90,100,105,100,-200,205,-215,,205,505,SBD,1
Ruairi McCann,28,M,Multi-ply,MOE,66.8,67.5,280,-302.5,-310,,280,-195,-195,-202.5,,,,,,,,,SBD,DQ
Shane Keehan,24,M,Single-ply,MOS,72.1,75,-180,-180,180,,180,80,-85,-85,,80,190,200,-210,,200,460,SBD,1
Killian Prendeville,16,M,Single-ply,MT-2S,75,75,150,160,170,,170,-90,90,-92.5,,90,180,190,-195,,190,450,SBD,1
Richie Power,31,M,Single-ply,MOS,81,82.5,280,-300,-300,,280,190,200,205,-207.5,205,250,-260,-260,,250,735,SBD,1
Shane Brodie,41,M,Single-ply,M-1E,89.65,90,300,312.5,320,,320,190,-200,,,190,100,-150,,,100,610,SBD,1
Patrick O'Shea,36,M,Multi-ply,MNE,88.65,90,240,-260,,,240,145,157.5,-165,,157.5,240,250,260,,260,657.5,SBD,1
Graeme Quirke,35,M,Single-ply,MOS,87.05,90,280,-290,-290,,280,200,210,215.5,,215.5,240,250,-255,,250,745.5,SBD,1
Saulius Kasparas,30,M,Single-ply,MOS,87.9,90,225,235,-250,,235,200,210,-215.5,,210,250,265,280,290,280,725,SBD,2
John Brennan,44,M,Single-ply,M-1S,94.3,100,70,,,,70,160,170,180,,180,150,175,200,,200,450,SBD,2
Seán Hoey,42,M,Single-ply,M-1S,98.35,100,330,352.5,,,352.5,190,200,-210,,200,300,320,-332.5,,320,872.5,SBD,1
Theo Hartemink,51,M,Single-ply,M-3S,95.75,100,120,135,150,,150,180,-190,-190,,180,200,225,-235,,225,555,SBD,1
Gerry McAffee,58,M,Multi-ply,M-4E,97.4,100,-360,360,,,360,120,,,,120,315,,-345,,315,795,SBD,1
Stephen Harvey,32,M,Multi-ply,MOE,95.2,100,260,270,285,,285,150,-160,160,,160,210,222.5,240,,240,685,SBD,1
Virginijus Zvinklys,34,M,Single-ply,MOS,98.4,100,280,290,-300,,290,210,220,225,230,225,240,250,260,,260,775,SBD,2
Rinaldo Visser,32,M,Single-ply,MOS,95.7,100,290,-305,-305,,290,211,-225,225,,225,290,300,-310,,300,815,SBD,1
Kestutis Augylius,32,M,Single-ply,MOS,105.25,110,275,290,310,,310,210,220,230,,230,280,300,310,,310,850,SBD,2
Nerijus Cekas,34,M,Single-ply,MOS,108.9,110,350,370,390,,390,-255,255,,,255,320,340,355,,355,1000,SBD,1
Mike Overkamp,29,M,Single-ply,MOS,120.9,125,290,305,320,,320,175,182.5,190,,190,290,305,320,,320,830,SBD,1
Leslie Steele,37,M,Multi-ply,MOE,151.2,140+,320,-340,,,320,250,265,275,-280,275,265,280,-305,,280,875,SBD,1
Aidas Steponavicius,44,M,Wraps,M-1,93.85,100,260,285,-305,,285,145,152.5,160,,160,245,-255,-255,,245,690,SBD,1
Ian Phelan,38,M,Wraps,MN,98.7,100,170,-190,-200,,170,130,140,-150,,140,210,220,240,,240,550,SBD,4
Shane Cullen,24,M,Wraps,MN,96.2,100,200,210,220,,220,170,180,185,,185,230,245,255,,255,660,SBD,2
Shemus McAuliffe,24,M,Wraps,MN,99.95,100,-180,180,-200,,180,125,135,-140,,135,240,255,-265,,255,570,SBD,3
Ian Woods,31,M,Wraps,MN,98.4,100,-240,240,252.5,,252.5,150,160,-167.5,,160,270,285,-301,,285,697.5,SBD,1
Martynas Valantinas,27,M,Wraps,MN,91.5,100,-170,170,-180,,170,-130,-130,-130,,,,,,,,,SBD,DQ
Kieran Hegarty,32,M,Wraps,MO,96.8,100,-230,230,240,,240,130,140,150,,150,210,227.5,-242.5,,227.5,617.5,SBD,3
Mark Linehan,29,M,Wraps,MO,97.2,100,200,-220,220,,220,170.5,-177.5,,,170.5,225,240,250,,250,640.5,SBD,2
Thomas Corish,32,M,Wraps,MO,99.5,100,250,265,272.5,,272.5,160,172.5,180,-183,180,235,250,260,,260,712.5,SBD,1
Seamus Kirwan,43,M,Wraps,M-1,103.35,110,160,170,-180,,170,175,180,182.5,,182.5,190,200,220,,220,572.5,SBD,1
Alan Mahoney,45,M,Wraps,M-2,108.1,110,240,250,-260,,250,140,150.5,,,150.5,240,260,,,260,660.5,SBD,1
Des Ryan,57,M,Wraps,M-4,109.15,110,180,200,208,220,208,90,110,,,110,180,200,210,,210,528,SBD,1
Matthew Costello,22,M,Wraps,M-J,107.95,110,250,275,-285,,275,150,165,-172.5,,165,220,250,260,,260,700,SBD,1
Paul Devine,24,M,Wraps,MN,107.1,110,185,200,215,,215,135,140,-145,,140,185,200,205,,205,560,SBD,4
Eamon Duffy,36,M,Wraps,MN,105.85,110,160,180,192.5,,192.5,115,-122.5,-122.5,,115,190,202.5,-210,,202.5,510,SBD,6
Seán Hanratty,28,M,Wraps,MN,104.8,110,165,175,185,,185,110,120,-125,,120,220,230,-240,,230,535,SBD,5
Keith Burke,24,M,Wraps,MN,104.9,110,220,230,-240,,230,130,-140,-140,,130,240,250,260,,260,620,SBD,2
Tony O'Rourke,31,M,Wraps,MN,106.7,110,240,-260,-260,,240,160,167.5,172.5,,172.5,260,270,-275,,270,682.5,SBD,1
Tony Clancy,36,M,Wraps,MN,106.9,110,180,195,-215,,195,130,-140,-140,,130,250,270,280,,280,605,SBD,3
Marcin Wisniewani,37,M,Wraps,MO,104.9,110,-160,-160,-165,,,115,120,122.5,,122.5,160,180,190,,190,,SBD,DQ
Shane O'Neill,38,M,Wraps,MO,108.8,110,290,305,317.5,,317.5,180,190,197.5,,197.5,300,320,-330,,320,835,SBD,1
Eamonn Harford,24,M,Wraps,MN,125.1,140,235,250,-265,,250,160,170,-175,,170,300,310,323,-340,323,743,SBD,1
Darran Kennedy,26,M,Wraps,MO,127.65,140,280,-300,-300,,280,170,-180,,,170,280,-300,,,280,730,SBD,1
Aaron Hayes,18,M,Wraps,MT-2,134.1,140,220,232.5,-240,,232.5,100,-107.5,-107.5,,100,210,222.5,-232.5,,222.5,555,SBD,1
